// EVENT 4092
Name "Rami 2"

If(0,25,1)
 221()
 PictureClear(5)
 PictureClear(6)
 ShowMessageFace("",0,0,2,0)
 ShowMessage("......")
 242(2)
 Wait(120)
 241(bytes(0x04,0x08,0x6f,0x3a,0x0d,0x52,0x50,0x47,0x3a,0x3a,0x42,0x47,0x4d,0x08,0x3a,0x0a,0x40,0x6e,0x61,0x6d,0x65,0x49,0x22,0x0c,0x63,0x61,0x73,0x74,0x6c,0x65,0x36,0x06,0x3a,0x06,0x45,0x54,0x3a,0x0c,0x40,0x76,0x6f,0x6c,0x75,0x6d,0x65,0x69,0x69,0x3a,0x0b,0x40,0x70,0x69,0x74,0x63,0x68,0x69,0x69))
 EndEventProcessing()
 0()
EndIf()
PictureDisplay(5,"80_inp_st01",0,0,0,0,100,100,255,0)
ShowMessageFace("inp_fc1",0,0,2,1)
ShowMessage("\\n<Rami>Sometimes it's nice to have a meal bottled and ready.\nThere's not a man alive who wouldn't become addicted to how sweetly I can milk his cock.")
ShowMessageFace("inp_fc1",0,0,2,2)
ShowMessage("\\n<Rami>Oh...? You want me to milk you, too? Here, I'll give you the full service, my cherished ally. ♪")
ShowMessageFace("",0,0,2,3)
ShowMessage("\\n<Luka>P-Please... If it's not too much trouble...")
ShowMessageFace("",0,0,2,4)
ShowMessage("Stepping up to Rami, I feel my cheeks flush red at the thought of what she'll do. She just smiles mischievously, knowing she's got me in the palm of her hand already...")
ShowMessageFace("inp_fc1",1,0,2,5)
ShowMessage("\\n<Rami>Well, you did say please, I suppose. ♪\nSo well-trained already. You're practically domesticated. ♪")
ShowMessageFace("",0,0,2,6)
ShowMessage("Invited back into a private room, my cock stiffens in anticipation...")
221()
PictureClear(5)
PictureDisplay(1,"bg195",0,0,0,0,100,100,255,0)
222()
241(bytes(0x04,0x08,0x6f,0x3a,0x0d,0x52,0x50,0x47,0x3a,0x3a,0x42,0x47,0x4d,0x08,0x3a,0x0a,0x40,0x6e,0x61,0x6d,0x65,0x49,0x22,0x09,0x65,0x72,0x6f,0x31,0x06,0x3a,0x06,0x45,0x54,0x3a,0x0c,0x40,0x76,0x6f,0x6c,0x75,0x6d,0x65,0x69,0x69,0x3a,0x0b,0x40,0x70,0x69,0x74,0x63,0x68,0x69,0x69))
PictureDisplay(5,"ev_inp_ha1",0,0,0,0,100,100,0,0)
PictureMove(5,null,0,0,0,0,100,100,255,0,30,true)
ShowMessageFace("",0,0,2,7)
ShowMessage("And just like that, I'm barely in the room before Rami steps behind me and takes my penis in her hand. A bottle at the ready, she gives a contented hum.")
ShowMessageFace("inp_fc1",1,0,2,8)
ShowMessage("\\n<Rami>So much for being the leader. In here, you'll get your wish and be treated juuust like the livestock you wish to be. ♪")
ShowMessageFace("inp_fc1",1,0,2,9)
ShowMessage("\\n<Rami>In fact, I won't let you leave until this entire bottle is full! ♪")
ShowMessageFace("",0,0,2,10)
ShowMessage("\\n<Luka>W-Wait, hold on! That's way too much!")
ShowMessageFace("inp_fc1",1,0,2,11)
ShowMessage("\\n<Rami>You say that now, but milking boys like you is my forte, Mr. Hero. ♪\nNow, then! Here we goooo! ♪")
245(bytes(0x04,0x08,0x6f,0x3a,0x0d,0x52,0x50,0x47,0x3a,0x3a,0x42,0x47,0x53,0x08,0x3a,0x0a,0x40,0x6e,0x61,0x6d,0x65,0x49,0x22,0x17,0x6d,0x6f,0x6e,0x5f,0x68,0x73,0x65,0x61,0x6e,0x31,0x37,0x5f,0x73,0x69,0x67,0x6f,0x6b,0x69,0x06,0x3a,0x06,0x45,0x54,0x3a,0x0c,0x40,0x76,0x6f,0x6c,0x75,0x6d,0x65,0x69,0x55,0x3a,0x0b,0x40,0x70,0x69,0x74,0x63,0x68,0x69,0x69))
ShowMessageFace("",0,0,2,12)
ShowMessage("Rami carefully grasps my penis and begins to pump it from the base to the very tip; she grips my cock just right, the pressure firm enough to coax a sigh past my lips.")
ShowMessageFace("",0,0,2,13)
ShowMessage("She begins to hum softly as she casually moves her hand up and down, aiming the tip carefully into the bottle.")
ShowMessageFace("",0,0,2,14)
ShowMessage("I was almost nervous at first, but with my penis in her hand, all I can do is melt into her grip, already utterly content.")
ShowMessageFace("",0,0,2,15)
ShowMessage("\\n<Luka>Ah, faaaaa...")
ShowMessageFace("inp_fc1",1,0,2,16)
ShowMessage("\\n<Rami>Awww, see?\nI'm simply the best there is when it comes to this.")
ShowMessageFace("inp_fc1",1,0,2,17)
ShowMessage("\\n<Rami>You were so incredulous, but I bet soon you'll be asking to help fill up a second bottle. I know how to squeeze it out juuust right. ♪")
ShowMessageFace("",0,0,2,18)
ShowMessage("Rami begins to slide her palm up and down my shaft with a giggle.")
ShowMessageFace("",0,0,2,19)
ShowMessage("It's not just moving her hand, though. Her grip starts looser at the top, tightening as she gets further down.")
ShowMessageFace("",0,0,2,20)
ShowMessage("The way she changes her grip is impeccable, perfectly matching my movements and keeping me pliable and complacent. Tender, yet firm, the way she holds my cock in her hand is almost indescribable.")
ShowMessageFace("",0,0,2,21)
ShowMessage("With a sensation like that around my penis, I can't help but shiver with embarrassed delight.")
ShowMessageFace("",0,0,2,22)
ShowMessage("\\n<Luka>Ah... Fwaaah...")
ShowMessageFace("inp_fc1",1,0,2,23)
ShowMessage("\\n<Rami>Ufufu! That's not like any moo I've ever heard. ♪\nIs my little calf getting close? We have quite a ways to go. ♪")
ShowMessageFace("inp_fc1",1,0,2,24)
ShowMessage("\\n<Rami>But it's good you're getting started already!\nHere, just pew pew right in the bottle, don't be shy. ♪")
ShowMessageFace("",0,0,2,25)
ShowMessage("Rami giggles, pumping away at my penis.")
ShowMessageFace("",0,0,2,26)
ShowMessage("Any willpower I had to resist is melting away in the face of my desire to surrender. I can feel my balls churning with cum...")
ShowMessageFace("inp_fc1",1,0,2,27)
ShowMessage("\\n<Rami>It's adorable how you thought you could hold on. ♪\nLook, your penis is twitching already! No need to resist, just give in, my cherished leader. ♪")
ShowMessageFace("",0,0,2,28)
ShowMessage("Her tail brings the bottle closer, the rim of it practically taking in the tip of my cock.")
ShowMessageFace("",0,0,2,29)
ShowMessage("Having my semen milked from me and bottled up--")
ShowMessage("I don't care anymore about the shame, I just want to drown in this pleasure.")
ShowMessageFace("",0,0,2,30)
ShowMessage("\\n<Luka>Auu... C-coming...")
ShowMessageFace("inp_fc1",1,0,2,31)
ShowMessage("\\n<Rami>That's a good boy. ♪\nHere, just enjoy how my hand feels. ♪")
ShowMessageFace("",0,0,2,32)
ShowMessage("Ready to finish me off, her hand speeds up, relentless in its pace.")
ShowMessageFace("",0,0,2,33)
ShowMessage("With the already divine sensation only growing more intense, I see I can't hold on anymore and finally give into it.")
ShowMessageFace("",0,0,2,34)
ShowMessage("Ally or no, Rami is playing with me like I'm a toy to her. Even my pride crumbles away, and all the endurance that came with it.")
ShowMessageFace("",0,0,2,35)
ShowMessage("\\n<Luka>Ah... Aaaaah!")
RunCommonEvent(104)
PictureDisplay(5,"ev_inp_ha2",0,0,0,0,100,100,255,0)
RunCommonEvent(105)
ShowMessageFace("",0,0,2,36)
ShowMessage("Cum splurts out sloppily, but Rami's tail is dexterous enough to catch every drop in the bottle.")
ShowMessageFace("inp_fc1",1,0,2,37)
ShowMessage("\\n<Rami>Aww, you enjoyed it after all. ♪\nLook at all this cream I managed to get. ♪")
ShowMessageFace("",0,0,2,38)
ShowMessage("Rami giggles as she milks the last few drops into the bottle. My penis gives a contented twitch at her touch even as I moan.")
ShowMessageFace("",0,0,2,39)
ShowMessage("\\n<Luka>Ah, aaaah!")
ShowMessageFace("",0,0,2,40)
ShowMessage("The way she keeps stroking my cock is too much for my sensitive body to take. Even so, she keeps her grip firm and only squeezes harder as she pumps from the base to the tip one last time.")
246(1)
PictureDisplay(5,"ev_inp_ha3",0,0,0,0,100,100,255,0)
ShowMessageFace("",0,0,2,41)
ShowMessage("Finally, she stops for a moment, having wrung out every drop I had that orgasm.")
ShowMessageFace("inp_fc1",1,0,2,42)
ShowMessage("\\n<Rami>See, see? That wasn't so bad. ♪\nAnd there's sooo much of your cum in this bottle, too. ♪")
ShowMessageFace("",0,0,2,43)
ShowMessage("\\n<Luka>Ngh...")
ShowMessageFace("",0,0,2,44)
ShowMessage("Looking back, I see the way my cum begins to fill the bottle she's holding.")
ShowMessageFace("",0,0,2,45)
ShowMessage("Even if I asked for this, I didn't expect her to treat me like common livestock...")
ShowMessageFace("inp_fc1",1,0,2,46)
ShowMessage("\\n<Rami>...You don't think we're done, do you? Ohoho, no. We've got much more to do before my snack is ready. ♪")
ShowMessageFace("",0,0,2,47)
ShowMessage("\\n<Luka>Y-You can't be serious... Auuuu!")
245(bytes(0x04,0x08,0x6f,0x3a,0x0d,0x52,0x50,0x47,0x3a,0x3a,0x42,0x47,0x53,0x08,0x3a,0x0a,0x40,0x6e,0x61,0x6d,0x65,0x49,0x22,0x17,0x6d,0x6f,0x6e,0x5f,0x68,0x73,0x65,0x61,0x6e,0x31,0x37,0x5f,0x73,0x69,0x67,0x6f,0x6b,0x69,0x06,0x3a,0x06,0x45,0x54,0x3a,0x0c,0x40,0x76,0x6f,0x6c,0x75,0x6d,0x65,0x69,0x55,0x3a,0x0b,0x40,0x70,0x69,0x74,0x63,0x68,0x69,0x69))
ShowMessageFace("",0,0,2,48)
ShowMessage("Her pumping resumes, despite my protests. It looks like she's just stroking up and down, but it's so much more than that.")
ShowMessageFace("",0,0,2,49)
ShowMessage("Just like before, the firmness of her grip changes as she pumps from the base to the tip. What's more, her hand is still completely smooth, not at all dirty from my orgasm.")
ShowMessageFace("",0,0,2,50)
ShowMessage("The silkiness of her grip combined with her devilish squeezing, it's enough to quell all my doubts about filling up her bottle in one session...")
ShowMessageFace("",0,0,2,51)
ShowMessage("\\n<Luka>Auuu...")
ShowMessageFace("inp_fc1",1,0,2,52)
ShowMessage("\\n<Rami>Hey... Isn't it embarrassing asking for this from an ally? I mean, should I really listen to a leader like you, begging to be milked by me?")
ShowMessageFace("",0,0,2,53)
ShowMessage("Rami just smirks, continuing to stroke my penis up and down, up and down...")
ShowMessageFace("",0,0,2,54)
ShowMessage("My cheeks flush deep red as I curse myself for thinking with my penis. She's not even an enemy! I asked one of my allies to do this to me...")
ShowMessageFace("inp_fc1",1,0,2,55)
ShowMessage("\\n<Rami>Not much of a white knight, are you? ♪\nGood thing we're in private, I suppose. For your sake. ♪")
ShowMessageFace("",0,0,2,56)
ShowMessage("\\n<Luka>Aaaaaah!")
ShowMessageFace("",0,0,2,57)
ShowMessage("She doesn't stop for a moment as she talks. If anything, she starts pumping faster. It feels like she's going to coax everything I have from me...")
ShowMessageFace("inp_fc1",1,0,2,58)
ShowMessage("\\n<Rami>That's right, that's right, no need to hold back...\nYou already came once. What's one more time? ♪")
ShowMessageFace("",0,0,2,59)
ShowMessage("\\n<Luka>Ah... N-no...")
ShowMessageFace("",0,0,2,60)
ShowMessage("I try to rally my willpower and resist, but with Rami milking my cock so expertly, that determination never comes.")
ShowMessageFace("",0,0,2,61)
ShowMessage("She quite literally has me in the palm of her hand.")
ShowMessageFace("",0,0,2,62)
ShowMessage("It's as if a switch goes off in my mind, and I accept it, letting go of my pride and just letting her have her way with me. Anything as long as I get to come again...")
ShowMessageFace("inp_fc1",1,0,2,63)
ShowMessage("\\n<Rami>Mm? What's that, Mr. Hero? You've given up? You want your penis pumped dry by an imp's hand?")
ShowMessageFace("inp_fc1",1,0,2,64)
ShowMessage("\\n<Rami>If you insist. Come for me now. ♪")
ShowMessageFace("",0,0,2,65)
ShowMessage("Rami gives one final pump, tipping me over the edge and delivering the finishing blow!")
ShowMessageFace("",0,0,2,66)
ShowMessage("\\n<Luka>Ah, aaaaaaaaah!!")
RunCommonEvent(104)
PictureDisplay(5,"ev_inp_ha4",0,0,0,0,100,100,255,0)
RunCommonEvent(105)
ShowMessageFace("",0,0,2,67)
ShowMessage("Once more, my penis throbs as it gushes with shot after shot of cum, all of it pumping right into her bottle. My body begins to go limp as I bask in the enchanting feeling of release...")
ShowMessageFace("inp_fc1",1,0,2,68)
ShowMessage("\\n<Rami>Mm... Now, let me use my special technique. ♪\nIf I squeeze your penis juuust like this...")
ShowMessageFace("",0,0,2,69)
ShowMessage("\\n<Luka>Ah, ahiiiiii!")
ShowMessageFace("",0,0,2,70)
ShowMessage("Rami suddenly grabs my penis again, gripping it with all five of her fingers in a tightening wave to wring my cock in the middle of my orgasm.")
ShowMessageFace("",0,0,2,71)
ShowMessage("Her hand is good enough on its own, but in the middle of my climax, it's almost too much. The pleasure crests higher and higher, and my mind goes white as I gasp suddenly.")
ShowMessageFace("",0,0,2,72)
ShowMessage("\\n<Luka>Ah, aaaah!!")
RunCommonEvent(104)
PictureDisplay(5,"ev_inp_ha5",0,0,0,0,100,100,255,0)
RunCommonEvent(105)
ShowMessageFace("",0,0,2,73)
ShowMessage("Somehow, she manages to coax even more cum from me by doing so, and another wave of pleasure crashes down on me. It's as if I orgasmed twice at the same time.")
ShowMessageFace("",0,0,2,74)
ShowMessage("With that kind of pleasure spreading through my body, I can't help but spurt out even more semen. The sheer ecstasy soon makes my knees shake, practically numb from the waist down...")
ShowMessageFace("",0,0,2,75)
ShowMessage("\\n<Luka>Ah, aaaah...")
ShowMessageFace("inp_fc1",1,0,2,76)
ShowMessage("\\n<Rami>Ehehe... So, was it good for you?")
246(1)
PictureDisplay(5,"ev_inp_ha6",0,0,0,0,100,100,255,0)
ShowMessageFace("",0,0,2,77)
ShowMessage("With her special technique, she manages to coax out more semen than ever, all of it safely and neatly collected in her milk bottle.")
ShowMessageFace("",0,0,2,78)
ShowMessage("As the result of my submission sloshes around, cloudy and thick, I can't help but feel a little bitter.")
ShowMessageFace("",0,0,2,79)
ShowMessage("Being toyed with, my penis wrung dry, and my so-called ally mocking me as she did it...")
ShowMessageFace("inp_fc1",1,0,2,80)
ShowMessage("\\n<Rami>See? You and I managed to fill it up after all! Such a good little calf. ♪")
ShowMessageFace("inp_fc1",1,0,2,81)
ShowMessage("\\n<Rami>Oh, don't give me that look. You asked for it. ♪")
ShowMessageFace("",0,0,2,82)
ShowMessage("Rami plucks the bottle from her tail and smirks at me as she raises it to her lips. Then--")
ShowMessageFace("inp_fc1",1,0,2,83)
ShowMessage("\\n<Rami>*glug, glug, glug*\n... Pfaaa!")
ShowMessageFace("",0,0,2,84)
ShowMessage("In a single gulp, she manages to drink down the entire bottle, all that work reduced to a simple refreshment.")
ShowMessageFace("inp_fc1",1,0,2,85)
ShowMessage("\\n<Rami>What a flavor!\nMaybe you're good for something after all. ♪")
ShowMessageFace("",0,0,2,86)
ShowMessage("\\n<Luka>......")
ShowMessageFace("",0,0,2,87)
ShowMessage("The sweet sting of having my cum milked from me and gulped down... Hero or no, I feel more like livestock at the moment.")
ShowMessageFace("",0,0,2,88)
ShowMessage("It's a good thing she's my ally. If Rami did that to me as an enemy, my heart would be hers for sure...")
221()
PictureClear(5)
PictureClear(6)
246(2)
ShowMessageFace("",0,0,2,89)
ShowMessage("......")
242(2)
Wait(120)
241(bytes(0x04,0x08,0x6f,0x3a,0x0d,0x52,0x50,0x47,0x3a,0x3a,0x42,0x47,0x4d,0x08,0x3a,0x0a,0x40,0x6e,0x61,0x6d,0x65,0x49,0x22,0x0c,0x63,0x61,0x73,0x74,0x6c,0x65,0x36,0x06,0x3a,0x06,0x45,0x54,0x3a,0x0c,0x40,0x76,0x6f,0x6c,0x75,0x6d,0x65,0x69,0x69,0x3a,0x0b,0x40,0x70,0x69,0x74,0x63,0x68,0x69,0x69))
0()
