// EVENT 3289
Name "Tiger Girl"

PictureDisplay(5,"80_tora_st02",0,0,0,0,100,100,0,0)
PictureMove(5,null,0,0,0,0,100,100,255,0,30,true)
241(bytes(0x04,0x08,0x6f,0x3a,0x0d,0x52,0x50,0x47,0x3a,0x3a,0x42,0x47,0x4d,0x08,0x3a,0x0a,0x40,0x6e,0x61,0x6d,0x65,0x49,0x22,0x09,0x65,0x72,0x6f,0x31,0x06,0x3a,0x06,0x45,0x54,0x3a,0x0c,0x40,0x76,0x6f,0x6c,0x75,0x6d,0x65,0x69,0x69,0x3a,0x0b,0x40,0x70,0x69,0x74,0x63,0x68,0x69,0x69))
ShowMessageFace("",0,0,2,1)
ShowMessage("\\n<Luka>")
ShowMessage("Hauuu....")
ShowMessageFace("tora_fc1",1,0,2,2)
ShowMessage("\\n<Tiger Girl>")
ShowMessage("It's my victory!")
ShowMessage("Time to rape the pathetic loser...!")
ShowMessageFace("",0,0,2,3)
ShowMessage("\\n<Luka>")
ShowMessage("S-stop... Uwaaa!!")
ShowMessageFace("",0,0,2,4)
ShowMessage("The Tiger Girl's large body knocks me to the ground and forcibly leans on me...")
PictureDisplay(5,"ev_tora_h1",0,0,0,0,100,100,0,0)
PictureMove(5,null,0,0,0,0,100,100,255,0,30,true)
ShowMessageFace("",0,0,2,5)
ShowMessage("\\n<Luka>")
ShowMessage("U-ugh...")
ShowMessageFace("",0,0,2,6)
ShowMessage("I groan, covered by her warm body, covered in her fluffy fur.")
ShowMessageFace("tora_fc1",1,0,2,7)
ShowMessage("\\n<Tiger Girl>")
ShowMessage("Fufu... You're already like this. Come, let us enjoy mating like beasts...!")
ShowMessageFace("",0,0,2,8)
ShowMessage("The Tiger Girl pushes her hips on my abdomen rubbing her female part against my already erect penis...")
245(bytes(0x04,0x08,0x6f,0x3a,0x0d,0x52,0x50,0x47,0x3a,0x3a,0x42,0x47,0x53,0x08,0x3a,0x0a,0x40,0x6e,0x61,0x6d,0x65,0x49,0x22,0x1e,0x6d,0x6f,0x6e,0x5f,0x68,0x73,0x65,0x61,0x6e,0x30,0x36,0x5f,0x69,0x6e,0x6e,0x65,0x72,0x77,0x6f,0x72,0x6b,0x73,0x5f,0x61,0x36,0x06,0x3a,0x06,0x45,0x54,0x3a,0x0c,0x40,0x76,0x6f,0x6c,0x75,0x6d,0x65,0x69,0x55,0x3a,0x0b,0x40,0x70,0x69,0x74,0x63,0x68,0x69,0x69))
PictureDisplay(6,"ev_tora_ct01",0,0,0,0,100,100,255,0)
ShowMessageFace("",0,0,2,9)
ShowMessage("With a wet sound, I slip inside her hot honey pot! Her wet insides rub against my glans...")
ShowMessageFace("",0,0,2,10)
ShowMessage("\\n<Luka>")
ShowMessage("Ah... Hauuu...!!")
ShowMessageFace("",0,0,2,11)
ShowMessage("In the blink of an eye, all my strength vanishes as her grainy flesh rubs against my glans.")
ShowMessageFace("",0,0,2,12)
ShowMessage("I'm mating with a monster... The immorality of the situation excites me even more...")
ShowMessageFace("tora_fc1",1,0,2,13)
ShowMessage("\\n<Tiger Girl>")
ShowMessage("I'm part feline as well... My vagina is filled with soft bumps that rub against a man's glans and weaken him.")
ShowMessageFace("",0,0,2,14)
ShowMessage("\\n<Luka>")
ShowMessage("Hauuu...")
ShowMessageFace("",0,0,2,15)
ShowMessage("Her complex grainy inside is specifically designed to rub a man's glans and make him ejaculate.")
ShowMessageFace("",0,0,2,16)
ShowMessage("I experience it with my own penis which makes me go weak from the intense pleasure...")
ShowMessageFace("",0,0,2,17)
ShowMessage("\\n<Luka>")
ShowMessage("Ugh... It feels good...")
ShowMessageFace("tora_fc1",1,0,2,18)
ShowMessage("\\n<Tiger Girl>")
ShowMessage("Fufu, it seems like you're enjoying the feeling of being inside me. But what's going to happen if I tighten the inside like this...?")
ShowMessageFace("",0,0,2,19)
ShowMessage("\\n<Luka>")
ShowMessage("...Eh?")
ShowMessageFace("tora_fc1",1,0,2,20)
ShowMessage("\\n<Tiger Girl>")
ShowMessage("If I tighten when the man is weakened by my grainy vagina, they'll shoot out their seed in an instant...")
ShowMessageFace("tora_fc1",1,0,2,21)
ShowMessage("\\n<Tiger Girl>")
ShowMessage("Now, I'm going to squeeze you as well. Come now, shoot out your pathetic semen!")
ShowMessageFace("",0,0,2,22)
ShowMessage("\\n<Luka>")
ShowMessage("Th-that's...")
ShowMessageFace("tora_fc1",1,0,2,23)
ShowMessage("\\n<Tiger Girl>")
ShowMessage("Now come... Hoora!")
ShowMessageFace("",0,0,2,24)
ShowMessage("\\n<Luka>")
ShowMessage("Ah... Aaaaaaaau!!")
ShowMessageFace("",0,0,2,25)
ShowMessage("The inside of the Tiger Girl's vagina gets insanely tight, the soft grainy flesh squeezing and digging into my glans...")
ShowMessageFace("",0,0,2,26)
ShowMessage("\\n<Luka>")
ShowMessage("Aaah... Amazing... Hauuu!!")
ShowMessageFace("",0,0,2,27)
ShowMessage("Both my feet wiggle from the intense pleasure. The inside of my head goes pure white as my penis is squeezed inside her tight honey pot...")
ShowMessageFace("",0,0,2,28)
ShowMessage("\\n<Luka>")
ShowMessage("Coming, I'm coming...! Aaaaaaah...!")
RunCommonEvent(104)
PictureDisplay(5,"ev_tora_h2",0,0,0,0,100,100,255,0)
PictureDisplay(6,"ev_tora_ct02",0,0,0,0,100,100,255,0)
RunCommonEvent(105)
ShowMessageFace("",0,0,2,29)
ShowMessage("All of a sudden the strength in my waist vanishes, my penis starts throbbing and my semen gushes out inside the Tiger Girl's vagina.")
ShowMessageFace("",0,0,2,30)
ShowMessage("\\n<Luka>")
ShowMessage("Hauuu...")
ShowMessageFace("",0,0,2,31)
ShowMessage("My semen shoots out as my glans is squeezed, the pleasure making it feel like my very soul is shooting out of me....")
ShowMessageFace("tora_fc1",1,0,2,32)
ShowMessage("\\n<Tiger Girl>")
ShowMessage("Fufu, already over...? I can make you come inside me whenever I want.")
ShowMessageFace("tora_fc1",1,0,2,33)
ShowMessage("\\n<Tiger Girl>")
ShowMessage("Hoora, I'll keep tormenting you with my waist and there's nothing you can do about it!")
ShowMessageFace("",0,0,2,34)
ShowMessage("\\n<Luka>")
ShowMessage("Ahii...! Ah, aaaah...!!")
ShowMessageFace("",0,0,2,35)
ShowMessage("All of a sudden, the Tiger Girl starts to violently swing her hips. Like a bucking horse, her tiger half moves up and down.")
ShowMessageFace("",0,0,2,36)
ShowMessage("Inside her grainy vagina, my penis is intensely stimulated from her piston movement.")
ShowMessageFace("",0,0,2,37)
ShowMessage("\\n<Luka>")
ShowMessage("Hya... Auuu, ah... Aaaah!!")
ShowMessageFace("",0,0,2,38)
ShowMessage("Her violent hip movements continue crushing and rubbing my glans with her grainy flesh. The intense stimulation makes my feet kick up.")
ShowMessageFace("",0,0,2,39)
ShowMessage("My waist trembles, a sweet numbness spreads through it as the sweet feeling of release rises in me...")
ShowMessageFace("tora_fc1",1,0,2,40)
ShowMessage("\\n<Tiger Girl>")
ShowMessage("Ahaha, how is it? How does it feel to be raped and not being able to resist?")
ShowMessageFace("tora_fc1",1,0,2,41)
ShowMessage("\\n<Tiger Girl>")
ShowMessage("Go ahead, shoot your semen inside me, you're powerless to resist my skills!")
ShowMessageFace("",0,0,2,42)
ShowMessage("She drops her heavy lower body onto me, making my penis reach the deepest part of her honey pot. At the same time, she moves her hips left and right, her soft flesh massaging my penis...")
ShowMessageFace("",0,0,2,43)
ShowMessage("\\n<Luka>")
ShowMessage("Hyaaaa... Ah, aaaah!!")
RunCommonEvent(104)
PictureDisplay(5,"ev_tora_h3",0,0,0,0,100,100,255,0)
PictureDisplay(6,"ev_tora_ct03",0,0,0,0,100,100,255,0)
RunCommonEvent(105)
ShowMessageFace("",0,0,2,44)
ShowMessage("Before I know it, I yield to her waist movement and shoot out my semen inside her...")
ShowMessageFace("tora_fc1",1,0,2,45)
ShowMessage("\\n<Tiger Girl>")
ShowMessage("You came... But it's not over yet! I'll make you come over and over!")
ShowMessageFace("",0,0,2,46)
ShowMessage("\\n<Luka>")
ShowMessage("Stop, stop it... Hyaaaaa!!")
ShowMessageFace("",0,0,2,47)
ShowMessage("The Tiger Girls shows no mercy and keeps swinging her hips. All I can do is take this agonizing pleasure.")
ShowMessageFace("",0,0,2,48)
ShowMessage("Her vaginal wall keeps rubbing my glans, squeezing and crushing it at the same time...")
ShowMessageFace("",0,0,2,49)
ShowMessage("\\n<Luka>")
ShowMessage("Ayeee... Ah, aaaaaah!!")
ShowMessageFace("tora_fc1",1,0,2,50)
ShowMessage("\\n<Tiger Girl>")
ShowMessage("Is it painful? Is it agonizing!? However it feels, I'll show you no mercy. Keep shooting out your pathetic semen!")
ShowMessageFace("",0,0,2,51)
ShowMessage("\\n<Luka>")
ShowMessage("C-coming again...!! Hya... Aaaaah!!")
RunCommonEvent(104)
PictureDisplay(5,"ev_tora_h4",0,0,0,0,100,100,255,0)
PictureDisplay(6,"ev_tora_ct04",0,0,0,0,100,100,255,0)
RunCommonEvent(105)
ShowMessageFace("",0,0,2,52)
ShowMessage("A large amount of semen shoots out inside the Tiger Girl's vagina. Drained of all my strength, I spasm under her.")
ShowMessageFace("",0,0,2,53)
ShowMessage("Each time my semen spurts out, her greedy vagina squeezes my penis making sure not to leave a single drop inside my urethra, drinking it for a third time...")
ShowMessageFace("",0,0,2,54)
ShowMessage("\\n<Luka>")
ShowMessage("Hau... Ugh...")
ShowMessageFace("tora_fc1",1,0,2,55)
ShowMessage("\\n<Tiger Girl>")
ShowMessage("Fufu... I squeezed out everything. My vagina is filled with your seed.")
ShowMessageFace("tora_fc1",1,0,2,56)
ShowMessage("\\n<Tiger Girl>")
ShowMessage("Not even a single drop will come out anymore. If I come across you again, I'm going to wring you again.")
PictureClear(5)
PictureClear(6)
ShowMessageFace("",0,0,2,57)
ShowMessage("After feasting on my semen, the Tiger Girl stands up, releases my penis from her vagina and walks away...")
ShowMessageFace("",0,0,2,58)
ShowMessage("\\n<Luka>")
ShowMessage("ah...ugh...")
ShowMessageFace("",0,0,2,59)
ShowMessage("Weakened, I'm abandoned on that spot...")
221()
246(2)
ShowMessageFace("",0,0,2,60)
ShowMessage("After that, I lost the will to fight; I dedicated my entire life to drowning in the pleasure of mating with monsters...")
ShowMessageFace("",0,0,2,61)
ShowMessage("......")
221()
242(1)
Wait(120)
355("memory_interruption")
ShowMessageFace("",0,0,2,62)
ShowMessage("You hear Ilias' voice calling out to you...")
ShowMessage("Receive her evaluation?")
ShowChoices(strings("Receive evaluation","Change difficulty","Reincarnate"),3)
IfPlayerPicksChoice(0,"Receive Evaluation")
 241(bytes(0x04,0x08,0x6f,0x3a,0x0d,0x52,0x50,0x47,0x3a,0x3a,0x42,0x47,0x4d,0x08,0x3a,0x0a,0x40,0x6e,0x61,0x6d,0x65,0x49,0x22,0x0a,0x69,0x72,0x69,0x61,0x73,0x06,0x3a,0x06,0x45,0x54,0x3a,0x0c,0x40,0x76,0x6f,0x6c,0x75,0x6d,0x65,0x69,0x5f,0x3a,0x0b,0x40,0x70,0x69,0x74,0x63,0x68,0x69,0x6e))
 PictureDisplay(1,"bg001",0,0,0,0,100,100,255,0)
 222()
 PictureDisplay(5,"80_iriasu_st04",0,0,0,0,100,100,0,0)
 PictureMove(5,null,0,0,0,0,100,100,255,0,30,true)
 ShowMessageFace("iriasu_fc1",3,0,2,63)
 ShowMessage("\\n<Ilias>")
 ShowMessage("Seems like you enjoy bestiality, being raped by a tiger and all.")
 ShowMessage("Do you wish to be born as a tiger in your next life?")
 PictureDisplay(5,"80_iriasu_st01",0,0,0,0,100,100,255,0)
 ShowMessageFace("iriasu_fc1",0,0,2,64)
 ShowMessage("\\n<Ilias>")
 ShowMessage("The Tiger Girl uses mainly physical-oriented Katana and Beast skills.")
 ShowMessage("She's quite a difficult foe considering she's very agile.")
 ShowMessageFace("iriasu_fc1",0,0,2,65)
 ShowMessage("\\n<Ilias>")
 ShowMessage("Since she has the characteristics of a beast, Pleasure skills are quite effective against her.")
 ShowMessage("Status ailments are also easy to inflict so use them to make your fight easier.")
 PictureDisplay(5,"80_iriasu_st02",0,0,0,0,100,100,255,0)
 ShowMessageFace("iriasu_fc1",1,0,2,66)
 ShowMessage("\\n<Ilias>")
 ShowMessage("Now go, oh Brave Luka.")
 ShowMessage("You're a tiger, become a tiger.")
 242(1)
 221()
 PictureClear(5)
 PictureClear(1)
 Wait(60)
 0()
IfPlayerPicksChoice(1,"Change difficulty")
 ShowMessageFace("",0,0,2,67)
 ShowMessage("Please choose a difficulty level.")
 RunCommonEvent(110)
 0()
IfPlayerPicksChoice(2,"Reincarnate")
 0()
404()
RunCommonEvent(3000)
0()
