// EVENT 7000
Name "Common: BF Defeat"

355("$game_library.count_up_battlefuck_lose")
ChangeVariable(905,905,1,0,1)
250(bytes(0x04,0x08,0x6f,0x3a,0x0c,0x52,0x50,0x47,0x3a,0x3a,0x53,0x45,0x08,0x3a,0x0a,0x40,0x6e,0x61,0x6d,0x65,0x49,0x22,0x0a,0x44,0x6f,0x77,0x6e,0x33,0x06,0x3a,0x06,0x45,0x54,0x3a,0x0b,0x40,0x70,0x69,0x74,0x63,0x68,0x69,0x69,0x3a,0x0c,0x40,0x76,0x6f,0x6c,0x75,0x6d,0x65,0x69,0x55))
ChangeSwitch(98,98,1)
313(0,1,1,1)
ChangeSwitch(96,96,1)
ShowMessageFace("",0,0,2,1)
ShowMessage("Luka was bested by the battle fucker...")
If(1,905,0,1,1)
 355("gain_medal(1421)")
 0()
EndIf()
If(1,905,0,30,1)
 355("gain_medal(1422)")
 0()
EndIf()
If(1,905,0,50,1)
 355("gain_medal(1423)")
 0()
EndIf()
0()
