// EVENT 3071
Name "XX-7"

If(0,25,1)
 JumpToLabel("反省会")
 0()
EndIf()
PictureDisplay(5,"80_XX-7_st01",0,0,0,0,100,100,0,0)
PictureMove(5,null,0,0,0,0,100,100,255,0,30,true)
241(bytes(0x04,0x08,0x6f,0x3a,0x0d,0x52,0x50,0x47,0x3a,0x3a,0x42,0x47,0x4d,0x08,0x3a,0x0a,0x40,0x6e,0x61,0x6d,0x65,0x49,0x22,0x09,0x65,0x72,0x6f,0x31,0x06,0x3a,0x06,0x45,0x54,0x3a,0x0c,0x40,0x76,0x6f,0x6c,0x75,0x6d,0x65,0x69,0x69,0x3a,0x0b,0x40,0x70,0x69,0x74,0x63,0x68,0x69,0x69))
ShowMessageFace("",0,0,2,1)
ShowMessage("\\n<Luka>Unnngh...")
ShowMessageFace("",0,0,2,2)
ShowMessage("Defeated, my body crumbles to the ground.")
ShowMessage("My body is rolled up by tentacles and my movement restrained.")
ShowMessageFace("XX-7_fc1",0,0,2,3)
ShowMessage("\\n<XX-7>This is the end for you...\nNo, there seem to be others hiding...")
ShowMessageFace("",0,0,2,4)
ShowMessage("XX-7 turns her gaze behind her...")
ShowMessageFace("",0,0,2,5)
ShowMessage("\\n<KnightA>Oh no, she found us!")
ShowMessageFace("",0,0,2,6)
ShowMessage("\\n<KnightB>We have to fight her!")
ShowMessageFace("",0,0,2,7)
ShowMessage("\\n<KnightC>I-impossible...\nShe found us...")
ShowMessageFace("",0,0,2,8)
ShowMessage("Three knights emerge from the shadows.")
ShowMessage("Perhaps they were sent here from San Ilia.")
ShowMessageFace("",0,0,2,9)
ShowMessage("\\n<Luka>Don't come close, run away...!")
ShowMessageFace("",0,0,2,10)
ShowMessage("\\n<KnightA>We'll help you, Mr. Hero!")
ShowMessageFace("",0,0,2,11)
ShowMessage("The knights challenge XX-7 with their swords ready...")
ShowMessageFace("",0,0,2,12)
ShowMessage("\\n<KnightA>Huaaaaa!")
ShowMessageFace("",0,0,2,13)
ShowMessage("However, their attacks are stopped instantly.")
ShowMessage("In the blink of an eye, all of them end up restrained by tentacles, just like me...")
PictureDisplay(5,"ev_XX-7_ha1",0,0,0,0,100,100,0,0)
PictureMove(5,null,0,0,0,0,100,100,255,0,30,true)
ShowMessageFace("",0,0,2,14)
ShowMessage("Suffering the same fate as those defeated by the monster girl, their clothes are taken off...")
ShowMessage("And the tentacles that bind them stick to their crotches!")
ShowMessageFace("",0,0,2,15)
ShowMessage("\\n<KnightB>Hyaaaaa...!")
ShowMessageFace("",0,0,2,16)
ShowMessage("\\n<KnightC>P-please...spare me...")
ShowMessageFace("",0,0,2,17)
ShowMessage("Stuck inside the tentacles' openings, the knights desperately struggle.")
ShowMessage("Trapped like that, the tentacle starts sucking on them.")
ShowMessageFace("XX-7_fc1",0,0,2,18)
ShowMessage("\\n<XX-7>Hero Luka...I will save you for last...\nFirst, I'll take care of the insignificant people...")
ShowMessageFace("XX-7_fc1",0,0,2,19)
ShowMessage("\\n<XX-7>I will suck them dry one by one...\nThere's nothing to be afraid of, it will feel amazing...")
ShowMessageFace("",0,0,2,20)
ShowMessage("\\n<KnightA>S-stop...Uaaaaah!")
245(bytes(0x04,0x08,0x6f,0x3a,0x0d,0x52,0x50,0x47,0x3a,0x3a,0x42,0x47,0x53,0x08,0x3a,0x0a,0x40,0x6e,0x61,0x6d,0x65,0x49,0x22,0x1a,0x6d,0x6f,0x6e,0x5f,0x68,0x73,0x65,0x61,0x6e,0x32,0x31,0x5f,0x74,0x65,0x6e,0x74,0x61,0x63,0x6c,0x65,0x32,0x06,0x3a,0x06,0x45,0x54,0x3a,0x0c,0x40,0x76,0x6f,0x6c,0x75,0x6d,0x65,0x69,0x55,0x3a,0x0b,0x40,0x70,0x69,0x74,0x63,0x68,0x69,0x69))
PictureDisplay(6,"ev_XX-7_ct01",0,0,0,0,100,100,255,0)
ShowMessageFace("",0,0,2,21)
ShowMessage("The extraction tentacle stuck to their crotches finally begins its torture.")
ShowMessage("A soft elastic tentacle rub their penises from all directions.")
ShowMessageFace("",0,0,2,22)
ShowMessage("The entire mouth of the tentacles moves and gently tightens around their penises.")
ShowMessage("The soft massage-like stimulation gives them sweet pleasure...")
ShowMessageFace("",0,0,2,23)
ShowMessage("\\n<KnightA>S-So good...\nOoooh...!")
RunCommonEvent(104)
PictureDisplay(6,"ev_XX-7_ct02",0,0,0,0,100,100,255,0)
RunCommonEvent(105)
ShowMessageFace("",0,0,2,24)
ShowMessage("The intense pleasure sends one of the knights over the edge in the blink of an eye.")
ShowMessage("The extraction tentacle then proceeds to forcibly squeeze out the semen from his penis...")
ShowMessageFace("",0,0,2,25)
ShowMessage("\\n<KnightA>Hnnngh...!")
ShowMessageFace("",0,0,2,26)
ShowMessage("\\n<Luka>Th-that's...")
ShowMessageFace("",0,0,2,27)
ShowMessage("The knight loses his reason entirely and an expression of being in a melting pleasure spreads across his face...")
ShowMessage("I'm forced to look in horror at the scene happening in front of me.")
ShowMessageFace("",0,0,2,28)
ShowMessage("I will suffer the same fate shortly...")
ShowMessage("Just thinking about it, my fear mixes with expectation.")
ShowMessageFace("XX-7_fc1",0,0,2,29)
ShowMessage("\\n<XX-7>Came so fast...?\nYou didn't even last five seconds...")
ShowMessageFace("XX-7_fc1",0,0,2,30)
ShowMessage("\\n<XX-7>You came way too fast...\nNow... die.")
ShowMessageFace("",0,0,2,31)
ShowMessage("\\n<KnightA>Ugh...Aaaah...!!")
PictureDisplay(6,"ev_XX-7_ct03",0,0,0,0,100,100,255,0)
ShowMessageFace("",0,0,2,32)
ShowMessage("The knight's body trembles from the overwhelming pleasure from the extraction process.")
ShowMessage("Once he ejaculated, there's no stopping it.")
ShowMessageFace("",0,0,2,33)
ShowMessage("The extraction continues as the tentacle continues to suck on his penis with skillful movements.")
ShowMessage("Once the penis inside that tentacle, it never stops sucking out its semen...")
ShowMessageFace("",0,0,2,34)
ShowMessage("\\n<KnightA>Hyaaaa!!")
PictureDisplay(5,"ev_XX-7_ha2",0,0,0,0,100,100,255,0)
PictureDisplay(6,"ev_XX-7_ct04",0,0,0,0,100,100,255,0)
ShowMessageFace("",0,0,2,35)
ShowMessage("His body looks like it's drying up.")
ShowMessage("Through ejaculation, the life itself is sucked out of him.")
ShowMessageFace("",0,0,2,36)
ShowMessage("The pitiful knight turns into a corpse with a delighted expression on his face...")
246(1)
ShowMessageFace("XX-7_fc1",0,0,2,37)
ShowMessage("\\n<XX-7>All right, done with one of them...\nYou're next.")
ShowMessageFace("",0,0,2,38)
ShowMessage("\\n<KnightB>Stop, stop it...!")
245(bytes(0x04,0x08,0x6f,0x3a,0x0d,0x52,0x50,0x47,0x3a,0x3a,0x42,0x47,0x53,0x08,0x3a,0x0a,0x40,0x6e,0x61,0x6d,0x65,0x49,0x22,0x1a,0x6d,0x6f,0x6e,0x5f,0x68,0x73,0x65,0x61,0x6e,0x32,0x31,0x5f,0x74,0x65,0x6e,0x74,0x61,0x63,0x6c,0x65,0x32,0x06,0x3a,0x06,0x45,0x54,0x3a,0x0c,0x40,0x76,0x6f,0x6c,0x75,0x6d,0x65,0x69,0x55,0x3a,0x0b,0x40,0x70,0x69,0x74,0x63,0x68,0x69,0x69))
PictureDisplay(6,"ev_XX-7_ct01",0,0,0,0,100,100,255,0)
ShowMessageFace("",0,0,2,39)
ShowMessage("The extractor on the knight's crotch starts its merciless torture.")
ShowMessage("The inside of the tentacle begins contracting, giving the knight a melting pleasure.")
ShowMessageFace("",0,0,2,40)
ShowMessage("\\n<KnightB>Ah...Aaaaaah!!")
ShowMessageFace("",0,0,2,41)
ShowMessage("His reasoning is blown away in an instant from the overwhelming pleasure.")
ShowMessage("The tentacle stimulates every inch of his penis...")
ShowMessageFace("",0,0,2,42)
ShowMessage("The tentacle's soft inner wall vibrates, rubbing his meat rod all over...")
ShowMessage("The knight forgets all about the fear because of the overwhelming pleasure.")
ShowMessageFace("",0,0,2,43)
ShowMessage("The sweet melting feeling leaves him with his mouth agape, drooling on the side...")
ShowMessageFace("",0,0,2,44)
ShowMessage("\\n<KnightB>Ah...Hyaaa...!")
RunCommonEvent(104)
PictureDisplay(6,"ev_XX-7_ct02",0,0,0,0,100,100,255,0)
RunCommonEvent(105)
ShowMessageFace("",0,0,2,45)
ShowMessage("In just moments, he comes inside the tentacle.")
ShowMessage("The inner wall squeezes his penis hard, forcibly sucking out his semen...")
ShowMessageFace("",0,0,2,46)
ShowMessage("\\n<KnightB>Aiyee...! Ah, Aaaaaaaaaaaaah!")
PictureDisplay(6,"ev_XX-7_ct03",0,0,0,0,100,100,255,0)
ShowMessageFace("",0,0,2,47)
ShowMessage("The exact nightmare that sucked the other knight dry, repeats.")
ShowMessage("Ruthlessly squeezed of his semen, his body loses its vitality...")
PictureDisplay(5,"ev_XX-7_ha3",0,0,0,0,100,100,255,0)
PictureDisplay(6,"ev_XX-7_ct04",0,0,0,0,100,100,255,0)
ShowMessageFace("",0,0,2,48)
ShowMessage("Then...In just a few seconds, his body turns into a corpse.")
ShowMessage("His face looked happy as he died.")
246(1)
PictureClear(6)
ShowMessageFace("",0,0,2,49)
ShowMessage("\\n<KnightC>That...I don't want that, help...!")
ShowMessageFace("XX-7_fc1",0,0,2,50)
ShowMessage("\\n<XX-7>Wasted effort...\nNow, die...")
245(bytes(0x04,0x08,0x6f,0x3a,0x0d,0x52,0x50,0x47,0x3a,0x3a,0x42,0x47,0x53,0x08,0x3a,0x0a,0x40,0x6e,0x61,0x6d,0x65,0x49,0x22,0x1a,0x6d,0x6f,0x6e,0x5f,0x68,0x73,0x65,0x61,0x6e,0x32,0x31,0x5f,0x74,0x65,0x6e,0x74,0x61,0x63,0x6c,0x65,0x32,0x06,0x3a,0x06,0x45,0x54,0x3a,0x0c,0x40,0x76,0x6f,0x6c,0x75,0x6d,0x65,0x69,0x55,0x3a,0x0b,0x40,0x70,0x69,0x74,0x63,0x68,0x69,0x69))
ShowMessageFace("",0,0,2,51)
ShowMessage("The tentacle attached to the last knight's crotch begins sucking.")
ShowMessage("His face turns from frightened, to melting in pleasure...")
ShowMessageFace("",0,0,2,52)
ShowMessage("\\n<KnightC>Ah, aaaaaah!!")
RunCommonEvent(104)
RunCommonEvent(105)
ShowMessageFace("",0,0,2,53)
ShowMessage("And in no time at all, the tentacle starts sucking up his semen.")
ShowMessage("Then the cruel, merciless extraction began...")
ShowMessageFace("",0,0,2,54)
ShowMessage("\\n<KnightC>Augh...Ugh...")
PictureDisplay(5,"ev_XX-7_ha4",0,0,0,0,100,100,255,0)
ShowMessageFace("",0,0,2,55)
ShowMessage("Moments later his body also turns into a corpse.")
ShowMessage("She squeezed him to death in the blink of an eye...")
246(1)
ShowMessageFace("",0,0,2,56)
ShowMessage("\\n<Luka>H-horrible...\nTo do such a thing...")
ShowMessageFace("",0,0,2,57)
ShowMessage("I had no choice but to witness the murder of the three knights.")
ShowMessage("However, despite my fear, my penis is fully erect.")
ShowMessageFace("",0,0,2,58)
ShowMessage("How pleasant it must feel to die like that.")
ShowMessage("If I'll die anyway, I want to taste that pleasure...")
ShowMessageFace("",0,0,2,59)
ShowMessage("I can't hide this ruinous desire anymore.")
ShowMessageFace("XX-7_fc1",0,0,2,60)
ShowMessage("\\n<XX-7>Sorry for keeping you waiting...\nAt last, it's your turn...")
PictureDisplay(5,"ev_XX-7_hb1",0,0,0,0,100,100,255,0)
ShowMessageFace("",0,0,2,61)
ShowMessage("My clothes were already removed and my crotch is exposed.")
ShowMessage("Then the wiggling tentacle approaches my penis...")
ShowMessageFace("",0,0,2,62)
ShowMessage("\\n<Luka>Aaah...")
ShowMessageFace("",0,0,2,63)
ShowMessage("Slowly, her tentacle approaches my penis...")
ShowMessage("It's as if the countdown of my demise started.")
ShowMessageFace("",0,0,2,64)
ShowMessage("\\n<Luka>No... Stop...!")
ShowMessageFace("XX-7_fc1",0,0,2,65)
ShowMessage("\\n<XX-7>I can guarantee you the best pleasure.\nSo you'll die happy...")
ShowMessageFace("",0,0,2,66)
ShowMessage("\\n<Luka>Stop...Stoop...\nAaah...")
245(bytes(0x04,0x08,0x6f,0x3a,0x0d,0x52,0x50,0x47,0x3a,0x3a,0x42,0x47,0x53,0x08,0x3a,0x0a,0x40,0x6e,0x61,0x6d,0x65,0x49,0x22,0x1a,0x6d,0x6f,0x6e,0x5f,0x68,0x73,0x65,0x61,0x6e,0x32,0x31,0x5f,0x74,0x65,0x6e,0x74,0x61,0x63,0x6c,0x65,0x32,0x06,0x3a,0x06,0x45,0x54,0x3a,0x0c,0x40,0x76,0x6f,0x6c,0x75,0x6d,0x65,0x69,0x55,0x3a,0x0b,0x40,0x70,0x69,0x74,0x63,0x68,0x69,0x69))
PictureDisplay(5,"ev_XX-7_hb2",0,0,0,0,100,100,255,0)
ShowMessageFace("",0,0,2,67)
ShowMessage("And what I was waiting for finally starts.")
ShowMessage("My penis is swallowed by the tentacle.")
ShowMessageFace("",0,0,2,68)
ShowMessage("\\n<Luka>N-no... Aaah...")
ShowMessageFace("",0,0,2,69)
ShowMessage("The tentacle starts its semen squeezing motions.")
ShowMessageFace("",0,0,2,70)
ShowMessage("At the same time, my meat rod is soaked in exquisite pleasure...")
ShowMessageFace("",0,0,2,71)
ShowMessage("It felt just like my penis was gently rubbed.")
ShowMessageFace("XX-7_fc1",0,0,2,72)
ShowMessage("\\n<XX-7>You can't hold back anymore...\nNow, ejaculate...")
ShowMessageFace("",0,0,2,73)
ShowMessage("\\n<Luka>Augh, Ugh...")
ShowMessageFace("",0,0,2,74)
ShowMessage("If I ejaculate, I'll be squeezed to death.")
ShowMessage("Even though she's just trying to kill me, it's impossible to resist...")
ShowMessageFace("",0,0,2,75)
ShowMessage("My mind rejects the stimulation but my body responds to it honestly.")
ShowMessage("In response to the crazy stimulation, my penis starts pulsating...")
ShowMessageFace("",0,0,2,76)
ShowMessage("\\n<Luka>Ah, aaaaaah!!")
RunCommonEvent(104)
PictureDisplay(5,"ev_XX-7_hb3",0,0,0,0,100,100,255,0)
RunCommonEvent(105)
ShowMessageFace("",0,0,2,77)
ShowMessage("My semen shoots inside this nightmarish semen extraction organ...")
ShowMessage("The walls of the tentacle squeeze me in tandem with my pulsations, wringing out every last drop of my semen.")
ShowMessageFace("XX-7_fc1",0,0,2,78)
ShowMessage("\\n<XX-7>You came...\nWell then, let me send you to the afterlife...")
ShowMessageFace("",0,0,2,79)
ShowMessage("\\n<Luka>Ahii... Aaaaaah!!")
RunCommonEvent(104)
PictureDisplay(5,"ev_XX-7_hb4",0,0,0,0,100,100,255,0)
RunCommonEvent(105)
ShowMessageFace("",0,0,2,80)
ShowMessage("With the intense pleasure, I feel strength leaving my body as well.")
ShowMessage("Along with my semen, my life itself is sucked out.")
ShowMessageFace("",0,0,2,81)
ShowMessage("Without realizing it, I already surrendered to my fate.")
ShowMessage("If I die because of this pleasure, it's because I want it...")
ShowMessageFace("",0,0,2,82)
ShowMessage("\\n<Luka>Hyaaaa!!")
RunCommonEvent(104)
PictureDisplay(5,"ev_XX-7_hb5",0,0,0,0,100,100,255,0)
RunCommonEvent(105)
ShowMessageFace("",0,0,2,83)
ShowMessage("My semen shoots out.")
ShowMessage("And my consciousness fades, drowned by this sweet pleasure.")
ShowMessageFace("",0,0,2,84)
ShowMessage("Then, my life itself fades away...")
221()
PictureClear(5)
246(2)
ShowMessageFace("",0,0,2,85)
ShowMessage("My body loses all the life it had in it.")
ShowMessage("The nightmarish sucking stops and I traded my life for pleasure.")
ShowMessageFace("XX-7_fc1",0,0,2,86)
ShowMessage("\\n<XX-7>Hehe... Thanks for the meal.")
ShowMessageFace("",0,0,2,87)
ShowMessage("Satisfied, XX-7 leaves.")
ShowMessage("The four corpses she leaves behind all have satisfied smiles on their faces...")
DefineLabel("反省会")
ShowMessageFace("",0,0,2,88)
ShowMessage("......")
221()
242(1)
Wait(120)
355("memory_interruption")
ShowMessageFace("",0,0,2,89)
ShowMessage("You hear Ilias' voice calling out to you...")
ShowMessage("Receive her evaluation?")
ShowChoices(strings("Receive evaluation","Change difficulty","Reincarnate"),3)
IfPlayerPicksChoice(0,null)
 241(bytes(0x04,0x08,0x6f,0x3a,0x0d,0x52,0x50,0x47,0x3a,0x3a,0x42,0x47,0x4d,0x08,0x3a,0x0a,0x40,0x6e,0x61,0x6d,0x65,0x49,0x22,0x0a,0x69,0x72,0x69,0x61,0x73,0x06,0x3a,0x06,0x45,0x54,0x3a,0x0c,0x40,0x76,0x6f,0x6c,0x75,0x6d,0x65,0x69,0x5f,0x3a,0x0b,0x40,0x70,0x69,0x74,0x63,0x68,0x69,0x6e))
 PictureDisplay(1,"bg001",0,0,0,0,100,100,255,0)
 222()
 PictureDisplay(5,"80_iriasu_st04",0,0,0,0,100,100,0,0)
 PictureMove(5,null,0,0,0,0,100,100,255,0,30,true)
 ShowMessageFace("iriasu_fc1",3,0,2,90)
 ShowMessage("\\n<Ilias>XX-7...?\nWhy is it functional?")
 PictureDisplay(5,"80_iriasu_st01",0,0,0,0,100,100,255,0)
 ShowMessageFace("iriasu_fc1",0,0,2,91)
 ShowMessage("\\n<Ilias>XX-7 has a variety of nasty, party-wide elemental attacks.\nFiery Exhaust and Frozen Exhaust...You don't want to get hit by those too many times.")
 ShowMessageFace("iriasu_fc1",0,0,2,92)
 ShowMessage("\\n<Ilias>Aside from that, her defense and attack are relatively high.\nShe also has excellent status ailment resistance.")
 ShowMessageFace("iriasu_fc1",0,0,2,93)
 ShowMessage("\\n<Ilias>Exploit the weakness of all machines and attack her with Lightning skills.\nWater also works well since she's weak to it as well.")
 PictureDisplay(5,"80_iriasu_st02",0,0,0,0,100,100,255,0)
 ShowMessageFace("iriasu_fc1",1,0,2,94)
 ShowMessage("\\n<Ilias>Now go, oh Brave Luka.\nIf you destroy it, scrap prices will surge.")
 242(1)
 221()
 PictureClear(5)
 PictureClear(1)
 Wait(60)
 0()
IfPlayerPicksChoice(1,null)
 ShowMessageFace("",0,0,2,95)
 ShowMessage("Please choose a difficulty level.")
 RunCommonEvent(110)
 0()
IfPlayerPicksChoice(2,null)
 0()
404()
RunCommonEvent(3000)
0()
