// EVENT 3033
Name "Roper Girl"

If(0,25,1)
 JumpToLabel("反省会")
 0()
EndIf()
PictureDisplay(5,"80_ropa_st02",0,0,0,0,100,100,0,0)
PictureMove(5,null,0,0,0,0,100,100,255,0,30,true)
241(bytes(0x04,0x08,0x6f,0x3a,0x0d,0x52,0x50,0x47,0x3a,0x3a,0x42,0x47,0x4d,0x08,0x3a,0x0a,0x40,0x6e,0x61,0x6d,0x65,0x49,0x22,0x09,0x65,0x72,0x6f,0x31,0x06,0x3a,0x06,0x45,0x54,0x3a,0x0c,0x40,0x76,0x6f,0x6c,0x75,0x6d,0x65,0x69,0x69,0x3a,0x0b,0x40,0x70,0x69,0x74,0x63,0x68,0x69,0x69))
ShowMessageFace("",0,0,2,1)
ShowMessage("\\n<Luka>Ungh...")
ShowMessageFace("ropa_fc1",1,0,2,2)
ShowMessage("\\n<Roper Girl>Not strong enough to resist any longer? Well then it's hopeless for you isn't it...")
250(bytes(0x04,0x08,0x6f,0x3a,0x0c,0x52,0x50,0x47,0x3a,0x3a,0x53,0x45,0x08,0x3a,0x0a,0x40,0x6e,0x61,0x6d,0x65,0x49,0x22,0x16,0x6d,0x6f,0x6e,0x5f,0x65,0x72,0x6f,0x5f,0x6d,0x61,0x6b,0x69,0x74,0x75,0x6b,0x69,0x33,0x06,0x3a,0x06,0x45,0x54,0x3a,0x0b,0x40,0x70,0x69,0x74,0x63,0x68,0x69,0x69,0x3a,0x0c,0x40,0x76,0x6f,0x6c,0x75,0x6d,0x65,0x69,0x69))
ShowMessageFace("",0,0,2,3)
ShowMessage("The Roper Girl's countless tentacles stretch out and wrap themselves around my body!")
ShowMessageFace("",0,0,2,4)
ShowMessage("\\n<Luka>...eek!")
PictureDisplay(5,"ev_ropa_h1",0,0,0,0,100,100,255,0)
ShowMessageFace("",0,0,2,5)
ShowMessage("The tentacles draw me in and press me tightly against the Roper Girl. Her body is soft, supple, and covered with mucus membranes exuding a sticky substance.")
ShowMessageFace("",0,0,2,6)
ShowMessage("The mucus soaks into my body, leaving behind a gentle warmth and an increasingly intense tingling sensation...")
ShowMessage("This fluid can't be...")
ShowMessageFace("ropa_fc1",1,0,2,7)
ShowMessage("\\n<Roper Girl>You got it loser, it's digestive fluids. But don't worry, you're going to be feeling too great to even think about it...")
ShowMessageFace("",0,0,2,8)
ShowMessage("\\n<Luka>No! Stop it!")
ShowMessageFace("",0,0,2,9)
ShowMessage("While screaming, I struggle violently.")
ShowMessage("But her tentacles wrap tighter around me, stopping my movement. With machinelike precision, she lines my cock up with a slit in her form. A feeling of dread overcomes me.")
ShowMessageFace("",0,0,2,10)
ShowMessage("Just like I knew would happen, my waist is forced into the Roper.")
ShowMessage("There, a hole opens up like a mouth, quickly wrapping its lips around my shaft.")
ShowMessageFace("",0,0,2,11)
ShowMessage("\\n<Luka>Hii! What are you doing!?")
ShowMessageFace("",0,0,2,12)
ShowMessage("Unable to resist, she forces me into the hole. My body is nothing but a toy to her countless tentacles.")
245(bytes(0x04,0x08,0x6f,0x3a,0x0d,0x52,0x50,0x47,0x3a,0x3a,0x42,0x47,0x53,0x08,0x3a,0x0a,0x40,0x6e,0x61,0x6d,0x65,0x49,0x22,0x1e,0x6d,0x6f,0x6e,0x5f,0x68,0x73,0x65,0x61,0x6e,0x31,0x32,0x5f,0x69,0x6e,0x6e,0x65,0x72,0x77,0x6f,0x72,0x6b,0x73,0x5f,0x63,0x32,0x06,0x3a,0x06,0x45,0x54,0x3a,0x0c,0x40,0x76,0x6f,0x6c,0x75,0x6d,0x65,0x69,0x55,0x3a,0x0b,0x40,0x70,0x69,0x74,0x63,0x68,0x69,0x69))
PictureDisplay(5,"ev_ropa_hb1",0,0,0,0,100,100,255,0)
ShowMessageFace("",0,0,2,13)
ShowMessage("Instantly upon hilting myself inside of her, an unnatural suction glues my waist against her! My face flushes red from the loud and vulgar noises it creates.")
ShowMessageFace("",0,0,2,14)
ShowMessage("\\n<Luka>Aaahh... What is this...?")
ShowMessageFace("",0,0,2,15)
ShowMessage("Countless tentacles are wriggling inside of her, rubbing my penis.")
ShowMessageFace("",0,0,2,16)
ShowMessage("My mind can't even comprehend it, tentacles lick and caress my shaft from all sides. It's all I can do to keep from instantly losing to her.")
ShowMessageFace("",0,0,2,17)
ShowMessage("\\n<Luka>Faaa... It feels good...")
ShowMessageFace("",0,0,2,18)
ShowMessage("The pleasure overpowers me, causing me to feel even weaker. I realize instantly that there is no way I will escape this.")
ShowMessageFace("ropa_fc1",1,0,2,19)
ShowMessage("\\n<Roper Girl>You might think I'm cruel... you will melt away in my embrace... But don't worry, I will give you the sweetest dream possible.")
ShowMessageFace("",0,0,2,20)
ShowMessage("\\n<Luka>N...no...")
ShowMessageFace("",0,0,2,21)
ShowMessage("The pleasure drains me of any strength I had left in me. The nubs and creases inside of her press sweet friction into me as her tentacles spiral and wind around my tip.")
ShowMessageFace("",0,0,2,22)
ShowMessage("The pleasure too intense, my mind goes blank as the orgasm rises in me.")
ShowMessageFace("",0,0,2,23)
ShowMessage("\\n<Luka>Aaa... Coming! Ahhh!")
RunCommonEvent(104)
PictureDisplay(5,"ev_ropa_hb2",0,0,0,0,100,100,255,0)
RunCommonEvent(105)
ShowMessageFace("",0,0,2,24)
ShowMessage("As I explode inside of her wriggling hole, she stealthily increases the flow of her juices against my body.")
ShowMessageFace("",0,0,2,25)
ShowMessage("Instead of pain, the horrible liquid is covering my body with a numbing pleasure. Every single nerve ending on my body shutting down in order for me to focus more on my waist.")
ShowMessageFace("",0,0,2,26)
ShowMessage("Terror fills me.")
ShowMessage("How can I feel such sweet pleasure as my body is dissolved...?")
ShowMessageFace("",0,0,2,27)
ShowMessage("\\n<Luka>No! Let go! Help me... Someone...")
ShowMessageFace("ropa_fc1",1,0,2,28)
ShowMessage("\\n<Roper Girl>You could really hurt a girl's feelings with words like that... Too bad I already know how good you're feeling. Your hot seed inside me proves that.")
245(bytes(0x04,0x08,0x6f,0x3a,0x0d,0x52,0x50,0x47,0x3a,0x3a,0x42,0x47,0x53,0x08,0x3a,0x0a,0x40,0x6e,0x61,0x6d,0x65,0x49,0x22,0x1e,0x6d,0x6f,0x6e,0x5f,0x68,0x73,0x65,0x61,0x6e,0x31,0x33,0x5f,0x69,0x6e,0x6e,0x65,0x72,0x77,0x6f,0x72,0x6b,0x73,0x5f,0x63,0x33,0x06,0x3a,0x06,0x45,0x54,0x3a,0x0c,0x40,0x76,0x6f,0x6c,0x75,0x6d,0x65,0x69,0x55,0x3a,0x0b,0x40,0x70,0x69,0x74,0x63,0x68,0x69,0x69))
ShowMessageFace("",0,0,2,29)
ShowMessage("The wriggling tentacles in her hole continue to force pleasure through me.")
ShowMessageFace("",0,0,2,30)
ShowMessage("This pleasure is not for reproduction, but only to restrain her prey. This isn't right, but my body keeps betraying me as my shaft only grows harder in her grasp.")
ShowMessageFace("",0,0,2,31)
ShowMessage("Weakening her prey, then melting them so she can eat... It's harsh, but there is little I can do... my mind starts to surrender as well.")
ShowMessageFace("",0,0,2,32)
ShowMessage("\\n<Luka>No... Help me...")
ShowMessageFace("ropa_fc1",1,0,2,33)
ShowMessage("\\n<Roper Girl>You already came inside me once... I won't let you go until you've paid me back for my kindness. Why don't you stop worrying and just focus on this...")
ShowMessageFace("",0,0,2,34)
ShowMessage("Her tentacles wrapped around me start to rub more of the digestive juices on me. A massage of the worst kind, but it still feels amazing.")
ShowMessageFace("",0,0,2,35)
ShowMessage("At the same time, her sucking and lewd hole that I am stuck in starts to squelch and overflow with hot and sticky juices. My mind can't even begin to process the sensation.")
ShowMessageFace("",0,0,2,36)
ShowMessage("\\n<Luka>Auu... No...")
ShowMessageFace("",0,0,2,37)
ShowMessage("Covered in her digestive juices, pleasure explodes in white flashes through my mind as my penis is treated like candy.")
ShowMessageFace("",0,0,2,38)
ShowMessage("Forcing her prey to stay because of the pleasure...")
ShowMessage("I'm unable to resist it...")
ShowMessageFace("",0,0,2,39)
ShowMessage("\\n<Luka>Uaa... Coming again...")
RunCommonEvent(104)
PictureDisplay(5,"ev_ropa_hb3",0,0,0,0,100,100,255,0)
RunCommonEvent(105)
ShowMessageFace("",0,0,2,40)
ShowMessage("Unable to resist the stimulation, I come in her hole again. It was already overflowing before, but now it's like a flood. The only purpose of stimulating me is to weaken me...")
ShowMessageFace("ropa_fc1",1,0,2,41)
ShowMessage("\\n<Roper Girl>It feels good, right?\nThen again... no price is too high for this kind of service, is it?")
ShowMessageFace("",0,0,2,42)
ShowMessage("\\n<Luka>Aaaa....")
ShowMessageFace("",0,0,2,43)
ShowMessage("Covered in her sticky digestive juices, I feel despair rise through me.")
ShowMessageFace("ropa_fc1",1,0,2,44)
ShowMessage("\\n<Roper Girl>Just drift off... I promise I'll take good care of you. You must be tired and I'm far from done with this cute body of yours...")
ShowMessageFace("",0,0,2,45)
ShowMessage("\\n<Luka>Aaaa....")
ShowMessageFace("",0,0,2,46)
ShowMessage("As I feel my body melt away, so does the fear and despair.")
ShowMessage("Filling their place is a slow joy.")
ShowMessageFace("",0,0,2,47)
ShowMessage("Slowly melted, I start to feel happy at feeding the Roper.")
ShowMessage("At this rate, I'll be melted and eaten like an insect caught by a carnivorous plant...")
ShowMessageFace("",0,0,2,48)
ShowMessage("\\n<Luka>Faa... It feels good...")
ShowMessageFace("",0,0,2,49)
ShowMessage("Covered by the digestive juices, the tentacles continue to rub more of the juice all over me. Why was I fighting this again? The forced stimulation is too much for me to endure.")
ShowMessageFace("",0,0,2,50)
ShowMessage("\\n<Luka>Ahiii!")
RunCommonEvent(104)
PictureDisplay(5,"ev_ropa_hb4",0,0,0,0,100,100,255,0)
RunCommonEvent(105)
ShowMessageFace("",0,0,2,51)
ShowMessage("As I feel myself slowly dissolving, I ejaculate inside of her hole again. Completely hooked on the pleasure, the act of ejaculating in her feels incredible.")
ShowMessageFace("",0,0,2,54)
ShowMessage("\\n<Luka>Faa... Amazing...")
ShowMessageFace("ropa_fc1",1,0,2,55)
ShowMessage("\\n<Roper Girl>Oh? So you want me to take care of this part of you as well?\nThat's pretty bold of you, but I'll accept and work it just like the rest of you.")
ShowMessageFace("",0,0,2,56)
ShowMessage("\\n<Luka>Aaaa....")
ShowMessageFace("",0,0,2,57)
ShowMessage("Gradually, my consciousness starts to melt along with my body. It becomes too much as she focuses mainly on my shaft now.")
ShowMessageFace("ropa_fc1",1,0,2,58)
ShowMessage("\\n<Roper Girl>You aren't afraid anymore, right?\nGiving yourself to me is the best kind of pleasure, isn't it? Don't you feel foolish for resisting?")
ShowMessageFace("ropa_fc1",1,0,2,59)
ShowMessage("\\n<Roper Girl>Just melt away, you're too immersed in ecstasy to realize what's going on anyways.")
ShowMessageFace("",0,0,2,60)
ShowMessage("\\n<Luka>Aaaa....")
If(0,95,0)
 246(2)
 221()
 ShowMessageFace("",0,0,2,61)
 ShowMessage("＊＊＊The rest of the vore scene is being skipped.＊＊＊")
 JumpToLabel("zzz")
 0()
EndIf()
PictureDisplay(5,"ev_ropa_h5",0,0,0,0,100,100,255,0)
ShowMessageFace("",0,0,2,62)
ShowMessage("She covers me with hundreds of tentacles, and forces me deeper into her.")
ShowMessage("Dripping with her digestive juices, the tentacles cover every inch of my body.")
ShowMessageFace("",0,0,2,63)
ShowMessage("The sweet pleasure covers my entire body as it's slowly dissolved and absorbed through her mucus covered membrane.")
ShowMessageFace("",0,0,2,64)
ShowMessage("My fading consciousness is stained with joy as I feel the pleasure from being digested. Her relentless persuasion soaked into my core.")
ShowMessageFace("ropa_fc1",1,0,2,65)
ShowMessage("\\n<Roper Girl>Mmm... You're delicious.\nYour body tastes very good...")
ShowMessageFace("",0,0,2,66)
ShowMessage("Since the Roper is happy, I'm happy too..")
ShowMessage("The Roper is eating my body...")
ShowMessageFace("",0,0,2,67)
ShowMessage("\\n<Luka>A....a...a...")
ShowMessageFace("",0,0,2,68)
ShowMessage("Like my body, my mind melts into mush.")
ShowMessageFace("",0,0,2,69)
ShowMessage("My slowly dissolving body is being absorbed by the Roper.")
ShowMessageFace("",0,0,2,70)
ShowMessage("I'm being melted...")
ShowMessage("I'm being eaten...")
221()
PictureClear(5)
PictureClear(6)
246(2)
ShowMessageFace("",0,0,2,71)
ShowMessage("Then...")
ShowMessage("Fully dissolved, I don't leave a single bone.")
ShowMessageFace("",0,0,2,72)
ShowMessage("While tasting the highest pleasure, I'm preyed on by a monster.")
ShowMessageFace("",0,0,2,73)
DefineLabel("反省会")
ShowMessage("............")
DefineLabel("zzz")
221()
242(1)
Wait(120)
355("memory_interruption")
ShowMessageFace("",0,0,2,74)
ShowMessage("You hear Ilias' voice calling out to you...")
ShowMessage("Receive her evaluation?")
ShowChoices(strings("Receive evaluation","Change difficulty","Reincarnate"),3)
IfPlayerPicksChoice(0,null)
 241(bytes(0x04,0x08,0x6f,0x3a,0x0d,0x52,0x50,0x47,0x3a,0x3a,0x42,0x47,0x4d,0x08,0x3a,0x0a,0x40,0x6e,0x61,0x6d,0x65,0x49,0x22,0x0a,0x69,0x72,0x69,0x61,0x73,0x06,0x3a,0x06,0x45,0x54,0x3a,0x0c,0x40,0x76,0x6f,0x6c,0x75,0x6d,0x65,0x69,0x5f,0x3a,0x0b,0x40,0x70,0x69,0x74,0x63,0x68,0x69,0x6e))
 PictureDisplay(1,"bg001",0,0,0,0,100,100,255,0)
 222()
 PictureDisplay(5,"80_iriasu_st04",0,0,0,0,100,100,0,0)
 PictureMove(5,null,0,0,0,0,100,100,255,0,30,true)
 ShowMessageFace("iriasu_fc1",3,0,2,75)
 ShowMessage("\\n<Ilias>Were you satisfied with being preyed upon by such a disgusting monster? It is deplorable that you were basking in ecstasy as you were being eaten...")
 PictureDisplay(5,"80_iriasu_st01",0,0,0,0,100,100,255,0)
 ShowMessageFace("iriasu_fc1",0,0,2,76)
 ShowMessage("\\n<Ilias>The Roper Girl will use a series of binding skills to restrict your movement. Try to defeat her as soon as possible if you can manage to do so.")
 ShowMessageFace("iriasu_fc1",0,0,2,77)
 ShowMessage("\\n<Ilias>That may prove difficult due to her high HP, however... Because she is slimy, Lightning is her weakness, so make effective use of it.")
 ShowMessageFace("iriasu_fc1",0,0,2,78)
 ShowMessage("\\n<Ilias>Status abnormalities are also generally effective against her. If you can afflict her with blind and such, you're sure to have a considerable advantage when fighting her.")
 PictureDisplay(5,"80_iriasu_st02",0,0,0,0,100,100,255,0)
 ShowMessageFace("iriasu_fc1",1,0,2,79)
 ShowMessage("\\n<Ilias>Now go, oh brave Luka.\nYou mustn't allow any more victims to be eaten by her.")
 242(1)
 221()
 PictureClear(5)
 PictureClear(1)
 Wait(60)
 0()
IfPlayerPicksChoice(1,null)
 ShowMessageFace("",0,0,2,80)
 ShowMessage("Please choose a difficulty level.")
 RunCommonEvent(110)
 0()
IfPlayerPicksChoice(2,null)
 0()
404()
RunCommonEvent(3000)
0()
