// EVENT 5727
Name "/エデン"

241(bytes(0x04,0x08,0x6f,0x3a,0x0d,0x52,0x50,0x47,0x3a,0x3a,0x42,0x47,0x4d,0x08,0x3a,0x0a,0x40,0x6e,0x61,0x6d,0x65,0x49,0x22,0x09,0x65,0x72,0x6f,0x31,0x06,0x3a,0x06,0x45,0x54,0x3a,0x0c,0x40,0x76,0x6f,0x6c,0x75,0x6d,0x65,0x69,0x69,0x3a,0x0b,0x40,0x70,0x69,0x74,0x63,0x68,0x69,0x69))
PictureDisplay(5,"80_eden_st01",0,0,0,0,100,100,0,0)
PictureMove(5,null,0,0,0,0,100,100,255,0,30,true)
ShowMessageFace("",0,0,2,1)
ShowMessage("\\n<Luka>あぅぅ……")
ShowMessageFace("",0,0,2,2)
ShowMessage("僕の体は巨大な翼に抱かれ、エデンの頭頂部へと引き寄せられていく。")
ShowMessage("エデンの体の一部である無数の女性が、優しく僕を迎えてきた――")
ShowMessageFace("",0,0,2,3)
ShowMessage("\\n<Luka>ぐっ、離せぇ……！")
PictureDisplay(5,"ev_eden_hb1",0,0,0,0,100,100,255,0)
ShowMessageFace("",0,0,2,4)
ShowMessage("脱力した僕の体を抱き留め、しがみついてくる女体。")
ShowMessage("柔らかで温かな感触が、前後左右から僕を覆い包んでくる。")
ShowMessageFace("eden_fc1",3,0,2,5)
ShowMessage("\\n<Eden>")
ShowMessage("楽園へようこそ、勇者ルカ。")
ShowMessage("さあ、天国を味わいなさい……")
ShowMessageFace("",0,0,2,6)
ShowMessage("\\n<Luka>あ、あぅぅぅ……")
245(bytes(0x04,0x08,0x6f,0x3a,0x0d,0x52,0x50,0x47,0x3a,0x3a,0x42,0x47,0x53,0x08,0x3a,0x0a,0x40,0x6e,0x61,0x6d,0x65,0x49,0x22,0x10,0x6d,0x6f,0x6e,0x5f,0x68,0x76,0x6f,0x69,0x63,0x65,0x31,0x06,0x3a,0x06,0x45,0x54,0x3a,0x0c,0x40,0x76,0x6f,0x6c,0x75,0x6d,0x65,0x69,0x55,0x3a,0x0b,0x40,0x70,0x69,0x74,0x63,0x68,0x69,0x69))
ShowMessageFace("",0,0,2,7)
ShowMessage("男の器官が、ぬめぬめと温かい感触に包み込まれる。")
ShowMessage("女性の一人が僕の股間へと顔を埋め、ペニスを口で咥え込んできたのだ。")
ShowMessageFace("eden_fc1",3,0,2,8)
ShowMessage("【エデンB】")
ShowMessage("んっ……れるれる、じゅるり……")
ShowMessageFace("",0,0,2,9)
ShowMessage("その舌が艶めかしく動き、唾液をまみれさせながら亀頭を清める。")
ShowMessage("敏感な先端部を、舌がじっくりと這い回ってきたのだ。")
ShowMessageFace("",0,0,2,10)
ShowMessage("さらに唇はカリ首をしっかりと捕らえていた。")
ShowMessage("唇の輪でじんわりと締め付けられ、甘い圧迫感を与えられる――")
ShowMessageFace("eden_fc1",3,0,2,11)
ShowMessage("【エデンB】")
ShowMessage("心地良いですか……？")
ShowMessage("れるれる、じゅるり……")
ShowMessageFace("",0,0,2,12)
ShowMessage("\\n<Luka>あ、あぅぅ……気持ちいいよぉ……")
ShowMessageFace("",0,0,2,13)
ShowMessage("その魅惑的な舌遣いに、僕は身を逸らして悶えてしまった。")
ShowMessage("甘い快感に抵抗心は吹き飛び、男の器官を天使の口へと預けてしまう。")
ShowMessageFace("",0,0,2,14)
ShowMessage("艶めかしく舌を絡め、先端部へと執拗に刺激を与えるフェラ――")
ShowMessage("それは、じっくりと快感を教え込むような性技だった。")
ShowMessageFace("",0,0,2,15)
ShowMessage("\\n<Luka>ふぁぁぁぁ……先っちょ、気持ちいい……")
ShowMessageFace("eden_fc1",3,0,2,16)
ShowMessage("【エデンB】")
ShowMessage("ふふっ、いつでも果てていいのですよ……")
ShowMessage("んっ、れるれるれる……")
ShowMessageFace("",0,0,2,17)
ShowMessage("口内でのねっとりとした亀頭舐めに、僕はすっかり我を忘れてしまった。")
ShowMessage("ペニスを天使の口へと預けたまま、甘い快楽に浸ってしまう。")
ShowMessageFace("",0,0,2,18)
ShowMessage("ねろねろと艶めかしい舌遣いを受け、亀頭がとろけてしまいそうだ。")
ShowMessage("尿道口から、先走りの露が溢れ出てしまう――")
ShowMessageFace("eden_fc1",3,0,2,19)
ShowMessage("【エデンB】")
ShowMessage("んっ……れろれろれろっ……")
ShowMessageFace("",0,0,2,20)
ShowMessage("舌先が尿道口を襲い、先走りがあっという間に舐め取られた。")
ShowMessage("そのまま舌先は敏感な先端部を責め、チロチロと舐め擦られる――")
ShowMessageFace("",0,0,2,21)
ShowMessage("\\n<Luka>あ……そこは、だめ……")
ShowMessageFace("",0,0,2,22)
ShowMessage("小刻みに尿道口を舐め回す舌先。")
ShowMessage("その、くすぐったいような快感――")
ShowMessageFace("",0,0,2,23)
ShowMessage("まるで不意打ちのように、射精感がこみ上げてきた。")
ShowMessage("それを抑える間もなく、甘美な脈動が始まってしまう――")
ShowMessageFace("",0,0,2,24)
ShowMessage("\\n<Luka>あぅぅ……出ちゃうよぉ……")
RunCommonEvent(104)
PictureDisplay(5,"ev_eden_hb2",0,0,0,0,100,100,255,0)
RunCommonEvent(105)
ShowMessageFace("",0,0,2,25)
ShowMessage("尿道口を舐め回されながら、暴発同然にイってしまった。")
ShowMessage("天使の口内に、ドクドクと精液が注ぎ込まれていく――")
ShowMessageFace("",0,0,2,26)
ShowMessage("\\n<Luka>ふぁぁぁ……")
ShowMessageFace("",0,0,2,27)
ShowMessage("僕は恍惚に浸りながら、最後の一滴まで天使に飲み干してもらった。")
246(1)
ShowMessageFace("eden_fc1",3,0,2,28)
ShowMessage("【エデンB】")
ShowMessage("あらあら、これしきで果ててしまわれるなんて……")
ShowMessageFace("eden_fc1",3,0,2,29)
ShowMessage("【エデンC】")
ShowMessage("ずいぶんと気がお早いのですね、ふふふっ……")
ShowMessageFace("eden_fc1",3,0,2,30)
ShowMessage("【エデンD】")
ShowMessage("尿道を舐められるのが、お好きなのですか？")
ShowMessage("お望みなら何時間も舐め回して差し上げますよ……くすっ。")
ShowMessageFace("",0,0,2,31)
ShowMessage("僕を取り巻きながら、天使達がくすくすと笑う。")
ShowMessage("男として情けない醜態を嘲笑され、僕は羞恥に震えてしまった。")
ShowMessageFace("eden_fc1",3,0,2,32)
ShowMessage("【Eden】")
ShowMessage("これしきでイってしまうとは、仕方ないですね。")
ShowMessage("次は、長く楽しませてあげなさい……")
ShowMessageFace("",0,0,2,33)
ShowMessage("エデン本体が柔らかな笑みを浮かべ、そう指示した――")
245(bytes(0x04,0x08,0x6f,0x3a,0x0d,0x52,0x50,0x47,0x3a,0x3a,0x42,0x47,0x53,0x08,0x3a,0x0a,0x40,0x6e,0x61,0x6d,0x65,0x49,0x22,0x10,0x6d,0x6f,0x6e,0x5f,0x68,0x76,0x6f,0x69,0x63,0x65,0x35,0x06,0x3a,0x06,0x45,0x54,0x3a,0x0c,0x40,0x76,0x6f,0x6c,0x75,0x6d,0x65,0x69,0x55,0x3a,0x0b,0x40,0x70,0x69,0x74,0x63,0x68,0x69,0x69))
ShowMessageFace("eden_fc1",3,0,2,34)
ShowMessage("【エデンC】")
ShowMessage("あむっ……れる、れるっ……")
ShowMessageFace("",0,0,2,35)
ShowMessage("すると天使の一人が、ペニスを咥え直してきた。")
ShowMessageFace("",0,0,2,36)
ShowMessage("非常に穏やかな舌遣いで、亀頭へとねっとり舌を絡ませてくる。")
ShowMessage("さらに唇の輪がカリを捕らえ、じんわりと締め付けてきた。")
ShowMessageFace("",0,0,2,37)
ShowMessage("そのままゆっくりと唇を上下させ、優しく扱くような刺激を与えてくる――")
ShowMessage("それは決して強引な刺激ではなく、丹念で繊細な口技だった。")
ShowMessageFace("",0,0,2,38)
ShowMessage("\\n<Luka>あぅぅ……きもちいいよぉ……")
ShowMessageFace("eden_fc1",3,0,2,39)
ShowMessage("【エデンC】")
ShowMessage("すぐにはイかせませんから、存分に楽しんで下さいね……")
ShowMessage("じゅるじゅる、れるれるれる……")
ShowMessageFace("",0,0,2,40)
ShowMessage("舌は艶めかしく亀頭に絡みつき、先端部を徹底的に清めてきた。")
ShowMessage("時には裏筋にれるれると重点的に這い回り、僕を脱力させてくる。")
ShowMessageFace("",0,0,2,41)
ShowMessage("\\n<Luka>あ……すごいよぉ……あぁぁぁ……")
ShowMessageFace("eden_fc1",3,0,2,42)
ShowMessage("【エデンC】")
ShowMessage("まだ果てては駄目ですよ……")
ShowMessage("れる……れる、れるるっ……")
ShowMessageFace("",0,0,2,43)
ShowMessage("しかし昂ぶってくると、刺激を弱められてしまった。")
ShowMessage("イかないように調節しながら、艶めかしい刺激を与えているのだ――")
ShowMessageFace("eden_fc1",3,0,2,44)
ShowMessage("【エデンC】")
ShowMessage("ふふっ、落ち着きましたか……？")
ShowMessage("れるれる、れるり……じゅるるっ……")
ShowMessageFace("",0,0,2,45)
ShowMessage("\\n<Luka>あ……あぅぅ……！")
ShowMessageFace("",0,0,2,46)
ShowMessage("亀頭で入念に味わわされる舌の感触。")
ShowMessageFace("",0,0,2,47)
ShowMessage("時には先端部全体を吸い上げられるような刺激が与えられ、")
ShowMessage("そのたびに腰を震わせた。")
ShowMessageFace("",0,0,2,48)
ShowMessage("カリ首を捕らえた唇往復は、的確に僕を追い詰めていく――")
ShowMessageFace("",0,0,2,49)
ShowMessage("\\n<Luka>あぅぅ……出ちゃうよぉ……")
ShowMessageFace("eden_fc1",3,0,2,50)
ShowMessage("【エデンC】")
ShowMessage("んっ……まだですよ……")
ShowMessageFace("",0,0,2,51)
ShowMessage("しかしイきそうになると、口や舌の動きが抑えられる。")
ShowMessage("射精してしまわないように、最小限の刺激に留められてしまうのだ。")
ShowMessageFace("",0,0,2,52)
ShowMessage("それは、男を生殺しにするような口技だった――")
ShowMessageFace("",0,0,2,53)
ShowMessage("\\n<Luka>あ、あぅぅぅぅ……")
ShowMessage("このまま、イかせてぇ……")
ShowMessageFace("",0,0,2,54)
ShowMessage("焦燥感に駆られ、エデンに射精を懇願する。")
ShowMessage("すっかり僕は、楽園のような性技の虜になってしまっていた。")
ShowMessageFace("eden_fc1",3,0,2,55)
ShowMessage("【Eden】")
ShowMessage("もう音を上げてしまったのですか……？")
ShowMessage("それでは、イかせてあげなさい……")
ShowMessageFace("eden_fc1",3,0,2,56)
ShowMessage("【エデンC】")
ShowMessage("分かりました、では……")
ShowMessage("じゅぶ、じゅぶ、じゅぶ……")
ShowMessageFace("",0,0,2,57)
ShowMessage("不意に、天使の口技が激しくなった。")
ShowMessage("唇でのピストンがペースを上げ、カリ首を扱きたててきたのだ。")
ShowMessageFace("",0,0,2,58)
ShowMessage("口内でも舌の動きがねちっこくなり、亀頭全体にベロベロとまとわりつく。")
ShowMessage("ラストスパートの口技に、僕はたちまち昇天してしまった――")
ShowMessageFace("",0,0,2,59)
ShowMessage("\\n<Luka>あ、あぁぁぁぁ――！！")
RunCommonEvent(104)
PictureDisplay(5,"ev_eden_hb3",0,0,0,0,100,100,255,0)
RunCommonEvent(105)
ShowMessageFace("",0,0,2,60)
ShowMessage("射精した瞬間、エデンは口内をすぼめて亀頭をじゅるじゅると吸ってきた。")
ShowMessage("射精の脈動に合わせ、バキュームの刺激を与えてきたのだ。")
ShowMessageFace("",0,0,2,61)
ShowMessage("まるで吸い出されるような射精感を味わい、恍惚の表情で脱力してしまう。")
ShowMessage("天使達の口技に身を任せ、僕はすっかり骨抜きになってしまった――")
ShowMessageFace("",0,0,2,62)
ShowMessage("\\n<Luka>はぅぅぅ……きもちいいよぉ……")
PictureDisplay(5,"ev_eden_hb4",0,0,0,0,100,100,255,0)
ShowMessageFace("eden_fc1",3,0,2,63)
ShowMessage("【Eden】")
ShowMessage("ふふっ……すっかりとろけてしまいましたね。")
ShowMessage("強固な意志を持つと思いきや、随分と快楽に弱い様子……")
ShowMessageFace("eden_fc1",3,0,2,64)
ShowMessage("【Eden】")
ShowMessage("あなたは永遠に、天国の快感を味わうことができるのです。")
ShowMessage("何もかも忘れ、この楽園で快楽に溺れ続けなさい……")
ShowMessageFace("",0,0,2,65)
ShowMessage("\\n<Luka>ふぁぁぁ……すごいよぉ……")
ShowMessageFace("",0,0,2,66)
ShowMessage("僕は完全に理性を失い、楽園の虜となってしまった。")
ShowMessage("天使達が与えてくれる様々な快楽を味わい、悦びに浸る毎日を受け入れたのだ。")
ShowMessageFace("",0,0,2,67)
ShowMessage("この楽園で骨抜きになり、永遠の快楽に溺れてしまう――")
ShowMessage("こうして僕を飼い殺しにするのが、エデンの策略だった。")
ShowMessageFace("eden_fc1",3,0,2,68)
ShowMessage("【Eden】")
ShowMessage("まだまだ、満足するには早いですよ。")
ShowMessage("古今東西の淫技が、あなたを待っているのですから……")
ShowMessageFace("",0,0,2,69)
ShowMessage("\\n<Luka>きもちいいよぉ……あぅぅぅ……")
ShowMessageFace("",0,0,2,70)
ShowMessage("僕は死ぬこともなく、それゆえ転生さえ許されない。")
ShowMessage("その魂は、永遠に楽園で飼い殺しにされたのである――")
221()
PictureClear(5)
PictureClear(6)
246(2)
ShowMessageFace("",0,0,2,71)
ShowMessage("......")
RunCommonEvent(3998)
0()
