// EVENT 7153
Name "Sara: Victory"

PictureDisplay(5,"80_sara_st12",0,0,0,0,100,100,255,0)
ShowMessageFace("sara_fc2",1,0,2,1)
ShowMessage("\\n<Sara>Nnnng... Oho, you managed to endure it.\nDid you want to fuck me that badly?")
250(bytes(0x04,0x08,0x6f,0x3a,0x0c,0x52,0x50,0x47,0x3a,0x3a,0x53,0x45,0x08,0x3a,0x0a,0x40,0x6e,0x61,0x6d,0x65,0x49,0x22,0x0d,0x6d,0x6f,0x6e,0x5f,0x6c,0x76,0x75,0x70,0x06,0x3a,0x06,0x45,0x54,0x3a,0x0b,0x40,0x70,0x69,0x74,0x63,0x68,0x69,0x69,0x3a,0x0c,0x40,0x76,0x6f,0x6c,0x75,0x6d,0x65,0x69,0x69))
ChangeSwitch(98,98,1)
ChangeSwitch(96,96,1)
ShowMessageFace("",0,0,2,2)
ShowMessage("Luka emerged from the battle fuck victorious!")
If(1,816,0,0,0)
 ChangeVariable(816,816,0,0,2)
 RunCommonEvent(6999)
 0()
EndIf()
355("call_novel_scene(4071)")
0()
