﻿// EVENT 1227
Name "Talk: Green Slime"

If(1,20,0,1,0)
 JumpToLabel("情報")
 0()
EndIf()
If(1,20,0,2,0)
 JumpToLabel("質問")
 0()
EndIf()
If(1,20,0,3,0)
 JumpToLabel("要求")
 0()
EndIf()
If(1,20,0,4,0)
 JumpToLabel("贈与")
 0()
EndIf()
DefineLabel("情報")
ChangeVariable(13,13,0,2,1,100)
If(1,13,0,10,2)
 ShowMessageFace("slime_green_fc1",0,0,2,1)
 ShowMessage("\\n<Green Slime>Red Slime is a bit harsh, isn't she?\nI'm her friend, but would it be better to tell her she's lively...?")
 EndEventProcessing()
 0()
EndIf()
If(1,13,0,20,2)
 ShowMessageFace("slime_green_fc1",0,0,2,2)
 ShowMessage("\\n<Green Slime>Blue Slime is a bit glum, isn't she?\nI'm her friend, but would it be better to tell her she's calm...?")
 EndEventProcessing()
 0()
EndIf()
If(1,13,0,30,2)
 ShowMessageFace("slime_green_fc1",0,0,2,3)
 ShowMessage("\\n<Green Slime>Purple Slime often gets angry...\nDo I talk too much?")
 EndEventProcessing()
 0()
EndIf()
If(1,13,0,40,2)
 ShowMessageFace("slime_green_fc1",0,0,2,4)
 ShowMessage("\\n<Green Slime>What should we play today?")
 EndEventProcessing()
 0()
EndIf()
If(1,13,0,50,2)
 ShowMessageFace("slime_green_fc1",1,0,2,5)
 ShowMessage("\\n<Green Slime>It's sticky! ♪")
 EndEventProcessing()
 0()
EndIf()
If(1,13,0,60,2)
 ShowMessageFace("slime_green_fc1",0,0,2,6)
 ShowMessage("\\n<Green Slime>The Green Slime is sticky! ♪")
 EndEventProcessing()
 0()
EndIf()
If(1,13,0,70,2)
 ShowMessageFace("slime_green_fc1",0,0,2,7)
 ShowMessage("\\n<Green Slime>It's bad for my body if I don't get any sunlight... But if I take in too much, I dry up.")
 EndEventProcessing()
 0()
EndIf()
If(1,13,0,80,2)
 ShowMessageFace("slime_green_fc1",0,0,2,8)
 ShowMessage("\\n<Green Slime>Once in a while, I'll do photosynthesis...\nI'm joking, can you?")
 EndEventProcessing()
 0()
EndIf()
If(1,13,0,90,2)
 ShowMessageFace("slime_green_fc1",0,0,2,9)
 ShowMessage("\\n<Green Slime>To be honest, I don't care what goes on in the world.")
 EndEventProcessing()
 0()
EndIf()
If(1,13,0,100,2)
 ShowMessageFace("slime_green_fc1",0,0,2,10)
 ShowMessage("\\n<Green Slime>Trouuuble!")
 EndEventProcessing()
 0()
EndIf()
DefineLabel("質問")
ChangeVariable(13,13,0,2,1,50)
If(1,13,0,10,2)
 ShowMessageFace("slime_green_fc1",0,0,2,11)
 ShowMessage("\\n<Green Slime>Do you know what I eat...?")
 ShowChoices(strings("Vegetables","Fish","Humans"),0)
 IfPlayerPicksChoice(0,"野菜")
  ShowMessageFace("slime_green_fc1",0,0,2,12)
  ShowMessage("\\n<Green Slime>Don't assume I like vegetables just because I'm green...")
  0()
 IfPlayerPicksChoice(1,"魚")
  ShowMessageFace("slime_green_fc1",1,0,2,13)
  ShowMessage("\\n<Green Slime>Yes, I love fishies. ♪")
  355("change_friend(10)")
  0()
 IfPlayerPicksChoice(2,"人間")
  ShowMessageFace("slime_green_fc1",2,0,2,14)
  ShowMessage("\\n<Green Slime>I don't eat that, don't lump me with the red one!")
  355("change_friend(-5)")
  0()
 404()
 EndEventProcessing()
 0()
EndIf()
If(1,13,0,20,2)
 ShowMessageFace("slime_green_fc1",0,0,2,15)
 ShowMessage("\\n<Green Slime>What do you think of green?")
 ShowChoices(strings("Easy on the eyes","Beautiful","Dirty"),0)
 IfPlayerPicksChoice(0,"目に優しい")
  ShowMessageFace("slime_green_fc1",0,0,2,16)
  ShowMessage("\\n<Green Slime>I see... Then I'll be kind to you!")
  355("change_friend(5)")
  0()
 IfPlayerPicksChoice(1,"綺麗")
  ShowMessageFace("slime_green_fc1",1,0,2,17)
  ShowMessage("\\n<Green Slime>Ehehe... I was told that I'm beautiful for the first time. ♪")
  355("change_friend(10)")
  0()
 IfPlayerPicksChoice(2,"汚らわしい")
  ShowMessageFace("slime_green_fc1",2,0,2,18)
  ShowMessage("\\n<Green Slime>It looks dirty like sludge...?\nI'm going to make you into sludge too!")
  355("change_friend(-5)")
  0()
 404()
 EndEventProcessing()
 0()
EndIf()
If(1,13,0,30,2)
 ShowMessageFace("slime_green_fc1",0,0,2,19)
 ShowMessage("\\n<Green Slime>This green body is similar to something.\nSomething luxurious... Do you know?")
 ShowChoices(strings("Emerald jewelry","Green juice","Natto Curry"),0)
 IfPlayerPicksChoice(0,"エメラルドの宝石")
  ShowMessageFace("slime_green_fc1",1,0,2,20)
  ShowMessage("\\n<Green Slime>Yes, you know well! ♪\nI'm noble like an emerald! ♪")
  355("change_friend(10)")
  0()
 IfPlayerPicksChoice(1,"青汁")
  ShowMessageFace("slime_green_fc1",2,0,2,21)
  ShowMessage("\\n<Green Slime>That's not luxurious at all!")
  355("change_friend(-5)")
  0()
 IfPlayerPicksChoice(2,"納豆カレー")
  ShowMessageFace("slime_green_fc1",2,0,2,22)
  ShowMessage("\\n<Green Slime>That hurt my feelings!\nYou know that curry is absolutely ridiculous!")
  355("change_friend(-5)")
  0()
 404()
 EndEventProcessing()
 0()
EndIf()
If(1,13,0,40,2)
 ShowMessageFace("slime_green_fc1",0,0,2,23)
 ShowMessage("\\n<Green Slime>Hey, let's play together! ♪")
 ShowChoices(strings("I'll play","I won't play","I'll play with you"),0)
 IfPlayerPicksChoice(0,"遊ぶ")
  ShowMessageFace("slime_green_fc1",0,0,2,24)
  ShowMessage("\\n<Green Slime>Then let's get sticky together!")
  355("change_friend(10)")
  0()
 IfPlayerPicksChoice(1,"遊ばない")
  ShowMessageFace("slime_green_fc1",0,0,2,25)
  ShowMessage("\\n<Green Slime>Boring human...")
  0()
 IfPlayerPicksChoice(2,"お前で遊んでやる")
  ShowMessageFace("slime_green_fc1",2,0,2,26)
  ShowMessage("\\n<Green Slime>Someone help meee!")
  355("change_friend(-5)")
  0()
 404()
 EndEventProcessing()
 0()
EndIf()
If(1,13,0,50,2)
 ShowMessageFace("slime_green_fc1",0,0,2,27)
 ShowMessage("\\n<Green Slime>Doesn't everything in the world somehow seem troublesome?")
 ShowChoices(strings("They're not","They are","*sigh*"),0)
 IfPlayerPicksChoice(0,"ない")
  ShowMessageFace("slime_green_fc1",0,0,2,28)
  ShowMessage("\\n<Green Slime>You seem to be living earnestly...\nI find it tiresome...")
  0()
 IfPlayerPicksChoice(1,"ある")
  ShowMessageFace("slime_green_fc1",1,0,2,29)
  ShowMessage("\\n<Green Slime>That's right...\nLet's laze around here together!")
  355("change_friend(10)")
  0()
 IfPlayerPicksChoice(2,"くた～")
  ShowMessageFace("slime_green_fc1",0,0,2,30)
  ShowMessage("\\n<Green Slime>Sticky! ♪")
  0()
 404()
 EndEventProcessing()
 0()
EndIf()
DefineLabel("要求")
ChangeVariable(13,13,0,2,1,30)
If(1,13,0,10,2)
 If(8,306)
  ShowMessageFace("slime_green_fc1",0,0,2,31)
  ShowMessage("\\n<Green Slime>Sometimes, I want to eat vegetables... Gimme a cucumber!")
  ChangeVariable(24,24,0,3,0,306,0)
  ShowMessageFace("",0,0,2,32)
  ShowMessage("Do you want to give a \\ii[306]? (Have:\\V[24])")
  ShowChoices(strings("Yes","No"),2)
  IfPlayerPicksChoice(0,"Yes")
   ShowMessageFace("slime_green_fc1",1,0,2,33)
   ShowMessage("\\n<Green Slime>Hooray! ♪")
   ChangeInventory_Item(306,1,0,1)
   355("change_friend(20)")
   EndEventProcessing()
   0()
  IfPlayerPicksChoice(1,"No")
   ShowMessageFace("slime_green_fc1",2,0,2,34)
   ShowMessage("\\n<Green Slime>Eh?!")
   EndEventProcessing()
   0()
  404()
  0()
 Else()
  ChangeVariable(13,13,0,0,20)
  0()
 EndIf()
 0()
EndIf()
If(1,13,0,20,2)
 If(8,63)
  ShowMessageFace("slime_green_fc1",0,0,2,35)
  ShowMessage("\\n<Green Slime>I want a wind stone!")
  ChangeVariable(24,24,0,3,0,63,0)
  ShowMessageFace("",0,0,2,36)
  ShowMessage("Do you want to give a \\ii[63]? (Have:\\V[24])")
  ShowChoices(strings("Yes","No"),2)
  IfPlayerPicksChoice(0,"Yes")
   ShowMessageFace("slime_green_fc1",1,0,2,37)
   ShowMessage("\\n<Green Slime>Hooray! ♪")
   ChangeInventory_Item(63,1,0,1)
   355("change_friend(30)")
   EndEventProcessing()
   0()
  IfPlayerPicksChoice(1,"No")
   ShowMessageFace("slime_green_fc1",2,0,2,38)
   ShowMessage("\\n<Green Slime>Eh?!")
   EndEventProcessing()
   0()
  404()
  0()
 Else()
  ChangeVariable(13,13,0,0,30)
  0()
 EndIf()
 0()
EndIf()
If(1,13,0,30,2)
 ShowMessageFace("slime_green_fc1",0,0,2,39)
 ShowMessage("\\n<Green Slime>I want some money!")
 If(7,378,0)
  ChangeVariable(24,24,0,3,7,2,0)
  ShowMessageFace("",0,0,2,40)
  ShowMessage("Do you want to give 378G? (Remaining:\\V[24])")
  ShowChoices(strings("Yes","No"),2)
  IfPlayerPicksChoice(0,"Yes")
   ShowMessageFace("slime_green_fc1",1,0,2,41)
   ShowMessage("\\n<Green Slime>Hooray! ♪")
   125(1,0,378)
   355("change_friend(25)")
   EndEventProcessing()
   0()
  IfPlayerPicksChoice(1,"No")
   ShowMessageFace("slime_green_fc1",2,0,2,42)
   ShowMessage("\\n<Green Slime>Eh?!")
   EndEventProcessing()
   0()
  404()
  0()
 Else()
  ShowMessageFace("slime_green_fc1",2,0,2,43)
  ShowMessage("\\n<Green Slime>...Eh?! You're poor!")
  EndEventProcessing()
  0()
 EndIf()
 0()
EndIf()
DefineLabel("贈与")
ChangeVariable(13,13,0,2,1,30)
If(1,25,0,1,0)
 ChangeVariable(13,13,0,0,30)
 ChangeVariable(25,25,0,0,0)
 0()
EndIf()
If(1,25,0,2,0)
 ChangeVariable(13,13,0,2,1,20)
 ChangeVariable(25,25,0,0,0)
 0()
EndIf()
If(1,13,0,10,2)
 ShowMessageFace("slime_green_fc1",0,0,2,44)
 ShowMessage("\\n<Green Slime>I'll give you eye drops!")
 250(bytes(0x04,0x08,0x6f,0x3a,0x0c,0x52,0x50,0x47,0x3a,0x3a,0x53,0x45,0x08,0x3a,0x0a,0x40,0x6e,0x61,0x6d,0x65,0x49,0x22,0x0a,0x49,0x74,0x65,0x6d,0x31,0x06,0x3a,0x06,0x45,0x54,0x3a,0x0b,0x40,0x70,0x69,0x74,0x63,0x68,0x69,0x69,0x3a,0x0c,0x40,0x76,0x6f,0x6c,0x75,0x6d,0x65,0x69,0x55))
 ChangeInventory_Item(14,0,0,1)
 ShowMessageFace("",0,0,2,45)
 ShowMessage("The Green Slime gave you some \\ii[14]!")
 EndEventProcessing()
 0()
EndIf()
If(1,13,0,20,2)
 ShowMessageFace("slime_green_fc1",0,0,2,46)
 ShowMessage("\\n<Green Slime>I'll give you my jelly!")
 250(bytes(0x04,0x08,0x6f,0x3a,0x0c,0x52,0x50,0x47,0x3a,0x3a,0x53,0x45,0x08,0x3a,0x0a,0x40,0x6e,0x61,0x6d,0x65,0x49,0x22,0x0a,0x49,0x74,0x65,0x6d,0x31,0x06,0x3a,0x06,0x45,0x54,0x3a,0x0b,0x40,0x70,0x69,0x74,0x63,0x68,0x69,0x69,0x3a,0x0c,0x40,0x76,0x6f,0x6c,0x75,0x6d,0x65,0x69,0x55))
 ChangeInventory_Item(218,0,0,1)
 ShowMessageFace("",0,0,2,47)
 ShowMessage("The Green Slime gave you some \\ii[218]!")
 EndEventProcessing()
 0()
EndIf()
If(1,13,0,30,2)
 ShowMessageFace("slime_green_fc1",0,0,2,48)
 ShowMessage("\\n<Green Slime>I'll give you money!")
 250(bytes(0x04,0x08,0x6f,0x3a,0x0c,0x52,0x50,0x47,0x3a,0x3a,0x53,0x45,0x08,0x3a,0x0a,0x40,0x6e,0x61,0x6d,0x65,0x49,0x22,0x0a,0x49,0x74,0x65,0x6d,0x31,0x06,0x3a,0x06,0x45,0x54,0x3a,0x0b,0x40,0x70,0x69,0x74,0x63,0x68,0x69,0x69,0x3a,0x0c,0x40,0x76,0x6f,0x6c,0x75,0x6d,0x65,0x69,0x55))
 125(0,0,630)
 ShowMessageFace("",0,0,2,49)
 ShowMessage("The Green Slime gave you 630G!")
 EndEventProcessing()
 0()
EndIf()
0()
