// EVENT 2328
Name "Seduction: Conquista"

355("$game_troop.lose_event_id = 3328")
ChangeVariable(26,26,0,3,3,1,4)
ChangeVariable(26,26,4,0,10)
ShowMessageFace("conquista_fc1",0,0,2,1)
ShowMessage("\\n<Conquista>")
ShowMessage("Oho, you have some skill.")
ShowMessage("I'll lose at this rate...")
355("battler_graphic_hide")
PictureDisplay(5,"ev_conquista_hb01",0,0,0,0,100,100,255,0)
ShowMessageFace("",0,0,2,2)
ShowMessage("Conquista pushes Luka down!")
ShowMessage("She jumps on top of him!")
ShowMessageFace("conquista_fc1",1,0,2,3)
ShowMessage("\\n<Conquista>")
ShowMessage("I'll play with your penis.")
ShowMessage("Well? Don't you want to be my toy?")
ChangeSwitch(98,98,0)
ChangeSwitch(96,96,0)
ShowChoices(strings("Struggle","Let her continue"),1)
IfPlayerPicksChoice(0,null)
 ShowMessageFace("",0,0,2,4)
 ShowMessage("Luka struggles, and pushes her off him!")
 RunCommonEvent(1999)
 EndEventProcessing()
 0()
IfPlayerPicksChoice(1,null)
 0()
404()
ShowMessageFace("conquista_fc1",1,0,2,5)
ShowMessage("\\n<Conquista>")
ShowMessage("Fufu, no running?")
ShowMessage("Then I'll play with your dick as you wanted!")
ChangeVariable(26,26,3,0,3)
250(bytes(0x04,0x08,0x6f,0x3a,0x0c,0x52,0x50,0x47,0x3a,0x3a,0x53,0x45,0x08,0x3a,0x0a,0x40,0x6e,0x61,0x6d,0x65,0x49,0x22,0x12,0x6d,0x6f,0x6e,0x5f,0x65,0x72,0x6f,0x5f,0x6b,0x6f,0x6b,0x69,0x31,0x06,0x3a,0x06,0x45,0x54,0x3a,0x0b,0x40,0x70,0x69,0x74,0x63,0x68,0x69,0x69,0x3a,0x0c,0x40,0x76,0x6f,0x6c,0x75,0x6d,0x65,0x69,0x69))
PictureDisplay(5,"ev_conquista_hb06",0,0,0,0,100,100,255,0)
311(0,1,1,1,26,true)
ShowMessageFace("",0,0,2,6)
ShowMessage("Conquista's feet reach for Luka's penis!")
ShowMessage("Her soles press into him, covered in her tights!\\D")
ShowMessage("Luka takes \\V[26] damage!")
ChangeVariable(27,27,0,3,3,1,2)
If(1,27,0,0,0)
 JumpToLabel("射精1")
 0()
EndIf()
ShowMessageFace("conquista_fc1",1,0,2,7)
ShowMessage("\\n<Conquista>")
ShowMessage("Do you like being stepped on?")
ShowMessage("Pathetic. Fufufu...")
250(bytes(0x04,0x08,0x6f,0x3a,0x0c,0x52,0x50,0x47,0x3a,0x3a,0x53,0x45,0x08,0x3a,0x0a,0x40,0x6e,0x61,0x6d,0x65,0x49,0x22,0x12,0x6d,0x6f,0x6e,0x5f,0x65,0x72,0x6f,0x5f,0x6b,0x6f,0x6b,0x69,0x31,0x06,0x3a,0x06,0x45,0x54,0x3a,0x0b,0x40,0x70,0x69,0x74,0x63,0x68,0x69,0x69,0x3a,0x0c,0x40,0x76,0x6f,0x6c,0x75,0x6d,0x65,0x69,0x69))
311(0,1,1,1,26,true)
ShowMessageFace("",0,0,2,8)
ShowMessage("Conquista starts to move her feet!")
ShowMessage("Her tights rub against him, stimulating Luka!\\D")
ShowMessage("Luka takes \\V[26] damage!")
ChangeVariable(27,27,0,3,3,1,2)
If(1,27,0,0,0)
 JumpToLabel("射精1")
 0()
EndIf()
ShowMessageFace("conquista_fc1",1,0,2,9)
ShowMessage("\\n<Conquista>")
ShowMessage("Kuku, isn't it frustrating?")
ShowMessage("Your precious organ is being dominated by my feet.")
250(bytes(0x04,0x08,0x6f,0x3a,0x0c,0x52,0x50,0x47,0x3a,0x3a,0x53,0x45,0x08,0x3a,0x0a,0x40,0x6e,0x61,0x6d,0x65,0x49,0x22,0x12,0x6d,0x6f,0x6e,0x5f,0x65,0x72,0x6f,0x5f,0x6b,0x6f,0x6b,0x69,0x31,0x06,0x3a,0x06,0x45,0x54,0x3a,0x0b,0x40,0x70,0x69,0x74,0x63,0x68,0x69,0x69,0x3a,0x0c,0x40,0x76,0x6f,0x6c,0x75,0x6d,0x65,0x69,0x69))
311(0,1,1,1,26,true)
ShowMessageFace("",0,0,2,10)
ShowMessage("Conquista moves her feet up and down!")
ShowMessage("Her soft soles press hard into his shaft!\\D")
ShowMessage("Luka takes \\V[26] damage!")
ChangeVariable(27,27,0,3,3,1,2)
If(1,27,0,0,0)
 JumpToLabel("射精1")
 0()
EndIf()
ShowMessageFace("conquista_fc1",1,0,2,11)
ShowMessage("\\n<Conquista>")
ShowMessage("Now, devote your semen to my feet!")
ShowMessage("Scatter it all over them!")
250(bytes(0x04,0x08,0x6f,0x3a,0x0c,0x52,0x50,0x47,0x3a,0x3a,0x53,0x45,0x08,0x3a,0x0a,0x40,0x6e,0x61,0x6d,0x65,0x49,0x22,0x12,0x6d,0x6f,0x6e,0x5f,0x65,0x72,0x6f,0x5f,0x6b,0x6f,0x6b,0x69,0x31,0x06,0x3a,0x06,0x45,0x54,0x3a,0x0b,0x40,0x70,0x69,0x74,0x63,0x68,0x69,0x69,0x3a,0x0c,0x40,0x76,0x6f,0x6c,0x75,0x6d,0x65,0x69,0x69))
311(0,1,1,1,26,true)
ShowMessageFace("",0,0,2,12)
ShowMessage("Conquista steps harder on Luka's penis!")
ShowMessage("Her toes rub his glans at the same time!\\D")
ShowMessage("Luka takes \\V[26] damage!")
ChangeVariable(27,27,0,3,3,1,2)
If(1,27,0,0,0)
 JumpToLabel("射精1")
 0()
EndIf()
DefineLabel("射精1")
ShowMessageFace("",0,0,2,13)
ShowMessage("\\n<Luka>No, coming... Ahhh...")
RunCommonEvent(104)
PictureDisplay(5,"ev_conquista_hb07",0,0,0,0,100,100,255,0)
RunCommonEvent(105)
ShowMessageFace("",0,0,2,14)
ShowMessage("As Conquista rubs my penis with her feet, I come.")
ShowMessage("I miserably shoot my semen out all over them...")
ShowMessageFace("conquista_fc1",1,0,2,15)
ShowMessage("\\n<Conquista>")
ShowMessage("Haha, you came all over my feet!")
ShowMessage("Pathetic!")
RunCommonEvent(2000)
EndEventProcessing()
0()
