// EVENT 3195
Name "Kejourou"

PictureDisplay(5,"80_kezyorou_st02",0,0,0,0,100,100,0,0)
PictureMove(5,null,0,0,0,0,100,100,255,0,30,true)
241(bytes(0x04,0x08,0x6f,0x3a,0x0d,0x52,0x50,0x47,0x3a,0x3a,0x42,0x47,0x4d,0x08,0x3a,0x0a,0x40,0x6e,0x61,0x6d,0x65,0x49,0x22,0x09,0x65,0x72,0x6f,0x31,0x06,0x3a,0x06,0x45,0x54,0x3a,0x0c,0x40,0x76,0x6f,0x6c,0x75,0x6d,0x65,0x69,0x69,0x3a,0x0b,0x40,0x70,0x69,0x74,0x63,0x68,0x69,0x69))
ShowMessageFace("",0,0,2,1)
ShowMessage("\\n<Luka>")
ShowMessage("Nngh...")
ShowMessageFace("kezyorou_fc1",1,0,2,2)
ShowMessage("\\n<Kejourou>")
ShowMessage("Haha, what a loose looking face...")
ShowMessage("Now it's time to play with you...")
250(bytes(0x04,0x08,0x6f,0x3a,0x0c,0x52,0x50,0x47,0x3a,0x3a,0x53,0x45,0x08,0x3a,0x0a,0x40,0x6e,0x61,0x6d,0x65,0x49,0x22,0x16,0x6d,0x6f,0x6e,0x5f,0x65,0x72,0x6f,0x5f,0x6d,0x61,0x6b,0x69,0x74,0x75,0x6b,0x69,0x31,0x06,0x3a,0x06,0x45,0x54,0x3a,0x0b,0x40,0x70,0x69,0x74,0x63,0x68,0x69,0x69,0x3a,0x0c,0x40,0x76,0x6f,0x6c,0x75,0x6d,0x65,0x69,0x69))
PictureDisplay(5,"ev_kezyorou_ha1",0,0,0,0,100,100,255,0)
ShowMessageFace("",0,0,2,3)
ShowMessage("\\n<Luka>")
ShowMessage("Urhg...!")
ShowMessageFace("",0,0,2,4)
ShowMessage("Kejourou's hair wraps around my body and limbs, lifting me forcibly into the air.")
ShowMessageFace("",0,0,2,5)
ShowMessage("\\n<Luka>")
ShowMessage("G...Get off!")
ShowMessageFace("",0,0,2,6)
ShowMessage("I try to struggle, but her hair's hold is far too strong.")
ShowMessage("Despite my best efforts, I can barely manage to shake side to side.")
ShowMessageFace("kezyorou_fc1",1,0,2,7)
ShowMessage("\\n<Kejourou>")
ShowMessage("Now then, shall I make you show me the proof of your manhood?")
ShowMessage("Just be obedient and spit it out...")
ShowMessageFace("",0,0,2,8)
ShowMessage("Kejourou's hair moves into my pants, and slips out my penis.")
245(bytes(0x04,0x08,0x6f,0x3a,0x0d,0x52,0x50,0x47,0x3a,0x3a,0x42,0x47,0x53,0x08,0x3a,0x0a,0x40,0x6e,0x61,0x6d,0x65,0x49,0x22,0x17,0x6d,0x6f,0x6e,0x5f,0x68,0x73,0x65,0x61,0x6e,0x31,0x37,0x5f,0x73,0x69,0x67,0x6f,0x6b,0x69,0x06,0x3a,0x06,0x45,0x54,0x3a,0x0c,0x40,0x76,0x6f,0x6c,0x75,0x6d,0x65,0x69,0x55,0x3a,0x0b,0x40,0x70,0x69,0x74,0x63,0x68,0x69,0x69))
PictureDisplay(5,"ev_kezyorou_ha2",0,0,0,0,100,100,255,0)
ShowMessageFace("",0,0,2,9)
ShowMessage("At the same time, her hair coils around my penis!")
ShowMessageFace("",0,0,2,10)
ShowMessage("\\n<Luka>")
ShowMessage("Wh...What are you doing!?")
ShowMessageFace("kezyorou_fc1",1,0,2,11)
ShowMessage("\\n<Kejourou>")
ShowMessage("Why... I'm going to make you come, of course.")
ShowMessage("I'll use my hair to play with your penis...")
ShowMessageFace("",0,0,2,12)
ShowMessage("Starting from the root of my penis, her hair slowly winds around me as it heads for my tip.")
ShowMessage("The surprising silky feel of her hair makes my waist shake in surprised pleasure.")
ShowMessageFace("",0,0,2,13)
ShowMessage("\\n<Luka>")
ShowMessage("Ah, unnngh...")
ShowMessageFace("kezyorou_fc1",1,0,2,14)
ShowMessage("\\n<Kejourou>")
ShowMessage("Now... Where is your weak point at?")
ShowMessage("Shall I try... Here first?")
ShowMessageFace("",0,0,2,15)
ShowMessage("Some of her hair gently rubs right under the neck of my penis.")
ShowMessageFace("",0,0,2,16)
ShowMessage("Pressing gently against the tip of my glans from underneath, my lower body twitches uncontrollably from the sudden stimulation.")
ShowMessageFace("",0,0,2,17)
ShowMessage("\\n<Luka>")
ShowMessage("Ah...!")
ShowMessageFace("kezyorou_fc1",1,0,2,18)
ShowMessage("\\n<Kejourou>")
ShowMessage("That was a nice reaction...")
ShowMessage("Here, I'll stroke the shaft too.")
ShowMessageFace("",0,0,2,19)
ShowMessage("At the same time, her hair starts to stroke my shaft, up and down.")
ShowMessageFace("",0,0,2,20)
ShowMessage("The smooth, controlled movements cause my body to shake with more and more pleasure.")
PictureDisplay(5,"ev_kezyorou_ha3",0,0,0,0,100,100,255,0)
ShowMessageFace("",0,0,2,21)
ShowMessage("In response to her movements, pre-come starts to leak from my tip.")
ShowMessageFace("kezyorou_fc1",1,0,2,22)
ShowMessage("\\n<Kejourou>")
ShowMessage("Ahaha, are you already feeling it?")
ShowMessage("You're going to come so soon, when I'm still just gently rubbing it?")
ShowMessageFace("",0,0,2,23)
ShowMessage("\\n<Luka>")
ShowMessage("S-Stop...")
ShowMessageFace("",0,0,2,24)
ShowMessage("More of her hair slowly moves to the tip of my penis, the tips of her silky hair tickling me as they move.")
ShowMessageFace("",0,0,2,25)
ShowMessage("Their smooth strands rub against my urethral opening, and against every sensitive exposed area of my tip.")
ShowMessageFace("",0,0,2,26)
ShowMessage("\\n<Luka>")
ShowMessage("Ah... Coming...!")
ShowMessage("Aaaaahhh...!")
ShowMessageFace("kezyorou_fc1",1,0,2,27)
ShowMessage("\\n<Kejourou>")
ShowMessage("Hah... Surrendering to this already?")
ShowMessage("Then spray it all out.")
ShowMessageFace("",0,0,2,28)
ShowMessage("Her silky smooth hair, like a brush rubbing against me, continues to gently stroke me, leading me to a sweet ejaculation.")
ShowMessageFace("",0,0,2,29)
ShowMessage("\\n<Luka>")
ShowMessage("Ah, aaaah...!")
RunCommonEvent(104)
PictureDisplay(5,"ev_kezyorou_ha4",0,0,0,0,100,100,255,0)
RunCommonEvent(105)
ShowMessageFace("",0,0,2,30)
ShowMessage("My penis pulses, shooting semen out as her silky hair continues stroking and rubbing my weakest points as a man.")
ShowMessageFace("kezyorou_fc1",1,0,2,31)
ShowMessage("\\n<Kejourou>")
ShowMessage("Ahaha... You came.")
ShowMessage("Look at all that shameful semen you sprayed everywhere...")
246(1)
PictureDisplay(5,"ev_kezyorou_ha5",0,0,0,0,100,100,255,0)
ShowMessageFace("",0,0,2,32)
ShowMessage("Kejourou uses her hair to rub the semen I shot out, and brings it to her mouth.")
ShowMessage("Sticking her tongue out, she eagerly licks up my semen.")
ShowMessageFace("kezyorou_fc1",1,0,2,33)
ShowMessage("\\n<Kejourou>")
ShowMessage("Hehehe... Such delicious nectar.")
ShowMessage("When I think of all the semen swimming around in your balls... It leaves me in such a good mood.")
ShowMessageFace("kezyorou_fc1",1,0,2,34)
ShowMessage("\\n<Kejourou>")
ShowMessage("Your semen, existing to make children...")
ShowMessage("How does it feel to see them being eaten by me, instead?")
ShowMessageFace("",0,0,2,35)
ShowMessage("Her eyes are locked on mine as she continues licking up my semen.")
ShowMessageFace("kezyorou_fc1",1,0,2,36)
ShowMessage("\\n<Kejourou>")
ShowMessage("Hehe, I know how it is...")
ShowMessage("As long as your dick feels good, you don't care, do you?")
ShowMessageFace("kezyorou_fc1",1,0,2,37)
ShowMessage("\\n<Kejourou>")
ShowMessage("Here, I'll make you feel good again...")
ShowMessage("So hurry up and spit out more.")
245(bytes(0x04,0x08,0x6f,0x3a,0x0d,0x52,0x50,0x47,0x3a,0x3a,0x42,0x47,0x53,0x08,0x3a,0x0a,0x40,0x6e,0x61,0x6d,0x65,0x49,0x22,0x17,0x6d,0x6f,0x6e,0x5f,0x68,0x73,0x65,0x61,0x6e,0x31,0x37,0x5f,0x73,0x69,0x67,0x6f,0x6b,0x69,0x06,0x3a,0x06,0x45,0x54,0x3a,0x0c,0x40,0x76,0x6f,0x6c,0x75,0x6d,0x65,0x69,0x55,0x3a,0x0b,0x40,0x70,0x69,0x74,0x63,0x68,0x69,0x69))
ShowMessageFace("",0,0,2,38)
ShowMessage("Her hair starts moving again.")
ShowMessage("Playing with my penis, the tips of her silky hair focus especially on my tip.")
ShowMessageFace("",0,0,2,39)
ShowMessage("At the same time, the rest of it coiled around me slowly starts to tighten more and more...")
ShowMessageFace("",0,0,2,40)
ShowMessage("\\n<Luka>")
ShowMessage("Ah... Urhg!")
ShowMessageFace("kezyorou_fc1",1,0,2,41)
ShowMessage("\\n<Kejourou>")
ShowMessage("I won't let you hold back.")
ShowMessage("Here, can you endure this?")
ShowMessageFace("",0,0,2,42)
ShowMessage("Kejourou skillfully uses her silky hair to tickle my tip, seemingly able to hit every sensitive point on me.")
ShowMessageFace("",0,0,2,43)
ShowMessage("Sometimes massaging me, other times squeezing me... Her skilled techniques leave me gasping and on edge in moments.")
ShowMessageFace("",0,0,2,44)
ShowMessage("\\n<Luka>")
ShowMessage("No... I'm going to come...")
ShowMessageFace("kezyorou_fc1",1,0,2,45)
ShowMessage("\\n<Kejourou>")
ShowMessage("Hahaha, you really don't have any endurance...")
ShowMessage("Now for the killing blow!")
ShowMessageFace("",0,0,2,46)
ShowMessage("The same time her hair massages my balls, the silky tips of some other hair rubs my urethral opening.")
ShowMessage("Unable to take it any longer, I erupt with a scream.")
ShowMessageFace("",0,0,2,47)
ShowMessage("\\n<Luka>")
ShowMessage("Ah, Aaaaahhh...!")
RunCommonEvent(104)
PictureDisplay(5,"ev_kezyorou_ha6",0,0,0,0,100,100,255,0)
RunCommonEvent(105)
ShowMessageFace("",0,0,2,48)
ShowMessage("I explode on her hair, my semen spraying all over the place.")
ShowMessage("But even during my orgasm, her hair doesn't stop stimulating me.")
ShowMessageFace("",0,0,2,49)
ShowMessage("\\n<Luka>")
ShowMessage("Nnngh...!")
ShowMessage("I'm coming, so stop!")
ShowMessageFace("kezyorou_fc1",1,0,2,50)
ShowMessage("\\n<Kejourou>")
ShowMessage("Hahaha... Even though you're a man, you're begging so pathetically.")
ShowMessage("How does it feel, being stroked while you come?")
ShowMessageFace("",0,0,2,51)
ShowMessage("\\n<Luka>")
ShowMessage("Hyaaaa!!")
ShowMessageFace("",0,0,2,52)
ShowMessage("Her ruthless torture of pleasure continues, leaving my body shaking in a hell of ecstasy moments after my orgasm.")
ShowMessageFace("",0,0,2,53)
ShowMessage("After only a few moments, my waist goes numb as another climax rocks my body.")
RunCommonEvent(104)
PictureDisplay(5,"ev_kezyorou_ha7",0,0,0,0,100,100,255,0)
RunCommonEvent(105)
ShowMessageFace("",0,0,2,54)
ShowMessage("\\n<Luka>")
ShowMessage("Nnngh...")
ShowMessageFace("",0,0,2,55)
ShowMessage("Feeling far different than a normal ejaculation, it's almost like I peed out semen.")
246(1)
ShowMessageFace("",0,0,2,56)
ShowMessage("\\n<Luka>")
ShowMessage("Hnnaaa...")
ShowMessageFace("kezyorou_fc1",1,0,2,57)
ShowMessage("\\n<Kejourou>")
ShowMessage("Ahaha, are you about to pee?")
ShowMessage("What a pitiful little boy...")
ShowMessageFace("",0,0,2,58)
ShowMessage("Kejourou laughs at me as my semen drips out, tears in my eyes from the humiliation at the same time.")
ShowMessageFace("",0,0,2,59)
ShowMessage("Whether she kills me like this or keeps it up forever... Either way, my future is misery.")
ShowMessageFace("",0,0,2,60)
ShowMessage("While tasting the ultimate of humiliation as a man, I have to accept my fate.")
221()
PictureClear(5)
PictureClear(6)
ShowMessageFace("",0,0,2,61)
ShowMessage("......")
221()
242(1)
Wait(120)
355("memory_interruption")
ShowMessageFace("",0,0,2,62)
ShowMessage("You hear Ilias' voice calling out to you...")
ShowMessage("Receive her evaluation?")
ShowChoices(strings("Receive Evaluation","Change Difficulty","Reincarnate"),3)
IfPlayerPicksChoice(0,"Receive Evaluation")
 241(bytes(0x04,0x08,0x6f,0x3a,0x0d,0x52,0x50,0x47,0x3a,0x3a,0x42,0x47,0x4d,0x08,0x3a,0x0a,0x40,0x6e,0x61,0x6d,0x65,0x49,0x22,0x0a,0x69,0x72,0x69,0x61,0x73,0x06,0x3a,0x06,0x45,0x54,0x3a,0x0c,0x40,0x76,0x6f,0x6c,0x75,0x6d,0x65,0x69,0x5f,0x3a,0x0b,0x40,0x70,0x69,0x74,0x63,0x68,0x69,0x6e))
 PictureDisplay(1,"bg001",0,0,0,0,100,100,255,0)
 222()
 PictureDisplay(5,"80_iriasu_st04",0,0,0,0,100,100,0,0)
 PictureMove(5,null,0,0,0,0,100,100,255,0,30,true)
 ShowMessageFace("iriasu_fc1",3,0,2,63)
 ShowMessage("\\n<Ilias>")
 ShowMessage("Sheesh, coiled in hair this time?")
 ShowMessage("It's nice to see you continuing your trend of being wound up in anything of sufficient length.")
 PictureDisplay(5,"80_iriasu_st01",0,0,0,0,100,100,255,0)
 ShowMessageFace("iriasu_fc1",0,0,2,64)
 ShowMessage("\\n<Ilias>")
 ShowMessage("Kejourou mainly uses her hair to attack.")
 ShowMessage("Be weary of her Curse Dance and her taoism ice attacks.")
 ShowMessageFace("iriasu_fc1",0,0,2,65)
 ShowMessage("\\n<Ilias>")
 ShowMessage("She's not a strong enemy so you shouldn't have that much trouble defeating her.")
 ShowMessage("Her resistances are average so if you go all out on her, she won't stand a chance.")
 PictureDisplay(5,"80_iriasu_st02",0,0,0,0,100,100,255,0)
 ShowMessageFace("iriasu_fc1",1,0,2,66)
 ShowMessage("\\n<Ilias>")
 ShowMessage("Now go, Long-Thing-Lover Luka.")
 ShowMessage("Pull off all of her hair, and turn her into a wig.")
 242(1)
 221()
 PictureClear(5)
 PictureClear(1)
 Wait(60)
 0()
IfPlayerPicksChoice(1,"Change Difficulty")
 ShowMessageFace("",0,0,2,67)
 ShowMessage("Please choose a difficulty level.")
 RunCommonEvent(110)
 0()
IfPlayerPicksChoice(2,"Reincarnate")
 0()
404()
RunCommonEvent(3000)
0()
