﻿// EVENT 2999
Name "コラボ敗北後処理"

SetBattleBGM(bytes(0x04,0x08,0x6f,0x3a,0x0d,0x52,0x50,0x47,0x3a,0x3a,0x42,0x47,0x4d,0x08,0x3a,0x0a,0x40,0x6e,0x61,0x6d,0x65,0x49,0x22,0x0b,0x62,0x61,0x74,0x74,0x6c,0x65,0x06,0x3a,0x06,0x45,0x54,0x3a,0x0c,0x40,0x76,0x6f,0x6c,0x75,0x6d,0x65,0x69,0x69,0x3a,0x0b,0x40,0x70,0x69,0x74,0x63,0x68,0x69,0x69))
ChangeSwitch(31,39,1)
ChangeSwitch(89,89,1)
ChangeSaveEnabled(1)
314(0,0)
211(1)
216(1)
355("forced_transfer(154,18,52)")
355("$game_map.screen.clear")
0()
