// EVENT 0322
Name "Searching For Amira"

ChangeVariable(1043,1043,1,0,1)
If(1,1043,0,1,0)
 355("gain_medal(2020)")
 0()
EndIf()
If(1,1043,0,15,0)
 355("gain_medal(2021)")
 0()
EndIf()
If(1,1043,0,25,0)
 355("gain_medal(2022)")
 0()
EndIf()
If(1,1043,0,1,0)
 ShowMessageFace("amira_fc1",0,0,2,1)
 ShowMessage("\\n<Amira>Come and find me...")
 ShowMessageFace("amira_fc1",0,0,2,2)
 ShowMessage("\\n<Amira>I'll be hiding all over the world, just like this. If you manage to keep finding me, perhaps something good will come of it?")
 0()
Else()
 ShowMessageFace("amira_fc1",0,0,2,3)
 ShowMessage("\\n<Amira>Come and find me...")
 ShowMessageFace("amira_fc1",0,0,2,4)
 ShowMessage("\\n<Amira>Congratulations. You found Amira #\\V[1043]\nKeep up the search.")
 If(1,1043,0,2,0)
  ShowMessageFace("amira_fc1",0,0,2,5)
  ShowMessage("\\n<Amira>In celebration of finding me, I'll give you a present. Here, take this...")
  250(bytes(0x04,0x08,0x6f,0x3a,0x0c,0x52,0x50,0x47,0x3a,0x3a,0x53,0x45,0x08,0x3a,0x0a,0x40,0x6e,0x61,0x6d,0x65,0x49,0x22,0x0a,0x49,0x74,0x65,0x6d,0x31,0x06,0x3a,0x06,0x45,0x54,0x3a,0x0b,0x40,0x70,0x69,0x74,0x63,0x68,0x69,0x69,0x3a,0x0c,0x40,0x76,0x6f,0x6c,0x75,0x6d,0x65,0x69,0x69))
  ChangeInventory_Item(40,0,0,1)
  0()
 EndIf()
 If(1,1043,0,4,0)
  ShowMessageFace("amira_fc1",0,0,2,6)
  ShowMessage("\\n<Amira>In celebration of finding me, I'll give you a present. Here, take this...")
  250(bytes(0x04,0x08,0x6f,0x3a,0x0c,0x52,0x50,0x47,0x3a,0x3a,0x53,0x45,0x08,0x3a,0x0a,0x40,0x6e,0x61,0x6d,0x65,0x49,0x22,0x0a,0x49,0x74,0x65,0x6d,0x31,0x06,0x3a,0x06,0x45,0x54,0x3a,0x0b,0x40,0x70,0x69,0x74,0x63,0x68,0x69,0x69,0x3a,0x0c,0x40,0x76,0x6f,0x6c,0x75,0x6d,0x65,0x69,0x69))
  ChangeInventory_Item(44,0,0,1)
  0()
 EndIf()
 If(1,1043,0,6,0)
  ShowMessageFace("amira_fc1",0,0,2,7)
  ShowMessage("\\n<Amira>In celebration of finding me, I'll give you a present. Here, take this...")
  250(bytes(0x04,0x08,0x6f,0x3a,0x0c,0x52,0x50,0x47,0x3a,0x3a,0x53,0x45,0x08,0x3a,0x0a,0x40,0x6e,0x61,0x6d,0x65,0x49,0x22,0x0a,0x49,0x74,0x65,0x6d,0x31,0x06,0x3a,0x06,0x45,0x54,0x3a,0x0b,0x40,0x70,0x69,0x74,0x63,0x68,0x69,0x69,0x3a,0x0c,0x40,0x76,0x6f,0x6c,0x75,0x6d,0x65,0x69,0x69))
  ChangeInventory_Item(36,0,0,1)
  0()
 EndIf()
 If(1,1043,0,9,0)
  ShowMessageFace("amira_fc1",0,0,2,8)
  ShowMessage("\\n<Amira>In celebration of finding me, I'll give you a present. Here, take this...")
  250(bytes(0x04,0x08,0x6f,0x3a,0x0c,0x52,0x50,0x47,0x3a,0x3a,0x53,0x45,0x08,0x3a,0x0a,0x40,0x6e,0x61,0x6d,0x65,0x49,0x22,0x0a,0x49,0x74,0x65,0x6d,0x31,0x06,0x3a,0x06,0x45,0x54,0x3a,0x0b,0x40,0x70,0x69,0x74,0x63,0x68,0x69,0x69,0x3a,0x0c,0x40,0x76,0x6f,0x6c,0x75,0x6d,0x65,0x69,0x69))
  ChangeInventory_Item(41,0,0,1)
  0()
 EndIf()
 If(1,1043,0,12,0)
  ShowMessageFace("amira_fc1",0,0,2,9)
  ShowMessage("\\n<Amira>In celebration of finding me, I'll give you a present. Here, take this...")
  250(bytes(0x04,0x08,0x6f,0x3a,0x0c,0x52,0x50,0x47,0x3a,0x3a,0x53,0x45,0x08,0x3a,0x0a,0x40,0x6e,0x61,0x6d,0x65,0x49,0x22,0x0a,0x49,0x74,0x65,0x6d,0x31,0x06,0x3a,0x06,0x45,0x54,0x3a,0x0b,0x40,0x70,0x69,0x74,0x63,0x68,0x69,0x69,0x3a,0x0c,0x40,0x76,0x6f,0x6c,0x75,0x6d,0x65,0x69,0x69))
  ChangeInventory_Item(45,0,0,1)
  0()
 EndIf()
 If(1,1043,0,15,0)
  ShowMessageFace("amira_fc1",0,0,2,10)
  ShowMessage("\\n<Amira>In celebration of finding me, I'll give you a present. Here, take this...")
  250(bytes(0x04,0x08,0x6f,0x3a,0x0c,0x52,0x50,0x47,0x3a,0x3a,0x53,0x45,0x08,0x3a,0x0a,0x40,0x6e,0x61,0x6d,0x65,0x49,0x22,0x0a,0x49,0x74,0x65,0x6d,0x31,0x06,0x3a,0x06,0x45,0x54,0x3a,0x0b,0x40,0x70,0x69,0x74,0x63,0x68,0x69,0x69,0x3a,0x0c,0x40,0x76,0x6f,0x6c,0x75,0x6d,0x65,0x69,0x69))
  ChangeInventory_Item(37,0,0,1)
  0()
 EndIf()
 If(1,1043,0,17,0)
  ShowMessageFace("amira_fc1",0,0,2,11)
  ShowMessage("\\n<Amira>In celebration of finding me, I'll give you a present. Here, take this...")
  250(bytes(0x04,0x08,0x6f,0x3a,0x0c,0x52,0x50,0x47,0x3a,0x3a,0x53,0x45,0x08,0x3a,0x0a,0x40,0x6e,0x61,0x6d,0x65,0x49,0x22,0x0a,0x49,0x74,0x65,0x6d,0x31,0x06,0x3a,0x06,0x45,0x54,0x3a,0x0b,0x40,0x70,0x69,0x74,0x63,0x68,0x69,0x69,0x3a,0x0c,0x40,0x76,0x6f,0x6c,0x75,0x6d,0x65,0x69,0x69))
  ChangeInventory_Item(42,0,0,1)
  0()
 EndIf()
 If(1,1043,0,19,0)
  ShowMessageFace("amira_fc1",0,0,2,12)
  ShowMessage("\\n<Amira>In celebration of finding me, I'll give you a present. Here, take this...")
  250(bytes(0x04,0x08,0x6f,0x3a,0x0c,0x52,0x50,0x47,0x3a,0x3a,0x53,0x45,0x08,0x3a,0x0a,0x40,0x6e,0x61,0x6d,0x65,0x49,0x22,0x0a,0x49,0x74,0x65,0x6d,0x31,0x06,0x3a,0x06,0x45,0x54,0x3a,0x0b,0x40,0x70,0x69,0x74,0x63,0x68,0x69,0x69,0x3a,0x0c,0x40,0x76,0x6f,0x6c,0x75,0x6d,0x65,0x69,0x69))
  ChangeInventory_Item(46,0,0,1)
  0()
 EndIf()
 If(1,1043,0,21,0)
  ShowMessageFace("amira_fc1",0,0,2,13)
  ShowMessage("\\n<Amira>In celebration of finding me, I'll give you a present. Here, take this...")
  250(bytes(0x04,0x08,0x6f,0x3a,0x0c,0x52,0x50,0x47,0x3a,0x3a,0x53,0x45,0x08,0x3a,0x0a,0x40,0x6e,0x61,0x6d,0x65,0x49,0x22,0x0a,0x49,0x74,0x65,0x6d,0x31,0x06,0x3a,0x06,0x45,0x54,0x3a,0x0b,0x40,0x70,0x69,0x74,0x63,0x68,0x69,0x69,0x3a,0x0c,0x40,0x76,0x6f,0x6c,0x75,0x6d,0x65,0x69,0x69))
  ChangeInventory_Item(560,0,0,1)
  0()
 EndIf()
 If(1,1043,0,23,0)
  ShowMessageFace("amira_fc1",0,0,2,14)
  ShowMessage("\\n<Amira>In celebration of finding me, I'll give you a present. Here, take this...")
  250(bytes(0x04,0x08,0x6f,0x3a,0x0c,0x52,0x50,0x47,0x3a,0x3a,0x53,0x45,0x08,0x3a,0x0a,0x40,0x6e,0x61,0x6d,0x65,0x49,0x22,0x0a,0x49,0x74,0x65,0x6d,0x31,0x06,0x3a,0x06,0x45,0x54,0x3a,0x0b,0x40,0x70,0x69,0x74,0x63,0x68,0x69,0x69,0x3a,0x0c,0x40,0x76,0x6f,0x6c,0x75,0x6d,0x65,0x69,0x69))
  ChangeInventory_Item(38,0,0,1)
  0()
 EndIf()
 If(1,1043,0,25,0)
  ShowMessageFace("amira_fc1",0,0,2,15)
  ShowMessage("\\n<Amira>In celebration of finding me, I'll give you a present. Here, take this...")
  250(bytes(0x04,0x08,0x6f,0x3a,0x0c,0x52,0x50,0x47,0x3a,0x3a,0x53,0x45,0x08,0x3a,0x0a,0x40,0x6e,0x61,0x6d,0x65,0x49,0x22,0x0a,0x49,0x74,0x65,0x6d,0x31,0x06,0x3a,0x06,0x45,0x54,0x3a,0x0b,0x40,0x70,0x69,0x74,0x63,0x68,0x69,0x69,0x3a,0x0c,0x40,0x76,0x6f,0x6c,0x75,0x6d,0x65,0x69,0x69))
  ChangeInventory_Item(42,0,0,1)
  ChangeInventory_Item(46,0,0,1)
  ChangeInventory_Item(38,0,0,1)
  0()
 EndIf()
 0()
EndIf()
0()
