﻿// EVENT 4981 
Name "Mephisto 1"

PictureDisplay(5,"80_mefist_st01",0,0,0,0,100,100,0,0)
PictureMove(5,null,0,0,0,0,100,100,255,0,30,true)
ShowMessageFace("mefist_fc1",0,0,2,1)
ShowMessage("\\n<Mephisto>You say you want me to pleasure you?")
ShowMessageFace("",0,0,2,2)
ShowMessage("\\n<Luka>Ummm... Please...")
ShowMessageFace("mefist_fc1",0,0,2,3)
ShowMessage("\\n<Mephisto>Right then, you'll do just nicely.\nI'll have you come to the Magical Academy...")
ShowMessageFace("",0,0,2,4)
ShowMessage("Thus, I was invited to the Magical Academy...")
221()
PictureDisplay(1,"bg194",0,0,0,0,100,100,255,0)
PictureDisplay(5,"ev_mefist_ha01",0,0,0,0,100,100,255,0)
222()
241(bytes(0x04,0x08,0x6f,0x3a,0x0d,0x52,0x50,0x47,0x3a,0x3a,0x42,0x47,0x4d,0x08,0x3a,0x0a,0x40,0x6e,0x61,0x6d,0x65,0x49,0x22,0x09,0x65,0x72,0x6f,0x31,0x06,0x3a,0x06,0x45,0x54,0x3a,0x0c,0x40,0x76,0x6f,0x6c,0x75,0x6d,0x65,0x69,0x69,0x3a,0x0b,0x40,0x70,0x69,0x74,0x63,0x68,0x69,0x69))
ShowMessageFace("",0,0,2,5)
ShowMessage("\\n<Luka>Wh-what...!?")
ShowMessageFace("",0,0,2,6)
ShowMessage("As soon as I enter the classroom, I'm restrained to a desk. My clothes are forcibly removed and I'm left naked...")
ShowMessageFace("mefist_fc1",0,0,2,7)
ShowMessage("\\n<Mephisto>You'll be the lesson material for the semen squeezing class. Well then, pupils come in...")
PictureDisplay(5,"ev_mefist_ha02",0,0,0,0,100,100,255,0)
ShowMessageFace("",0,0,2,8)
ShowMessage("\\n<Fairy>Ahaha, it's rumored that today's lesson material is a small hero...♪")
ShowMessageFace("",0,0,2,9)
ShowMessage("\\n<Sahagin>Hey, look!\nHe's already fully erect!")
ShowMessageFace("",0,0,2,10)
ShowMessage("\\n<Alraune>Ufufu, how embarrassing...♪")
ShowMessageFace("",0,0,2,11)
ShowMessage("Several girls enter the classroom.\nThey watch me as I lay restrained to the desk.")
ShowMessageFace("",0,0,2,12)
ShowMessage("\\n<Luka>Th-this, what on earth...?")
ShowMessageFace("mefist_fc1",0,0,2,13)
ShowMessage("\\n<Mephisto>Didn't I tell you?\nYou'll be lesson material.")
ShowMessageFace("mefist_fc1",0,0,2,14)
ShowMessage("\\n<Mephisto>Well then my pupils... Make him ejaculate like I taught you. Who wants to go first...?")
ShowMessageFace("",0,0,2,15)
ShowMessage("\\n<Sahagin>I'll go first, Professor Mephisto!")
ShowMessageFace("",0,0,2,16)
ShowMessage("One of the pupils that looks like a half-fish hybrid steps forward. She walks up to me smiling as I lay there helplessly...")
ShowMessageFace("",0,0,2,17)
ShowMessage("\\n<Sahagin>Then, I'll rape him... Eeei!")
245(bytes(0x04,0x08,0x6f,0x3a,0x0d,0x52,0x50,0x47,0x3a,0x3a,0x42,0x47,0x53,0x08,0x3a,0x0a,0x40,0x6e,0x61,0x6d,0x65,0x49,0x22,0x1e,0x6d,0x6f,0x6e,0x5f,0x68,0x73,0x65,0x61,0x6e,0x30,0x33,0x5f,0x69,0x6e,0x6e,0x65,0x72,0x77,0x6f,0x72,0x6b,0x73,0x5f,0x61,0x33,0x06,0x3a,0x06,0x45,0x54,0x3a,0x0c,0x40,0x76,0x6f,0x6c,0x75,0x6d,0x65,0x69,0x55,0x3a,0x0b,0x40,0x70,0x69,0x74,0x63,0x68,0x69,0x69))
PictureDisplay(5,"ev_mefist_ha03",0,0,0,0,100,100,255,0)
ShowMessageFace("",0,0,2,18)
ShowMessage("Before I even realize it, she sticks my penis inside her honeypot! My manhood is buried inside her slick vagina...")
ShowMessageFace("",0,0,2,19)
ShowMessage("\\n<Sahagin>Ngh... It went in!")
ShowMessageFace("",0,0,2,20)
ShowMessage("\\n<Luka>Ah... Aaaaaaah...!!")
ShowMessageFace("",0,0,2,21)
ShowMessage("The inside of Sahagin's vagina is extremely slimy.\nHer insides reflect exactly how she is on the outside.")
ShowMessageFace("",0,0,2,22)
ShowMessage("I can feel her stickiness all over my dick...\nWithout even thinking, I push my waist up.")
ShowMessageFace("",0,0,2,23)
ShowMessage("\\n<Luka>Ah... Ugh...")
PictureDisplay(5,"ev_mefist_ha04",0,0,0,0,100,100,255,0)
ShowMessageFace("",0,0,2,24)
ShowMessage("\\n<Sahagin>Hey, I didn't even start moving...!\nAh, his penis feels good...♪")
ShowMessageFace("mefist_fc1",0,0,2,25)
ShowMessage("\\n<Mephisto>Don't let the pleasure overwhelm you.\nAttack him and dominate him with pleasure...")
ShowMessageFace("",0,0,2,26)
ShowMessage("\\n<Sahagin>Yes, teacher...!\nWell then...")
ShowMessageFace("",0,0,2,27)
ShowMessage("The Sahagin starts riding me wildly up and down!\nThe slimy inside of her vagina rubs all over my penis...")
ShowMessageFace("",0,0,2,28)
ShowMessage("\\n<Luka>Ah...! Aaaaaaah...!!")
ShowMessageFace("",0,0,2,29)
ShowMessage("\\n<Sahagin>Hora hora, how about this...!?\nDoesn't it feel amazingly good...?")
ShowMessageFace("",0,0,2,30)
ShowMessage("The Sahagin relentlessly assaults me with her crazed hip movements. I'm at the mercy of her waist as she rapes me.")
ShowMessageFace("",0,0,2,31)
ShowMessage("As she pistons me with her pussy, my penis is violently rubbed by her slimy insides. The pleasant sensations drive me into a corner in no time at all.")
ShowMessageFace("",0,0,2,32)
ShowMessage("\\n<Luka>Auuuu... Stop...!\nDon't move so much...!")
ShowMessageFace("mefist_fc1",0,0,2,33)
ShowMessage("\\n<Mephisto>Ufufu, that's good.\nMove your hips just like that, show no mercy...")
ShowMessageFace("",0,0,2,34)
ShowMessage("\\n<Sahagin>Eeei, eeeei...!\nAhaha, his penis is twitching inside...!")
ShowMessageFace("",0,0,2,35)
ShowMessage("\\n<Luka>Auu...! Aaaaah!!")
ShowMessageFace("",0,0,2,36)
ShowMessage("As her slimy pussy continues to stimulate me, all of a sudden all the power in my waist vanishes. I entrust myself to the sweet feeling of release that washes over me...")
RunCommonEvent(104)
PictureDisplay(5,"ev_mefist_ha05",0,0,0,0,100,100,255,0)
RunCommonEvent(105)
ShowMessageFace("",0,0,2,37)
ShowMessage("And, I pathetically ejaculate.\nMy semen shoots out in the sahagin's vagina...")
ShowMessageFace("",0,0,2,38)
ShowMessage("\\n<Luka>Aaaaah...")
ShowMessageFace("",0,0,2,39)
ShowMessage("\\n<Sahagin>Eh...!? It already came out?")
ShowMessageFace("mefist_fc1",0,0,2,40)
ShowMessage("\\n<Mephisto>He let it out so fast because it felt good.\nYou have to make him last a bit longer...")
PictureDisplay(5,"ev_mefist_ha06",0,0,0,0,100,100,255,0)
ShowMessageFace("",0,0,2,41)
ShowMessage("\\n<Sahagin>Understood, Professor Mephisto!\nBut his semen tastes good...♪")
ShowMessageFace("mefist_fc1",0,0,2,42)
ShowMessage("\\n<Mephisto>Of course it does, he's an excellent young hero.\nThis is your only chance to taste him to your heart's content....")
ShowMessageFace("",0,0,2,43)
ShowMessage("\\n<Sahagin>Understood! ♪")
ShowMessageFace("",0,0,2,44)
ShowMessage("\\n<Luka>Ah... Auuuuu...")
ShowMessageFace("",0,0,2,45)
ShowMessage("Her slimy insides hungrily milk my penis to the last drop. She manages to wring out even what was left inside my urethra.")
246(2)
ShowMessageFace("",0,0,2,46)
ShowMessage("\\n<Sahagin>Okay, I'm done! ♪")
PictureDisplay(5,"ev_mefist_ha07",0,0,0,0,100,100,255,0)
ShowMessageFace("",0,0,2,47)
ShowMessage("The Sahagin lifts herself up and gets off me...\nMoments later, the young alraune approaches me.")
ShowMessageFace("",0,0,2,48)
ShowMessage("\\n<Alraune>Well then, I'll squeeze him next...")
ShowMessageFace("mefist_fc1",0,0,2,49)
ShowMessage("\\n<Mephisto>Don't forget what I've taught you...\nGive the man plenty of pleasure.")
ShowMessageFace("",0,0,2,50)
ShowMessage("\\n<Alraune>Yes, Teacher...")
PictureDisplay(5,"ev_mefist_ha08",0,0,0,0,100,100,255,0)
ShowMessageFace("",0,0,2,51)
ShowMessage("One of the alraune's flowers slithers towards my penis with its mouth open. The flower looks exactly like the insides of a woman...")
ShowMessageFace("",0,0,2,52)
ShowMessage("\\n<Luka>Hyaaaa...!")
ShowMessageFace("",0,0,2,53)
ShowMessage("\\n<Alraune>I'm going to make you feel really good with this flower. Please let out a lot...♪")
ShowMessageFace("",0,0,2,54)
ShowMessage("\\n<Luka>Ah, aaaaah...!")
ShowMessageFace("",0,0,2,55)
ShowMessage("The flower approaches my penis...")
245(bytes(0x04,0x08,0x6f,0x3a,0x0d,0x52,0x50,0x47,0x3a,0x3a,0x42,0x47,0x53,0x08,0x3a,0x0a,0x40,0x6e,0x61,0x6d,0x65,0x49,0x22,0x17,0x6d,0x6f,0x6e,0x5f,0x68,0x73,0x65,0x61,0x6e,0x31,0x35,0x5f,0x6b,0x79,0x75,0x69,0x6e,0x32,0x06,0x3a,0x06,0x45,0x54,0x3a,0x0c,0x40,0x76,0x6f,0x6c,0x75,0x6d,0x65,0x69,0x55,0x3a,0x0b,0x40,0x70,0x69,0x74,0x63,0x68,0x69,0x69))
PictureDisplay(5,"ev_mefist_ha09",0,0,0,0,100,100,255,0)
ShowMessageFace("",0,0,2,56)
ShowMessage("Just like that, it swallows my manhood to the root!")
ShowMessageFace("",0,0,2,57)
ShowMessage("\\n<Luka>Ah...! Aaaaah...!!")
ShowMessageFace("",0,0,2,58)
ShowMessage("Countless soft bumps inside the flower rub against my glans. Each one of them licks my penis as if wanting to tickle it...")
ShowMessageFace("",0,0,2,59)
ShowMessage("\\n<Alraune>I'm going to suck it just like this...\nLicking it gently as I suck on it...")
ShowMessageFace("mefist_fc1",0,0,2,60)
ShowMessage("\\n<Mephisto>Yes... Use it as if it were your own mouth...\nAnd give the man the highest of pleasures...")
ShowMessageFace("",0,0,2,61)
ShowMessage("\\n<Alraune>Nnnn... *Shlurp* *Suck*\nHow is it? Does it feel good?")
ShowMessageFace("",0,0,2,62)
ShowMessage("\\n<Luka>Hauuuu... Ah, aaaaah...!!")
ShowMessageFace("",0,0,2,63)
ShowMessage("The soft bumps squeeze my penis, creating a sucking sensation. The pleasure is strong enough to make me feel as if my waist is melting...")
ShowMessageFace("",0,0,2,64)
ShowMessage("\\n<Alraune>Ufufu, you seem to be enjoying it...\nWell then, I'll continue.")
ShowMessageFace("",0,0,2,65)
ShowMessage("\\n<Luka>Fuaaaaah... I'm going to come...")
ShowMessageFace("",0,0,2,66)
ShowMessage("As her fleshy flower keeps sucking on my penis, my breath becomes ragged and my waist starts trembling. Seeing me in such a pathetic state, the girls start giggling.")
ShowMessageFace("",0,0,2,67)
ShowMessage("\\n<Alraune>Arara, how shameful...\nIf you don't try to endure it, you'll come in no time.")
ShowMessageFace("",0,0,2,68)
ShowMessage("\\n<Luka>Ah...! Aaaah...!!")
ShowMessageFace("",0,0,2,69)
ShowMessage("The flower's movement gets more intense and the tiny bumps keep licking all around my glans. At the same time the petals contract, gently squeezing my entire penis.")
ShowMessageFace("",0,0,2,70)
ShowMessage("All of a sudden, I can't hold back the feeling of ejaculating any longer. The inside of my head goes white as I let the melting pleasure wash over me...")
RunCommonEvent(104)
PictureDisplay(5,"ev_mefist_ha10",0,0,0,0,100,100,255,0)
RunCommonEvent(105)
246(2)
ShowMessageFace("",0,0,2,71)
ShowMessage("And I reach a pathetic orgasm.\nA steady stream of semen flows inside the flower...")
ShowMessageFace("",0,0,2,72)
ShowMessage("\\n<Alraune>Yes, he's finished.\nI sucked him properly, teacher...")
ShowMessageFace("mefist_fc1",0,0,2,73)
ShowMessage("\\n<Mephisto>Ufufu, you did a great job.\nWell then, next is...")
ShowMessageFace("",0,0,2,74)
ShowMessage("\\n<Fairy>Yes, it's my turn! ♪")
PictureDisplay(5,"ev_mefist_ha11",0,0,0,0,100,100,255,0)
ShowMessageFace("",0,0,2,75)
ShowMessage("The alraune gets off me and the fairy takes her place.\nShe then rubs her nether region tightly against my still-erect penis.")
ShowMessageFace("",0,0,2,76)
ShowMessage("\\n<Fairy>Ufufu, I'll put him inside...\nMy pussy is so small ♪")
ShowMessageFace("",0,0,2,77)
ShowMessage("The fairy stretches out her feet and lightly plays with my testicles. At the same time, she rubs my glans with the small palm...")
ShowMessageFace("",0,0,2,78)
ShowMessage("\\n<Luka>Auu...! Coming...!!")
RunCommonEvent(104)
PictureDisplay(5,"ev_mefist_ha12",0,0,0,0,100,100,255,0)
RunCommonEvent(105)
ShowMessageFace("",0,0,2,79)
ShowMessage("All too quickly, my semen shoots out.\nJust being slightly stimulated made me violently come...")
PictureDisplay(5,"ev_mefist_ha13",0,0,0,0,100,100,255,0)
ShowMessageFace("",0,0,2,80)
ShowMessage("\\n<Fairy>Waah... He already let it out...?")
ShowMessageFace("mefist_fc1",0,0,2,81)
ShowMessage("\\n<Mephisto>Due to his consecutive ejaculations, it appears his tap has stopped working. Something like this happens when you wring a penis too much.")
ShowMessageFace("",0,0,2,82)
ShowMessage("\\n<Fairy>Ahaha, I didn't even put it in and he already came. Then I'll start raping him. ♪")
ShowMessageFace("",0,0,2,83)
ShowMessage("The Fairy flashes me a sadistic smile...\nIn one swift move, she lowers her waist!")
245(bytes(0x04,0x08,0x6f,0x3a,0x0d,0x52,0x50,0x47,0x3a,0x3a,0x42,0x47,0x53,0x08,0x3a,0x0a,0x40,0x6e,0x61,0x6d,0x65,0x49,0x22,0x1e,0x6d,0x6f,0x6e,0x5f,0x68,0x73,0x65,0x61,0x6e,0x30,0x32,0x5f,0x69,0x6e,0x6e,0x65,0x72,0x77,0x6f,0x72,0x6b,0x73,0x5f,0x61,0x32,0x06,0x3a,0x06,0x45,0x54,0x3a,0x0c,0x40,0x76,0x6f,0x6c,0x75,0x6d,0x65,0x69,0x55,0x3a,0x0b,0x40,0x70,0x69,0x74,0x63,0x68,0x69,0x69))
PictureDisplay(5,"ev_mefist_ha14",0,0,0,0,100,100,255,0)
ShowMessageFace("",0,0,2,84)
ShowMessage("She slips my manhood inside her tight honeypot.\nHer soft inside rubs against my penis and squeezes it insanely tight.")
ShowMessageFace("",0,0,2,85)
ShowMessage("\\n<Luka>Ah... Ugh...!!")
ShowMessageFace("",0,0,2,86)
ShowMessage("The Fairy's vagina is far too narrow and tight.\nThe hot, soft tightness brings with it agonizing pleasure.")
ShowMessageFace("",0,0,2,87)
ShowMessage("\\n<Fairy>I'll finish off your penis inside me! ♪\nI'll squeeze it! Ugh!")
ShowMessageFace("",0,0,2,88)
ShowMessage("\\n<Luka>Ah...! Hyaaaaaa...!!")
ShowMessageFace("",0,0,2,89)
ShowMessage("Her soft flesh narrows and squeezes my penis, almost crushing it. Intense pleasure courses through me as her vagina squeezes.")
ShowMessageFace("mefist_fc1",0,0,2,90)
ShowMessage("\\n<Mephisto>What a strong grip...\nYou have to loosen a bit.")
ShowMessageFace("",0,0,2,91)
ShowMessage("\\n<Fairy>But, it's fun to see a man in agony like this...\nHoora, hoora! ♪")
ShowMessageFace("",0,0,2,92)
ShowMessage("\\n<Luka>Hyaaaaa...!!")
ShowMessageFace("",0,0,2,93)
ShowMessage("My body spasms from the tightness...\nI surrender myself to the feeling of release rising inside me...")
RunCommonEvent(104)
PictureDisplay(5,"ev_mefist_ha15",0,0,0,0,100,100,255,0)
RunCommonEvent(105)
ShowMessageFace("",0,0,2,94)
ShowMessage("And, my semen erupts inside the fairy's vagina.\nI'm squeezed mercilessly and forced to ejaculate...")
ShowMessageFace("",0,0,2,95)
ShowMessage("\\n<Fairy>Ahaha, he came! ♪\nHe came so much inside me! ♪")
ShowMessageFace("",0,0,2,96)
ShowMessage("While tightening her vagina, the fairy laughs.\nMy penis is squeezed and wrung till the last drop of my ejaculation...")
ShowMessageFace("",0,0,2,97)
ShowMessage("\\n<Luka>Ah... Ugh...")
ShowMessageFace("",0,0,2,98)
ShowMessage("\\n<Fairy>Ufufu, thank you for the meal. ♪")
ShowMessageFace("",0,0,2,99)
ShowMessage("And so the fairy gets off me.\nWith all my semen and energy drained, I can't even lift a finger anymore...")
246(2)
PictureDisplay(5,"ev_mefist_ha16",0,0,0,0,100,100,255,0)
ShowMessageFace("",0,0,2,100)
ShowMessage("\\n<Sahagin>Haha, he's totally exhausted.")
ShowMessageFace("",0,0,2,101)
ShowMessage("\\n<Alraune>Arara, what a shameful display...")
ShowMessageFace("",0,0,2,102)
ShowMessage("\\n<Fairy>Embarrassing♪ Ahaha♪")
ShowMessageFace("",0,0,2,103)
ShowMessage("\\n<Luka>ah... aah...")
ShowMessageFace("",0,0,2,104)
ShowMessage("I'm completely and totally humiliated.\nThe girls continue to ridicule me, laughing at my pathetic state...")
221()
PictureClear(5)
PictureClear(6)
ShowMessageFace("",0,0,2,105)
ShowMessage("......")
RunCommonEvent(3998)
0()
