// EVENT 5541
Name "Jakotsu-Onna"

PictureDisplay(5,"80_zyakotuonna_st02",0,0,0,0,100,100,0,0)
PictureMove(5,null,0,0,0,0,100,100,255,0,30,true)
ShowMessageFace("zyakotuonna_fc1",0,0,2,1)
ShowMessage("\\n<Jakotsu>")
ShowMessage("You wish to have fun with me...?")
ShowMessageFace("",0,0,2,2)
ShowMessage("\\n<Luka>")
ShowMessage("P-please...")
ShowMessageFace("zyakotuonna_fc1",1,0,2,3)
ShowMessage("\\n<Jakotsu>")
ShowMessage("Kuku, as you wish...")
ShowMessage("Well then, I'll rape you.")
ShowMessageFace("",0,0,2,4)
ShowMessage("Jakotsu's snakes wind around me.")
ShowMessage("In an instant, the snakes wrap around me and seal my movement.")
ShowMessageFace("",0,0,2,5)
ShowMessage("\\n<Luka>")
ShowMessage("Ugh...")
ShowMessageFace("zyakotuonna_fc1",1,0,2,6)
ShowMessage("\\n<Jakotsu>")
ShowMessage("It's useless to struggle, you can't escape.")
ShowMessage("Now, let's enjoy ourselves...")
ShowMessageFace("",0,0,2,7)
ShowMessage("Jakotsu straddles my restrained body...")
241(bytes(0x04,0x08,0x6f,0x3a,0x0d,0x52,0x50,0x47,0x3a,0x3a,0x42,0x47,0x4d,0x08,0x3a,0x0a,0x40,0x6e,0x61,0x6d,0x65,0x49,0x22,0x09,0x65,0x72,0x6f,0x31,0x06,0x3a,0x06,0x45,0x54,0x3a,0x0c,0x40,0x76,0x6f,0x6c,0x75,0x6d,0x65,0x69,0x69,0x3a,0x0b,0x40,0x70,0x69,0x74,0x63,0x68,0x69,0x69))
245(bytes(0x04,0x08,0x6f,0x3a,0x0d,0x52,0x50,0x47,0x3a,0x3a,0x42,0x47,0x53,0x08,0x3a,0x0a,0x40,0x6e,0x61,0x6d,0x65,0x49,0x22,0x1e,0x6d,0x6f,0x6e,0x5f,0x68,0x73,0x65,0x61,0x6e,0x30,0x34,0x5f,0x69,0x6e,0x6e,0x65,0x72,0x77,0x6f,0x72,0x6b,0x73,0x5f,0x61,0x34,0x06,0x3a,0x06,0x45,0x54,0x3a,0x0c,0x40,0x76,0x6f,0x6c,0x75,0x6d,0x65,0x69,0x55,0x3a,0x0b,0x40,0x70,0x69,0x74,0x63,0x68,0x69,0x69))
PictureDisplay(5,"ev_zyakotuonna_h1",0,0,0,0,100,100,0,0)
PictureMove(5,null,0,0,0,0,100,100,255,0,30,true)
ShowMessageFace("",0,0,2,8)
ShowMessage("She drops her waist and my penis is swallowed by her meat pot!")
ShowMessage("Jakotsu starts slowly raping me...")
ShowMessageFace("",0,0,2,9)
ShowMessage("\\n<Luka>")
ShowMessage("Ah...Aaaaaah!")
ShowMessageFace("zyakotuonna_fc1",1,0,2,10)
ShowMessage("\\n<Jakotsu>")
ShowMessage("Kuku... Does my pussy feel tight...?")
PictureDisplay(5,"ev_zyakotuonna_h2",0,0,0,0,100,100,255,0)
ShowMessageFace("",0,0,2,11)
ShowMessage("Her hot and soft meat gently grips me.")
ShowMessage("I'm tightly pressed from all sides and squeezed.")
ShowMessageFace("",0,0,2,12)
ShowMessage("The movement of her tight, soft walls crushes my penis...")
ShowMessage("It feels as if my meat rod was squeezed by a snake.")
ShowMessageFace("",0,0,2,13)
ShowMessage("\\n<Luka>")
ShowMessage("Wa...Auuuu!!")
ShowMessageFace("zyakotuonna_fc1",1,0,2,14)
ShowMessage("\\n<Jakotsu>")
ShowMessage("Kuku... I'll tighten and play with you.")
ShowMessage("Now, give your semen to my meat pot...")
ShowMessageFace("",0,0,2,15)
ShowMessage("She tightens around my penis, subjecting me to agonizing pleasure.")
ShowMessage("After that she loosens up going between two motions back and forth.")
ShowMessageFace("",0,0,2,16)
ShowMessage("\\n<Luka>")
ShowMessage("Ugh...!")
ShowMessageFace("",0,0,2,17)
ShowMessage("This one-sided rape drives me into a corner in no time.")
ShowMessage("I put force into my waist trying not to come in her vagina...")
ShowMessageFace("zyakotuonna_fc1",1,0,2,18)
ShowMessage("\\n<Jakotsu>")
ShowMessage("Even if you try to endure, it's useless...")
ShowMessage("My meat pot will tighten and play with you.")
ShowMessageFace("",0,0,2,19)
ShowMessage("\\n<Luka>")
ShowMessage("Aaah, inside...Auuu...!")
ShowMessageFace("zyakotuonna_fc1",1,0,2,20)
ShowMessage("\\n<Jakotsu>")
ShowMessage("If you let yourself come like this, it will feel so good...")
ShowMessage("Now, surrender to the pleasure.")
ShowMessageFace("",0,0,2,21)
ShowMessage("Her soft walls squeeze my penis while undulating.")
ShowMessage("I can't endure any more of this pleasure...")
ShowMessageFace("",0,0,2,22)
ShowMessage("\\n<Luka>")
ShowMessage("Th-that feels good...")
ShowMessage("This...Already, coming...")
ShowMessageFace("zyakotuonna_fc1",1,0,2,23)
ShowMessage("\\n<Jakotsu>")
ShowMessage("Hoora, come...")
ShowMessageFace("",0,0,2,24)
ShowMessage("Jakotsu's meat pot squeezes me tight.")
ShowMessage("While tasting the tightness, I give myself over to the pleasure...")
ShowMessageFace("",0,0,2,25)
ShowMessage("\\n<Luka>")
ShowMessage("Ah, Aaaaah...!!")
RunCommonEvent(104)
PictureDisplay(5,"ev_zyakotuonna_h3",0,0,0,0,100,100,255,0)
RunCommonEvent(105)
ShowMessageFace("",0,0,2,26)
ShowMessage("My semen starts shooting inside Jakotsu's vagina.")
ShowMessage("She squeezes and tightens around me as I ejaculate...")
ShowMessageFace("",0,0,2,27)
ShowMessage("\\n<Luka>")
ShowMessage("Auuuuu...")
ShowMessageFace("zyakotuonna_fc1",1,0,2,28)
ShowMessage("\\n<Jakotsu>")
ShowMessage("Kuku, you shot it out...")
ShowMessage("But you can't possibly be done after coming just once.")
ShowMessageFace("",0,0,2,29)
ShowMessage("\\n<Luka>")
ShowMessage("Au...Aaaah...!!")
ShowMessageFace("",0,0,2,30)
ShowMessage("More tightening attacks my penis right after I'm done ejaculating.")
ShowMessage("Her flesh narrows and undulates, rubbing and squeezing my penis.")
ShowMessageFace("",0,0,2,31)
ShowMessage("It feels as if she has a snake inside her vagina coiling around my penis.")
ShowMessage("I writhe in agony as the strong, merciless sense of oppression from her meat walls squeeze my penis.")
ShowMessageFace("",0,0,2,32)
ShowMessage("\\n<Luka>")
ShowMessage("T-tight...Aaau!!")
ShowMessageFace("zyakotuonna_fc1",1,0,2,33)
ShowMessage("\\n<Jakotsu>")
ShowMessage("Kuku, writhe in agony...")
ShowMessage("And, sprinkle your seed inside me over and over.")
ShowMessageFace("",0,0,2,34)
ShowMessage("\\n<Luka>")
ShowMessage("Hya...Ah, Aaaaah...!!")
ShowMessageFace("",0,0,2,35)
ShowMessage("Her vagina squeezes my meat rod tightly and wriggles.")
ShowMessage("Due to the intense stimulation, my hips thrust up.")
ShowMessageFace("",0,0,2,36)
ShowMessage("\\n<Luka>")
ShowMessage("C-coming...Ah, Aaaaah...!!")
ShowMessageFace("",0,0,2,37)
ShowMessage("My waist starts trembling...")
ShowMessage("My waist goes numb and I give myself over to the sweet feeling of release...")
RunCommonEvent(104)
PictureDisplay(5,"ev_zyakotuonna_h4",0,0,0,0,100,100,255,0)
RunCommonEvent(105)
ShowMessageFace("",0,0,2,38)
ShowMessage("And my semen streams out.")
ShowMessage("For the second time, I sprinkle my seed inside her vagina...")
ShowMessageFace("",0,0,2,39)
ShowMessage("\\n<Luka>")
ShowMessage("Ah...Ugh...")
ShowMessageFace("zyakotuonna_fc1",1,0,2,40)
ShowMessage("\\n<Jakotsu>")
ShowMessage("Kuku... I'll squeeze out even more from you.")
ShowMessage("Soora, does it feel good?")
ShowMessageFace("",0,0,2,41)
ShowMessage("\\n<Luka>")
ShowMessage("Hya...! Ah, aaaaaah!!")
ShowMessageFace("",0,0,2,42)
ShowMessage("He meat walls contract and squeeze my penis.")
ShowMessage("The forced agonizing pleasure sends me over the edge again...")
RunCommonEvent(104)
PictureDisplay(5,"ev_zyakotuonna_h5",0,0,0,0,100,100,255,0)
RunCommonEvent(105)
246(2)
ShowMessageFace("",0,0,2,43)
ShowMessage("And without any warning at all, my semen shoots out again.")
ShowMessage("The continuous forced climaxes leave me weak in her snakes' coils.")
ShowMessageFace("",0,0,2,44)
ShowMessage("\\n<Luka>")
ShowMessage("Au...Ugh...")
ShowMessageFace("",0,0,2,45)
ShowMessage("My body relaxes completely and all my resistance vanishes.")
ShowMessage("My consciousness is blurry and I feel that I'm losing control over both my body and mind.")
ShowMessageFace("zyakotuonna_fc1",1,0,2,46)
ShowMessage("\\n<Jakotsu>")
ShowMessage("Kuku, you're now my sex slave.")
ShowMessage("I'll play with you and squeeze out your semen for the rest of your life...")
ShowMessageFace("",0,0,2,47)
ShowMessage("\\n<Luka>")
ShowMessage("........")
ShowMessageFace("",0,0,2,48)
ShowMessage("While listening to Jakotsu's words...")
ShowMessage("In her snake's coils, I lose consciousness.")
221()
PictureClear(5)
PictureClear(6)
ShowMessageFace("",0,0,2,49)
ShowMessage("......")
RunCommonEvent(3998)
0()
