﻿// EVENT 4593
Name "Suck Vore 3"

If(0,25,1)
 221()
 PictureClear(5)
 PictureClear(6)
 ShowMessageFace("",0,0,2,1)
 ShowMessage("......")
 242(2)
 Wait(120)
 241(bytes(0x04,0x08,0x6f,0x3a,0x0d,0x52,0x50,0x47,0x3a,0x3a,0x42,0x47,0x4d,0x08,0x3a,0x0a,0x40,0x6e,0x61,0x6d,0x65,0x49,0x22,0x0c,0x63,0x61,0x73,0x74,0x6c,0x65,0x36,0x06,0x3a,0x06,0x45,0x54,0x3a,0x0c,0x40,0x76,0x6f,0x6c,0x75,0x6d,0x65,0x69,0x69,0x3a,0x0b,0x40,0x70,0x69,0x74,0x63,0x68,0x69,0x69))
 EndEventProcessing()
 0()
EndIf()
PictureDisplay(5,"80_suckvore_st01",0,0,0,0,100,100,255,0)
ShowMessageFace("suckvore_fc1",2,0,2,2)
ShowMessage("\\n<Anna>..........")
ShowMessageFace("",0,0,2,3)
ShowMessage("\\n<Luka>..........")
ShowMessageFace("",0,0,2,4)
ShowMessage("Did she understand or not?\nDespite my doubtful expectations, in the next moment...")
ShowMessageFace("suckvore_fc1",2,0,2,5)
ShowMessage("\\n<Anna>Because of my appearance...\nYou request lewd things...")
ShowMessageFace("",0,0,2,6)
ShowMessage("\\n<Luka>Eh...? Uwaaaa...!!")
241(bytes(0x04,0x08,0x6f,0x3a,0x0d,0x52,0x50,0x47,0x3a,0x3a,0x42,0x47,0x4d,0x08,0x3a,0x0a,0x40,0x6e,0x61,0x6d,0x65,0x49,0x22,0x09,0x65,0x72,0x6f,0x31,0x06,0x3a,0x06,0x45,0x54,0x3a,0x0c,0x40,0x76,0x6f,0x6c,0x75,0x6d,0x65,0x69,0x69,0x3a,0x0b,0x40,0x70,0x69,0x74,0x63,0x68,0x69,0x69))
245(bytes(0x04,0x08,0x6f,0x3a,0x0d,0x52,0x50,0x47,0x3a,0x3a,0x42,0x47,0x53,0x08,0x3a,0x0a,0x40,0x6e,0x61,0x6d,0x65,0x49,0x22,0x1a,0x6d,0x6f,0x6e,0x5f,0x68,0x73,0x65,0x61,0x6e,0x32,0x31,0x5f,0x74,0x65,0x6e,0x74,0x61,0x63,0x6c,0x65,0x32,0x06,0x3a,0x06,0x45,0x54,0x3a,0x0c,0x40,0x76,0x6f,0x6c,0x75,0x6d,0x65,0x69,0x55,0x3a,0x0b,0x40,0x70,0x69,0x74,0x63,0x68,0x69,0x69))
PictureDisplay(5,"ev_suckvore_hb1",0,0,0,0,100,100,255,0)
ShowMessageFace("",0,0,2,7)
ShowMessage("Due to my surprise, I don't even notice when my body is entangled and pulled down on the floor. And Anna has my penis in her tentacles.")
ShowMessageFace("",0,0,2,8)
ShowMessage("\\n<Luka>Hauuuu...!")
ShowMessageFace("",0,0,2,9)
ShowMessage("My waist jumps as she squeezes my penis with her soft tentacles.\nHer tentacles wind and crawl all over my penis.")
ShowMessageFace("suckvore_fc1",2,0,2,10)
ShowMessage("\\n<Anna>This is what you wanted to do, right?\nYou wanted your penis to feel my slimy tentacles...")
PictureDisplay(5,"ev_suckvore_hb2",0,0,0,0,100,100,255,0)
ShowMessageFace("",0,0,2,11)
ShowMessage("\\n<Luka>Hya...auuuu!!")
ShowMessageFace("",0,0,2,12)
ShowMessage("Her tentacles wind up my penis and completely covers it.\nFrom the root to the tip, my penis is covered in an undulating feeling.")
ShowMessageFace("",0,0,2,13)
ShowMessage("Just like that, her slimy tentacles crawl all over...\nMy penis is played with in the whirlpool of her tentacles.")
ShowMessageFace("suckvore_fc1",2,0,2,14)
ShowMessage("\\n<Anna>Ahaha, does it feel good?\nYou like the way your penis is bullied by my tentacles...?")
ShowMessageFace("",0,0,2,15)
ShowMessage("\\n<Luka>Auu... Ah, aaaaah...!!")
ShowMessageFace("",0,0,2,16)
ShowMessage("Her tentacles swell and creep all over the surface of my penis. She mindlessly rubs and strokes my penis without rest...")
ShowMessageFace("",0,0,2,17)
ShowMessage("\\n<Luka>This is...S-stop it...!")
ShowMessageFace("",0,0,2,18)
ShowMessage("I feel overwhelming pleasure and my waist starts trembling. All of a sudden, all my strength leaves my body and a sweet feeling of release takes over...")
RunCommonEvent(104)
PictureDisplay(5,"ev_suckvore_hb3",0,0,0,0,100,100,255,0)
RunCommonEvent(105)
ShowMessageFace("",0,0,2,19)
ShowMessage("\\n<Luka>Ah... Aaaah...")
ShowMessageFace("",0,0,2,20)
ShowMessage("My penis shoots out my semen as it's being played with by her tentacles. A steady stream of semen shoots inside the cylinder formed by her slimy tentacles.")
ShowMessageFace("suckvore_fc1",2,0,2,21)
ShowMessage("\\n<Anna>Ahaha, you came already?\nYour penis just couldn't bear the bullying of my tentacles...")
ShowMessageFace("",0,0,2,22)
ShowMessage("While giggling, Anna keeps moving her tentacles.\nEven after I'm done shooting my semen she doesn't stop moving her tentacles.")
ShowMessageFace("",0,0,2,23)
ShowMessage("Her tentacles expertly crawl all over my glans and back muscle... She rubs all my weak points.")
ShowMessageFace("",0,0,2,24)
ShowMessage("\\n<Luka>Auuuu... Stop it...")
ShowMessageFace("",0,0,2,25)
ShowMessage("She squeezes my penis tight, sensitive after my ejaculation.\nI shudder and pant from the pleasure forced into my waist.")
ShowMessageFace("suckvore_fc1",2,0,2,26)
ShowMessage("\\n<Anna>Nuh-uh...\nI'll play with your penis more...")
ShowMessageFace("suckvore_fc1",2,0,2,27)
ShowMessage("\\n<Anna>Your semen's very tasty...\nI'm going to make you let out a lot...")
ShowMessageFace("",0,0,2,28)
ShowMessage("\\n<Luka>Auuu... Aaaaah...!")
ShowMessageFace("",0,0,2,29)
ShowMessage("Her tentacle gets wetter and rubs against my glans and shaft. She tightens around the neck of my penis as well, making my waist shake wildly.")
ShowMessageFace("",0,0,2,30)
ShowMessage("Anna continues to stimulate me with her tentacles while giggling, and forcibly pushes me near my limit again.")
ShowMessageFace("suckvore_fc1",2,0,2,31)
ShowMessage("\\n<Anna>Ufufu, come again...\nShoot out your semen...")
ShowMessageFace("",0,0,2,32)
ShowMessage("\\n<Luka>Th-that feels so good...Aaaah...")
ShowMessageFace("",0,0,2,33)
ShowMessage("Driven into a corner, my hips start shaking.\nWithout even noticing it, the power fades from my waist and the sweet feeling of release takes over...")
RunCommonEvent(104)
PictureDisplay(5,"ev_suckvore_hb4",0,0,0,0,100,100,255,0)
RunCommonEvent(105)
ShowMessageFace("",0,0,2,34)
ShowMessage("And again, I offer my semen to Anna's tentacles.\nMy cloudiness is absorbed by the surface of her tentacles...")
ShowMessageFace("suckvore_fc1",2,0,2,35)
ShowMessage("\\n<Anna>Semen, tasty...♪\nYour semen is very, veeeery tasty.")
ShowMessageFace("suckvore_fc1",2,0,2,36)
ShowMessage("\\n<Anna>But, how do men feel about it?\nHaving their precious semen used as nothing but food...")
ShowMessageFace("",0,0,2,37)
ShowMessage("\\n<Luka>Auuu...")
ShowMessageFace("suckvore_fc1",2,0,2,38)
ShowMessage("\\n<Anna>Hey, answer me...♪")
ShowMessageFace("",0,0,2,39)
ShowMessage("\\n<Luka>Ah, aaaaaaah...!!")
ShowMessageFace("",0,0,2,40)
ShowMessage("Anaa's tentacles relentlessly wind around my penis.\nShe rubs and squeezes it between her tentacles as if she was washing it...")
ShowMessageFace("",0,0,2,41)
ShowMessage("Squeeze squeeze, she tightens around it...\nAnd her tentacles rub hard over the surface of my sensitive glans...")
ShowMessageFace("",0,0,2,42)
ShowMessage("\\n<Luka>Stop...I'll come again...")
ShowMessageFace("suckvore_fc1",2,0,2,43)
ShowMessage("\\n<Anna>About to leak again?\nI'll mess it up with my tentacles so it comes out....")
ShowMessageFace("",0,0,2,44)
ShowMessage("\\n<Luka>Auuuu....!")
ShowMessageFace("",0,0,2,45)
ShowMessage("Unable to take the pleasure, my vision goes pure white. Immersed in ecstasy, I give myself over to the sweet pleasure...")
RunCommonEvent(104)
PictureDisplay(5,"ev_suckvore_hb5",0,0,0,0,100,100,255,0)
RunCommonEvent(105)
ShowMessageFace("",0,0,2,46)
ShowMessage("Once again, my semen shoots out.\nMy white cloudiness is immediately absorbed and turned into food for Anna...")
246(2)
ShowMessageFace("",0,0,2,47)
ShowMessage("\\n<Luka>Auu...aaaaah...")
ShowMessageFace("suckvore_fc1",2,0,2,48)
ShowMessage("\\n<Anna>Ahaha, I sucked it up.\nMy tentacles feel very good don't they?")
ShowMessageFace("suckvore_fc1",2,0,2,49)
ShowMessage("\\n<Anna>Build up some more sperm and come see me again.\nI'll use my tentacles to play with you a lot...")
ShowMessageFace("",0,0,2,50)
ShowMessage("\\n<Luka>............")
ShowMessageFace("",0,0,2,51)
ShowMessage("After having all my semen sucked out, I have no more words. The weight of my misery mixed with my weakness feels crushing...")
221()
PictureClear(5)
ShowMessageFace("",0,0,2,52)
ShowMessage("・・・・・・・・")
RunCommonEvent(3998)
0()
