﻿// EVENT 0628
Name "Event: Nanabi"

ChangeSwitch(73,73,0)
If(1,129,0,0,0)
 ShowMessageFace("nanabi_fc1",0,0,2,1)
 ShowMessage("\\n<Nanabi>Allow me teach you a ninjutsu.\nHowever, you can only use it if you can use [Ninjutsu].")
 DefineLabel("選択")
 ShowChoices(strings("Advanced Course","Master Course","No thanks"),3)
 IfPlayerPicksChoice(0,null)
  ShowMessageFace("",0,0,2,2)
  ShowMessage("Who will undergo the Advanced Course?")
  355("names = party_members.collect{|m|m.name}")
  655("unlimited_choices(11, names)")
  655("actor = party_members[$game_variables[11]]")
  655("$game_variables[10] = actor ? actor.id : 0")
  If(1,10,0,0,0)
   ChangeSwitch(73,73,1)
   EndEventProcessing()
   0()
  EndIf()
  ShowMessageFace("",0,0,2,3)
  ShowMessage("Which Ninjutsu will you learn?")
  ShowChoices(strings("Secret Art:Inferno Dance","Secret Art:Torrential Stream","Secret Art:White Lightning"),0)
  IfPlayerPicksChoice(0,"忍奥義・火遁焔舞")
   If(12,"actor_skill_have?(v(10),1787)")
    ShowMessageFace("",0,0,2,4)
    ShowMessage("That character already knows Secret Art:Inferno Dance...")
    JumpToLabel("選択")
    0()
   EndIf()
   ChangeVariable(129,129,0,0,1)
   318(1,10,0,1787)
   250(bytes(0x04,0x08,0x6f,0x3a,0x0c,0x52,0x50,0x47,0x3a,0x3a,0x53,0x45,0x08,0x3a,0x0a,0x40,0x6e,0x61,0x6d,0x65,0x49,0x22,0x0a,0x49,0x74,0x65,0x6d,0x31,0x06,0x3a,0x06,0x45,0x54,0x3a,0x0b,0x40,0x70,0x69,0x74,0x63,0x68,0x69,0x69,0x3a,0x0c,0x40,0x76,0x6f,0x6c,0x75,0x6d,0x65,0x69,0x55))
   ShowMessageFace("",0,0,2,5)
   ShowMessage("You learned \\I[1482]\\C[1]Secret Art:Inferno Dance\\C[0]!")
   ChangeSwitch(73,73,1)
   EndEventProcessing()
   0()
  IfPlayerPicksChoice(1,"忍奥義・水遁豪流")
   If(12,"actor_skill_have?(v(10),1788)")
    ShowMessageFace("",0,0,2,6)
    ShowMessage("That character already knows Secret Art:Torrential Stream...")
    JumpToLabel("選択")
    0()
   EndIf()
   ChangeVariable(129,129,0,0,1)
   318(1,10,0,1788)
   250(bytes(0x04,0x08,0x6f,0x3a,0x0c,0x52,0x50,0x47,0x3a,0x3a,0x53,0x45,0x08,0x3a,0x0a,0x40,0x6e,0x61,0x6d,0x65,0x49,0x22,0x0a,0x49,0x74,0x65,0x6d,0x31,0x06,0x3a,0x06,0x45,0x54,0x3a,0x0b,0x40,0x70,0x69,0x74,0x63,0x68,0x69,0x69,0x3a,0x0c,0x40,0x76,0x6f,0x6c,0x75,0x6d,0x65,0x69,0x55))
   ShowMessageFace("",0,0,2,7)
   ShowMessage("You learned \\I[1482]\\C[1]Secret Art:Torrential Stream\\C[0]!")
   ChangeSwitch(73,73,1)
   EndEventProcessing()
   0()
  IfPlayerPicksChoice(2,"忍奥義・雷迅白夜")
   If(12,"actor_skill_have?(v(10),1789)")
    ShowMessageFace("",0,0,2,8)
    ShowMessage("That character already knows Secret Art:White Lightning...")
    JumpToLabel("選択")
    0()
   EndIf()
   ChangeVariable(129,129,0,0,1)
   318(1,10,0,1789)
   250(bytes(0x04,0x08,0x6f,0x3a,0x0c,0x52,0x50,0x47,0x3a,0x3a,0x53,0x45,0x08,0x3a,0x0a,0x40,0x6e,0x61,0x6d,0x65,0x49,0x22,0x0a,0x49,0x74,0x65,0x6d,0x31,0x06,0x3a,0x06,0x45,0x54,0x3a,0x0b,0x40,0x70,0x69,0x74,0x63,0x68,0x69,0x69,0x3a,0x0c,0x40,0x76,0x6f,0x6c,0x75,0x6d,0x65,0x69,0x55))
   ShowMessageFace("",0,0,2,9)
   ShowMessage("You learned \\I[1482]\\C[1]Secret Art:White Lightning\\C[0]!")
   ChangeSwitch(73,73,1)
   EndEventProcessing()
   0()
  404()
  0()
 IfPlayerPicksChoice(1,null)
  ShowMessageFace("",0,0,2,10)
  ShowMessage("Who will undergo the Master Course?")
  355("names = party_members.collect{|m|m.name}")
  655("unlimited_choices(11, names)")
  655("actor = party_members[$game_variables[11]]")
  655("$game_variables[10] = actor ? actor.id : 0")
  If(1,10,0,0,0)
   ChangeSwitch(73,73,1)
   EndEventProcessing()
   0()
  EndIf()
  ShowMessageFace("",0,0,2,11)
  ShowMessage("Which Ninjutsu will you learn?")
  ShowChoices(strings("Triple Blossom Night Dispersion","Forbidden Art:Nine Tails Funeral Pyre"),0)
  IfPlayerPicksChoice(0,null)
   If(12,"actor_skill_have?(v(10),1797)")
    ShowMessageFace("",0,0,2,12)
    ShowMessage("That character already knows Forbidden Art:Triple Blossom Night Dispersion...")
    JumpToLabel("選択")
    0()
   EndIf()
   ChangeVariable(129,129,0,0,1)
   318(1,10,0,1797)
   250(bytes(0x04,0x08,0x6f,0x3a,0x0c,0x52,0x50,0x47,0x3a,0x3a,0x53,0x45,0x08,0x3a,0x0a,0x40,0x6e,0x61,0x6d,0x65,0x49,0x22,0x0a,0x49,0x74,0x65,0x6d,0x31,0x06,0x3a,0x06,0x45,0x54,0x3a,0x0b,0x40,0x70,0x69,0x74,0x63,0x68,0x69,0x69,0x3a,0x0c,0x40,0x76,0x6f,0x6c,0x75,0x6d,0x65,0x69,0x55))
   ShowMessageFace("",0,0,2,13)
   ShowMessage("You learned \\I[1482]\\C[1]Forbidden Art:Triple Blossom Night Dispersion\\C[0]!")
   ChangeSwitch(73,73,1)
   EndEventProcessing()
   0()
  IfPlayerPicksChoice(1,null)
   If(12,"actor_skill_have?(v(10),1798)")
    ShowMessageFace("",0,0,2,14)
    ShowMessage("That character already knows Forbidden Art:Nine Tails Funeral Pyre...")
    JumpToLabel("選択")
    0()
   EndIf()
   ChangeVariable(129,129,0,0,1)
   318(1,10,0,1798)
   250(bytes(0x04,0x08,0x6f,0x3a,0x0c,0x52,0x50,0x47,0x3a,0x3a,0x53,0x45,0x08,0x3a,0x0a,0x40,0x6e,0x61,0x6d,0x65,0x49,0x22,0x0a,0x49,0x74,0x65,0x6d,0x31,0x06,0x3a,0x06,0x45,0x54,0x3a,0x0b,0x40,0x70,0x69,0x74,0x63,0x68,0x69,0x69,0x3a,0x0c,0x40,0x76,0x6f,0x6c,0x75,0x6d,0x65,0x69,0x55))
   ShowMessageFace("",0,0,2,15)
   ShowMessage("You learned \\I[1482]\\C[1]Forbidden Art:Nine Tales Funeral Pyre\\C[0]!")
   ChangeSwitch(73,73,1)
   EndEventProcessing()
   0()
  404()
  0()
 IfPlayerPicksChoice(2,null)
  EndEventProcessing()
  0()
 404()
 0()
EndIf()
If(1,129,0,1,0)
 ShowMessageFace("nanabi_fc1",0,0,2,16)
 ShowMessage("\\n<Nanabi>That is all for today.\nPlease come again sometime.")
 ChangeSwitch(73,73,1)
 EndEventProcessing()
 0()
EndIf()
0()
