// EVENT 3085
Name "Brownies"

If(0,25,1)
 JumpToLabel("反省会")
 0()
EndIf()
PictureDisplay(5,"80_braunys_st02",0,0,0,0,100,100,0,0)
PictureMove(5,null,0,0,0,0,100,100,255,0,30,true)
241(bytes(0x04,0x08,0x6f,0x3a,0x0d,0x52,0x50,0x47,0x3a,0x3a,0x42,0x47,0x4d,0x08,0x3a,0x0a,0x40,0x6e,0x61,0x6d,0x65,0x49,0x22,0x09,0x65,0x72,0x6f,0x31,0x06,0x3a,0x06,0x45,0x54,0x3a,0x0c,0x40,0x76,0x6f,0x6c,0x75,0x6d,0x65,0x69,0x69,0x3a,0x0b,0x40,0x70,0x69,0x74,0x63,0x68,0x69,0x69))
ShowMessageFace("",0,0,2,1)
ShowMessage("\\n<Luka>Unnngh...")
ShowMessageFace("braunys_fc1",7,0,2,2)
ShowMessage("\\n<Brownies>Yaaay! We got him! ♪\nIt's time to bully him~!")
PictureDisplay(5,"ev_braunys_h01",0,0,0,0,100,100,0,0)
PictureMove(5,null,0,0,0,0,100,100,255,0,30,true)
ShowMessageFace("",0,0,2,3)
ShowMessage("The two fairies push me to the ground, and pull down my pants.")
ShowMessage("They bring their faces next to my exposed crotch.")
ShowMessageFace("",0,0,2,4)
ShowMessage("\\n<Luka>D-don't do this...")
ShowMessageFace("braunys_fc1",7,0,2,5)
ShowMessage("\\n<Brownies>Let's bully his penis~!")
ShowMessageFace("braunys_fc1",4,0,2,6)
ShowMessage("\\n<Brownies>Hey, hey, who gets to go first...?")
ShowMessageFace("braunys_fc1",1,0,2,7)
ShowMessage("\\n<Brownies>I'll go first!")
245(bytes(0x04,0x08,0x6f,0x3a,0x0d,0x52,0x50,0x47,0x3a,0x3a,0x42,0x47,0x53,0x08,0x3a,0x0a,0x40,0x6e,0x61,0x6d,0x65,0x49,0x22,0x10,0x6d,0x6f,0x6e,0x5f,0x68,0x76,0x6f,0x69,0x63,0x65,0x33,0x06,0x3a,0x06,0x45,0x54,0x3a,0x0c,0x40,0x76,0x6f,0x6c,0x75,0x6d,0x65,0x69,0x55,0x3a,0x0b,0x40,0x70,0x69,0x74,0x63,0x68,0x69,0x69))
PictureDisplay(5,"ev_braunys_h02",0,0,0,0,100,100,255,0)
ShowMessageFace("braunys_fc1",1,0,2,8)
ShowMessage("\\n<Brownies>Nnn... *Kiss*♪")
ShowMessageFace("",0,0,2,9)
ShowMessage("One of the Brownies suddenly presses her lips against my glans.")
ShowMessage("She gives it a gentle kiss.")
ShowMessageFace("",0,0,2,10)
ShowMessage("\\n<Luka>Auuu...")
ShowMessageFace("",0,0,2,11)
ShowMessage("Her lips slowly open and take in more of my tip.")
ShowMessage("Her soft lips press against my sensitive tip, eliciting a shiver from me.")
ShowMessageFace("braunys_fc1",1,0,2,12)
ShowMessage("\\n<Brownies>Nnn... *Kiss* *Lick*")
ShowMessageFace("",0,0,2,13)
ShowMessage("\\n<Luka>Ah... Aaah...")
ShowMessageFace("",0,0,2,14)
ShowMessage("A gentle blowjob, the small Brownie's lips just barely pressing down on me.")
ShowMessage("The slow motion stimulation feels too good resist.")
ShowMessageFace("",0,0,2,15)
ShowMessage("Her lips slowly move, rubbing against my glans.")
ShowMessage("Every so often she reaches the neck of my penis, where she gives it a gentle kiss.")
ShowMessageFace("braunys_fc1",5,0,2,16)
ShowMessage("\\n<Brownies>Hurry up, hurry upppp...\nI want to lick it too~!")
ShowMessageFace("braunys_fc1",1,0,2,17)
ShowMessage("\\n<Brownies>*Suck* Ok, I'll suck it some then...\nNnnn... *Suck*")
ShowMessageFace("",0,0,2,18)
ShowMessage("\\n<Luka>Ah... Aaah...")
ShowMessageFace("",0,0,2,19)
ShowMessage("The Brownie presses her lips together, and starts to suck on my glans!")
ShowMessageFace("",0,0,2,20)
ShowMessage("\\n<Luka>Ngh... Aaah...!")
ShowMessageFace("",0,0,2,21)
ShowMessage("Her soft lips press down hard as she sucks.")
ShowMessage("I writhe under them in agony at the suddenly increased pleasure.")
ShowMessageFace("braunys_fc1",1,0,2,22)
ShowMessage("\\n<Brownies>*Suck* Chyuuu...!")
ShowMessageFace("",0,0,2,23)
ShowMessage("\\n<Luka>Ahii... Aaaah...!")
ShowMessageFace("",0,0,2,24)
ShowMessage("She must have incredible lung capacity, because the vacuum-like suction doesn't let up.")
ShowMessage("The crazy pleasure makes my head go pure white.")
ShowMessageFace("",0,0,2,25)
ShowMessage("My waist quickly goes numb as I feel a budding orgasm.")
ShowMessage("It's like she's sucking it out directly from my balls...")
ShowMessageFace("",0,0,2,26)
ShowMessage("\\n<Luka>C-coming...! Aah...!!")
ShowMessageFace("",0,0,2,27)
ShowMessage("My view goes fuzzy as my waist trembles.")
ShowMessage("Regardless of my condition, the Brownie continues to suck hard.")
RunCommonEvent(104)
PictureDisplay(5,"ev_braunys_h03",0,0,0,0,100,100,255,0)
RunCommonEvent(105)
ShowMessageFace("",0,0,2,28)
ShowMessage("I come as she continues to suck on me.")
ShowMessage("My semen overflows into the Brownie's small mouth.")
ShowMessageFace("braunys_fc1",1,0,2,29)
ShowMessage("\\n<Brownies>Nnnn...!")
ShowMessageFace("",0,0,2,30)
ShowMessage("The Brownie continues to suck all during my ejaculation.")
ShowMessage("The semen she wasn't able to swallow dribbles out from the corner of her mouth.")
ShowMessageFace("",0,0,2,31)
ShowMessage("\\n<Luka>Nnngh... Ah, aaah...")
ShowMessageFace("",0,0,2,32)
ShowMessage("Like that, she sucks down every drop I shoot into her.")
246(1)
PictureDisplay(5,"ev_braunys_h04",0,0,0,0,100,100,255,0)
ShowMessageFace("braunys_fc1",1,0,2,33)
ShowMessage("\\n<Brownies>Nnn... Ahh...\nEhehe, that was delicious...♪")
ShowMessageFace("",0,0,2,34)
ShowMessage("The Brownie looks down at me, satisfied.")
ShowMessage("But they don't give me a moment to rest.")
ShowMessageFace("braunys_fc1",4,0,2,35)
ShowMessage("\\n<Brownies>It's my turn next. ♪")
ShowMessageFace("",0,0,2,36)
ShowMessage("The other Brownie eagerly moves closer to my penis.")
245(bytes(0x04,0x08,0x6f,0x3a,0x0d,0x52,0x50,0x47,0x3a,0x3a,0x42,0x47,0x53,0x08,0x3a,0x0a,0x40,0x6e,0x61,0x6d,0x65,0x49,0x22,0x10,0x6d,0x6f,0x6e,0x5f,0x68,0x76,0x6f,0x69,0x63,0x65,0x31,0x06,0x3a,0x06,0x45,0x54,0x3a,0x0c,0x40,0x76,0x6f,0x6c,0x75,0x6d,0x65,0x69,0x55,0x3a,0x0b,0x40,0x70,0x69,0x74,0x63,0x68,0x69,0x69))
PictureDisplay(5,"ev_braunys_h05",0,0,0,0,100,100,255,0)
ShowMessageFace("braunys_fc1",4,0,2,37)
ShowMessage("\\n<Brownies>*Lick*")
ShowMessageFace("",0,0,2,38)
ShowMessage("Slowly extending her tongue, she licks my glans.")
ShowMessage("Having just reached climax, the gentle tongue causes ripples of pleasure.")
ShowMessageFace("",0,0,2,39)
ShowMessage("\\n<Luka>Hnnngh...!")
ShowMessageFace("braunys_fc1",4,0,2,40)
ShowMessage("\\n<Brownies>*Lick* *Lick*")
ShowMessageFace("",0,0,2,41)
ShowMessage("She licks the tip of my penis clean with her tongue.")
ShowMessage("Her tongue carefully crawls all over my glans, lapping up the last drops of semen.")
ShowMessageFace("",0,0,2,42)
ShowMessage("\\n<Luka>Ah... That tickles...!\nHaauu... Aaaah...!")
ShowMessageFace("",0,0,2,43)
ShowMessage("I struggle against the ticklish sensation of her tongue.")
ShowMessage("My penis, too sensitive after my orgasm, is overwhelmed by the Brownie's tongue.")
ShowMessageFace("",0,0,2,44)
ShowMessage("Her rough tongue drips saliva as she licks me.")
ShowMessage("Despite writhing in agony, I can't do anything but accept the pleasure.")
PictureDisplay(5,"ev_braunys_h06",0,0,0,0,100,100,255,0)
ShowMessageFace("braunys_fc1",4,0,2,45)
ShowMessage("\\n<Brownies>Nnn... *Lick* *Suck*")
ShowMessageFace("",0,0,2,46)
ShowMessage("Her tongue movements slowly get more and more intense.")
ShowMessage("As she runs her tongue up and down, she occasionally sucks on my tip at the same time.")
ShowMessageFace("",0,0,2,47)
ShowMessage("\\n<Luka>Hya...! Ah, aaaah...!!")
ShowMessageFace("",0,0,2,48)
ShowMessage("My sensitive penis is being tortured under her tongue.")
ShowMessage("But a new climax slowly starts to build within me.")
ShowMessageFace("braunys_fc1",4,0,2,49)
ShowMessage("\\n<Brownies>Are you going to come...?\nAre you going to come while I lick the tip...?")
ShowMessageFace("braunys_fc1",4,0,2,50)
ShowMessage("\\n<Brownies>*Lick* *Lick*")
ShowMessageFace("",0,0,2,51)
ShowMessage("\\n<Luka>D-don't...I'm coming...")
ShowMessageFace("",0,0,2,52)
ShowMessage("The Brownie's tongue creeps all over my tip.")
ShowMessage("The tip of her tongue traces up my back muscle, and then around my urethral opening.")
ShowMessageFace("braunys_fc1",4,0,2,53)
ShowMessage("\\n<Brownies>*Lick*")
ShowMessageFace("",0,0,2,54)
ShowMessage("As her small tongue runs around my glans, my vision goes white again.")
ShowMessageFace("",0,0,2,55)
ShowMessage("\\n<Luka>Aah...! Hnnngh...!")
RunCommonEvent(104)
PictureDisplay(5,"ev_braunys_h07",0,0,0,0,100,100,255,0)
RunCommonEvent(105)
ShowMessageFace("",0,0,2,56)
ShowMessage("My semen shoots out, all over her face.")
ShowMessage("But she doesn't stop licking for a moment.")
245(bytes(0x04,0x08,0x6f,0x3a,0x0d,0x52,0x50,0x47,0x3a,0x3a,0x42,0x47,0x53,0x08,0x3a,0x0a,0x40,0x6e,0x61,0x6d,0x65,0x49,0x22,0x10,0x6d,0x6f,0x6e,0x5f,0x68,0x76,0x6f,0x69,0x63,0x65,0x33,0x06,0x3a,0x06,0x45,0x54,0x3a,0x0c,0x40,0x76,0x6f,0x6c,0x75,0x6d,0x65,0x69,0x55,0x3a,0x0b,0x40,0x70,0x69,0x74,0x63,0x68,0x69,0x69))
PictureDisplay(5,"ev_braunys_h08",0,0,0,0,100,100,255,0)
ShowMessageFace("braunys_fc1",1,0,2,57)
ShowMessage("\\n<Brownies>He came again....Mmf.")
ShowMessageFace("",0,0,2,58)
ShowMessage("The other Brownie brings her face closer again.")
ShowMessage("She starts to lick up the semen I just shot out!")
ShowMessageFace("",0,0,2,59)
ShowMessage("\\n<Luka>W-Wait... Hnnngh...!!")
ShowMessageFace("braunys_fc1",4,0,2,60)
ShowMessage("\\n<Brownies>*Lick*")
ShowMessageFace("",0,0,2,61)
ShowMessage("One Brownie is eagerly licking up the semen as I shoot it out.")
ShowMessage("At the same time, the other one is running her small tongue up and down my shaft.")
ShowMessageFace("braunys_fc1",1,0,2,62)
ShowMessage("\\n<Brownies>*Slurp* ")
ShowMessageFace("braunys_fc1",4,0,2,63)
ShowMessage("\\n<Brownies>*Lick*")
ShowMessageFace("",0,0,2,64)
ShowMessage("\\n<Luka>N...no way... Both of you at the same time...\nNnngh...")
ShowMessageFace("",0,0,2,65)
ShowMessage("Their two small tongues attack me at the same time.")
ShowMessage("The ticklish touch of their two small tongues touches every corner of my penis.")
ShowMessageFace("braunys_fc1",4,0,2,66)
ShowMessage("\\n<Brownies>*Lick* *Lick*")
ShowMessageFace("",0,0,2,67)
ShowMessage("One of them uses their tongue to focus on my shaft.")
ShowMessage("The other one focuses on my glans, covering it with her warm saliva.")
ShowMessageFace("braunys_fc1",1,0,2,68)
ShowMessage("\\n<Brownies>*Suck* *Lick*")
ShowMessageFace("",0,0,2,69)
ShowMessage("The second Brownie presses her lips around my glans and sucks for a moment.")
ShowMessage("The sweet suction causes me to tremble.")
ShowMessageFace("braunys_fc1",4,0,2,70)
ShowMessage("\\n<Brownies>Hey, which mouth feels better...?")
ShowMessageFace("braunys_fc1",1,0,2,71)
ShowMessage("\\n<Brownies>It's me, isn't it? Of course it is.")
ShowMessageFace("",0,0,2,72)
ShowMessage("\\n<Luka>N...no way... Ah, aaaah...!")
ShowMessageFace("",0,0,2,73)
ShowMessage("The two of them start to lick and suck harder, as if competing.")
ShowMessage("The sweet pleasure drives me closer to another edge.")
ShowMessageFace("braunys_fc1",4,0,2,74)
ShowMessage("\\n<Brownies>Hey, which of us feels better?\nYou like it most when I lick you, right? *Lick* *Lick*")
ShowMessageFace("braunys_fc1",1,0,2,75)
ShowMessage("\\n<Brownies>No way! My sucking feels way better, right?\n*Suck* *Slurp*")
ShowMessageFace("",0,0,2,76)
ShowMessage("\\n<Luka>Nnngh...You both feel too good...\nAh, aaah...")
ShowMessageFace("",0,0,2,77)
ShowMessage("My waist trembles as I feel another taste of heaven.")
RunCommonEvent(104)
PictureDisplay(5,"ev_braunys_h09",0,0,0,0,100,100,255,0)
RunCommonEvent(105)
ShowMessageFace("",0,0,2,78)
ShowMessage("I come again, shooting out more semen.")
ShowMessage("My white seed covers the little girl's faces.")
PictureDisplay(5,"ev_braunys_h10",0,0,0,0,100,100,255,0)
ShowMessageFace("braunys_fc1",5,0,2,79)
ShowMessage("\\n<Brownies>He came again...\nAnd he didn't even tell us who felt better yet...")
ShowMessageFace("braunys_fc1",0,0,2,80)
ShowMessage("\\n<Brownies>Heeey, which of us feels better...\nI won't stop sucking until you answer me properly... *Suck*")
ShowMessageFace("",0,0,2,81)
ShowMessage("The two of them continue torturing me with their tongues.")
ShowMessage("They glare at me impatiently as I writhe under their dual assault.")
ShowMessageFace("",0,0,2,82)
ShowMessage("\\n<Luka>S...Stop...You both feel good, so please...\nNnngh... Ah, aaaah...!!")
ShowMessageFace("braunys_fc1",5,0,2,83)
ShowMessage("\\n<Brownies>You can't say both...\n*Lick* *Lick*")
ShowMessageFace("braunys_fc1",0,0,2,84)
ShowMessage("\\n<Brownies>Don't weasel out of it, answer properly...\n*Suck* *Suck*")
ShowMessageFace("",0,0,2,85)
ShowMessage("My penis is completely covered in their saliva.")
ShowMessage("One's sucking my tip as the other licks me up and down...")
ShowMessageFace("",0,0,2,86)
ShowMessage("If I don't reply to them, they'll never stop this.")
ShowMessageFace("",0,0,2,87)
ShowMessage("\\n<Luka>The licking feels better, so...\nStop, please stop...!")
ShowMessageFace("braunys_fc1",4,0,2,88)
ShowMessage("\\n<Brownies>Ehehe, I knew it, I feel better...♪")
ShowMessageFace("braunys_fc1",0,0,2,89)
ShowMessage("\\n<Brownies>That's strange...\nNnnnnn~!! *Suck* *Suck* *Slurp*")
ShowMessageFace("",0,0,2,90)
ShowMessage("\\n<Luka>Hyaaaa!!")
ShowMessageFace("",0,0,2,91)
ShowMessage("The Brownie that's sucking me suddenly sucks incredibly hard!")
ShowMessage("The vacuum-like suction instantly sends me over the edge.")
ShowMessageFace("",0,0,2,92)
ShowMessage("\\n<Luka>Ngh... Ah, aaaah...!!")
RunCommonEvent(104)
PictureDisplay(5,"ev_braunys_h11",0,0,0,0,100,100,255,0)
RunCommonEvent(105)
ShowMessageFace("",0,0,2,93)
ShowMessage("I'm forced to a quick orgasm.")
ShowMessage("The Brownies look at me and giggle to each other.")
ShowMessageFace("braunys_fc1",1,0,2,94)
ShowMessage("\\n<Brownies>Ehehe...I knew it, I'm the one that actually feels better.")
ShowMessageFace("braunys_fc1",5,0,2,95)
ShowMessage("\\n<Brownies>No, you're cheating! He said I feel better...!\n*Lick* *Lick*")
ShowMessageFace("",0,0,2,96)
ShowMessage("\\n<Luka>Hyaaa...!")
ShowMessageFace("",0,0,2,97)
ShowMessage("With an annoyed huff, the other Brownie starts to lick even harder.")
ShowMessage("Focusing on my tip, her small tongue runs all over me.")
ShowMessageFace("braunys_fc1",1,0,2,98)
ShowMessage("\\n<Brownies>I won't lose! *Suck* *Slurp*")
ShowMessageFace("braunys_fc1",4,0,2,99)
ShowMessage("\\n<Brownies>*Lick* *Lick*")
ShowMessageFace("",0,0,2,100)
ShowMessage("\\n<Luka>Stop already... Help me...\nHaauu... Aaaah...!")
ShowMessageFace("",0,0,2,101)
ShowMessage("Already lost in their competition with each other, they trample me with pleasure.")
ShowMessage("I have no choice but to writhe in ecstasy as they compete with each other...")
221()
PictureClear(5)
246(2)
ShowMessageFace("",0,0,2,102)
ShowMessage("They forced me to come over and over again after that.")
ShowMessage("They lick and suck on my penis without stopping for what seems like forever.")
ShowMessageFace("",0,0,2,103)
ShowMessage("Once they got tired, the Brownies abandon me on the ground...")
ShowMessage("I'm left so weak, I can't even stand for a long time...")
DefineLabel("反省会")
ShowMessageFace("",0,0,2,104)
ShowMessage("......")
221()
242(1)
Wait(120)
355("memory_interruption")
ShowMessageFace("",0,0,2,105)
ShowMessage("You hear Ilias' voice calling out to you...")
ShowMessage("Receive her evaluation?")
ShowChoices(strings("Receive evaluation","Change difficulty","Reincarnate"),3)
IfPlayerPicksChoice(0,null)
 241(bytes(0x04,0x08,0x6f,0x3a,0x0d,0x52,0x50,0x47,0x3a,0x3a,0x42,0x47,0x4d,0x08,0x3a,0x0a,0x40,0x6e,0x61,0x6d,0x65,0x49,0x22,0x0a,0x69,0x72,0x69,0x61,0x73,0x06,0x3a,0x06,0x45,0x54,0x3a,0x0c,0x40,0x76,0x6f,0x6c,0x75,0x6d,0x65,0x69,0x5f,0x3a,0x0b,0x40,0x70,0x69,0x74,0x63,0x68,0x69,0x6e))
 PictureDisplay(1,"bg001",0,0,0,0,100,100,255,0)
 222()
 PictureDisplay(5,"80_iriasu_st04",0,0,0,0,100,100,0,0)
 PictureMove(5,null,0,0,0,0,100,100,255,0,30,true)
 ShowMessageFace("iriasu_fc1",3,0,2,106)
 ShowMessage("\\n<Ilias>Oh, are you a toy this time?\nAn all-around Hero. Suck him! Eat him! Squeeze him!")
 PictureDisplay(5,"80_iriasu_st01",0,0,0,0,100,100,255,0)
 ShowMessageFace("iriasu_fc1",0,0,2,107)
 ShowMessage("\\n<Ilias>The Brownies are strong fairies.\nIn addition, they act twice in a row, so damage is inevitable.")
 ShowMessageFace("iriasu_fc1",0,0,2,108)
 ShowMessage("\\n<Ilias>They're weak to blind, so use that.\nThey don't have much defense, so you can beat them down too.")
 ShowMessageFace("iriasu_fc1",0,0,2,109)
 ShowMessage("\\n<Ilias>They're earth spirits, so earth isn't effective.\nThey're also resistant to wind and water.")
 PictureDisplay(5,"80_iriasu_st02",0,0,0,0,100,100,255,0)
 ShowMessageFace("iriasu_fc1",1,0,2,110)
 ShowMessage("\\n<Ilias>Now go, oh brave Luka.\nSend those earth spirits back to the soil.")
 242(1)
 221()
 PictureClear(5)
 PictureClear(1)
 Wait(60)
 0()
IfPlayerPicksChoice(1,null)
 ShowMessageFace("",0,0,2,111)
 ShowMessage("Please choose a difficulty level.")
 RunCommonEvent(110)
 0()
IfPlayerPicksChoice(2,null)
 0()
404()
RunCommonEvent(3000)
0()
