﻿// EVENT 5759
Name "夢狐"

PictureDisplay(5,"80_youkosan_st01",0,0,0,0,100,100,0,0)
PictureMove(5,null,0,0,0,0,100,100,255,0,30,true)
ShowMessageFace("",0,0,2,1)
ShowMessage("\\n<Luka>")
ShowMessage("お……お願い……")
ShowMessageFace("youkosan_fc1",0,0,2,2)
ShowMessage("\\n<妖狐>")
ShowMessage("あははっ、ウチとヤりたいのぉ？")
ShowMessage("それじゃあ、部屋においでよ～♪")
ShowMessageFace("",0,0,2,3)
ShowMessage("こうして僕は、夢狐の部屋に誘われた――")
221()
PictureDisplay(1,"bg195",0,0,0,0,100,100,255,0)
PictureDisplay(5,"ev_youkosan_h1",0,0,0,0,100,100,255,0)
222()
241(bytes(0x04,0x08,0x6f,0x3a,0x0d,0x52,0x50,0x47,0x3a,0x3a,0x42,0x47,0x4d,0x08,0x3a,0x0a,0x40,0x6e,0x61,0x6d,0x65,0x49,0x22,0x09,0x65,0x72,0x6f,0x31,0x06,0x3a,0x06,0x45,0x54,0x3a,0x0c,0x40,0x76,0x6f,0x6c,0x75,0x6d,0x65,0x69,0x69,0x3a,0x0b,0x40,0x70,0x69,0x74,0x63,0x68,0x69,0x69))
ShowMessageFace("youkosan_fc1",4,0,2,4)
ShowMessage("\\n<妖狐>")
ShowMessage("それじゃあ、ヤろうよ～♡")
ShowMessageFace("",0,0,2,5)
ShowMessage("妖狐は、ベッドに横たわる僕にのしかかってきた。")
ShowMessage("その火照った体が密着し、汗ばむような温もりが伝わってくる。")
ShowMessageFace("youkosan_fc1",4,0,2,6)
ShowMessage("\\n<妖狐>")
ShowMessage("ウチの体、ぬくぬくでしょ？")
ShowMessage("女陰（ほと）の中も、あったかいよ～♪")
ShowMessageFace("",0,0,2,7)
ShowMessage("\\n<Luka>")
ShowMessage("あぁぁぁ……")
ShowMessageFace("youkosan_fc1",4,0,2,8)
ShowMessage("\\n<妖狐>")
ShowMessage("それじゃあ、中に入っちゃおうか。")
ShowMessage("た～っぷり吸ってあげるね♪")
ShowMessageFace("",0,0,2,9)
ShowMessage("そのまま、妖狐は僕のモノを自らの膣内に導いてきた。")
ShowMessage("亀頭が膣口に押し当たり、そのまま中へと押し込まれ――")
245(bytes(0x04,0x08,0x6f,0x3a,0x0d,0x52,0x50,0x47,0x3a,0x3a,0x42,0x47,0x53,0x08,0x3a,0x0a,0x40,0x6e,0x61,0x6d,0x65,0x49,0x22,0x1e,0x6d,0x6f,0x6e,0x5f,0x68,0x73,0x65,0x61,0x6e,0x30,0x33,0x5f,0x69,0x6e,0x6e,0x65,0x72,0x77,0x6f,0x72,0x6b,0x73,0x5f,0x61,0x33,0x06,0x3a,0x06,0x45,0x54,0x3a,0x0c,0x40,0x76,0x6f,0x6c,0x75,0x6d,0x65,0x69,0x55,0x3a,0x0b,0x40,0x70,0x69,0x74,0x63,0x68,0x69,0x69))
PictureDisplay(5,"ev_youkosan_h2",0,0,0,0,100,100,255,0)
ShowMessageFace("",0,0,2,10)
ShowMessage("\\n<Luka>")
ShowMessage("はぅぅぅっ……！")
ShowMessageFace("",0,0,2,11)
ShowMessage("とうとう、ぬくぬくに火照った膣内にペニスが沈み込んでしまった。")
ShowMessage("とろけるような柔肉がペニスを包み、甘い快楽が伝わってくる――")
ShowMessageFace("youkosan_fc1",4,0,2,12)
ShowMessage("\\n<妖狐>")
ShowMessage("はい、挿っちゃいました～♪")
ShowMessage("ウチの中、キツキツでぬくぬくでしょ……？")
ShowMessageFace("",0,0,2,13)
ShowMessage("\\n<Luka>")
ShowMessage("う……あぅぅぅっ……")
ShowMessageFace("",0,0,2,14)
ShowMessage("柔肉はぎゅっと締まり、ペニスを艶めかしく圧迫してくる。")
ShowMessage("そしてその温もりは、僕のモノを蕩かしているかのようだった――")
ShowMessageFace("",0,0,2,15)
ShowMessage("\\n<Luka>")
ShowMessage("あぁぁぁ……気持ちいいよぉ……")
ShowMessageFace("youkosan_fc1",4,0,2,16)
ShowMessage("\\n<妖狐>")
ShowMessage("そうだよねぇ……♪")
ShowMessage("ニンゲンの精を吸っちゃう穴だから、気持ち良くて当然だよ。")
ShowMessageFace("youkosan_fc1",4,0,2,17)
ShowMessage("\\n<妖狐>")
ShowMessage("ふふふっ……")
ShowMessage("勇者クンは、どのくらいガマンできるかな～？")
ShowMessageFace("",0,0,2,18)
ShowMessage("\\n<Luka>")
ShowMessage("はぅぅぅっ……！")
ShowMessageFace("",0,0,2,19)
ShowMessage("柔肉がぐにゅぐにゅとうねり、ペニスを揉みしだく。")
ShowMessage("かと思えば膣奥がぎゅぅっと締まり、柔らかくペニスを圧迫してきた。")
ShowMessageFace("",0,0,2,20)
ShowMessage("そのあまりの気持ち良さに、僕はぶるっと腰を震わせ――")
ShowMessageFace("",0,0,2,21)
ShowMessage("\\n<Luka>")
ShowMessage("だめ、出ちゃう……！　あぁぁぁっ……！！")
RunCommonEvent(104)
PictureDisplay(5,"ev_youkosan_h3",0,0,0,0,100,100,255,0)
RunCommonEvent(105)
ShowMessageFace("",0,0,2,22)
ShowMessage("あえなく、熱い肉壺の中に射精してしまった。")
ShowMessage("ペニスがドクドクと脈動し、精液が膣内に撒き散らされていく――")
ShowMessageFace("",0,0,2,23)
ShowMessage("\\n<Luka>")
ShowMessage("はぅぅぅっ……")
ShowMessageFace("youkosan_fc1",4,0,2,24)
ShowMessage("\\n<妖狐>")
ShowMessage("あれぇ……？　もう、出しちゃったのぉ？")
ShowMessage("勇者なのに、これくらいもガマンできなかったんだ……♪")
ShowMessageFace("youkosan_fc1",4,0,2,25)
ShowMessage("\\n<妖狐>")
ShowMessage("まだ、挿れただけで漏れちゃった？")
ShowMessage("腰も使ってないのにね～♪")
ShowMessageFace("",0,0,2,26)
ShowMessage("\\n<Luka>")
ShowMessage("う、うぅぅっ……")
ShowMessageFace("",0,0,2,27)
ShowMessage("妖狐に犯されながら、僕は屈辱に震えてしまう。")
ShowMessage("その肉壺の中で、僕のモノは今も温められ、甘やかされていた。")
ShowMessageFace("youkosan_fc1",4,0,2,28)
ShowMessage("\\n<妖狐>")
ShowMessage("それじゃあ、次は腰を動かしてあげようかな。")
ShowMessage("きっと、すぐイっちゃうよ？")
ShowMessageFace("youkosan_fc1",4,0,2,29)
ShowMessage("\\n<妖狐>")
ShowMessage("さっきも、あっけなく負けちゃったもんね♪")
ShowMessage("挿れただけで、すぐ精をぴゅぴゅ～って出しちゃったもんね♪")
ShowMessageFace("",0,0,2,30)
ShowMessage("\\n<Luka>")
ShowMessage("あぁぁ……やめて、やめてぇ……")
ShowMessageFace("youkosan_fc1",4,0,2,31)
ShowMessage("\\n<妖狐>")
ShowMessage("やめないよ～♪")
ShowMessage("それじゃあ、腰を動かしちゃいま～す♪")
ShowMessageFace("",0,0,2,32)
ShowMessage("\\n<Luka>")
ShowMessage("あ……あぁぁぁぁ……")
ShowMessageFace("",0,0,2,33)
ShowMessage("妖狐はそのまま、容赦なく腰を上下させてきた！")
ShowMessage("柔壁がにゅぐにゅぐとペニスを扱き、激しい快楽を与えてくる――")
ShowMessageFace("",0,0,2,34)
ShowMessage("\\n<Luka>")
ShowMessage("はぅぅぅ～～！！")
ShowMessageFace("youkosan_fc1",4,0,2,35)
ShowMessage("\\n<妖狐>")
ShowMessage("ほらほらほら～♪")
ShowMessage("どう？　もう出ちゃいそう？")
ShowMessageFace("youkosan_fc1",4,0,2,36)
ShowMessage("\\n<妖狐>")
ShowMessage("勇者クンの子種、いっぱい中に吐き出しちゃえ♪")
ShowMessage("ぜ～んぶ、ウチの養分にしてあげるからね～♪")
ShowMessageFace("",0,0,2,37)
ShowMessage("\\n<Luka>")
ShowMessage("あぁぁぁ……だめぇ……")
ShowMessageFace("",0,0,2,38)
ShowMessage("妖狐は腰を上下させ、じっくりと僕を責めたててくる。")
ShowMessage("肉壺は妖しくうねっては締まり、ペニスを快楽に導いた。")
ShowMessageFace("",0,0,2,39)
ShowMessage("みるみるうちに、射精がこらえきれなくなり――")
ShowMessageFace("",0,0,2,40)
ShowMessage("\\n<Luka>")
ShowMessage("はぅぅ……あ、あぁぁぁっ！！")
RunCommonEvent(104)
PictureDisplay(5,"ev_youkosan_h4",0,0,0,0,100,100,255,0)
RunCommonEvent(105)
ShowMessageFace("",0,0,2,41)
ShowMessage("そのまま、僕は妖狐の膣内でイってしまった。")
ShowMessage("大量の精液が、肉壺の中に撒き散らされていく――")
ShowMessageFace("youkosan_fc1",4,0,2,42)
ShowMessage("\\n<妖狐>")
ShowMessage("あははっ、また出ちゃった～♪")
ShowMessage("キミって、ぜんぜんガマンできないんだね～♪")
ShowMessageFace("",0,0,2,43)
ShowMessage("\\n<Luka>")
ShowMessage("う、うぅぅ……")
ShowMessageFace("youkosan_fc1",4,0,2,44)
ShowMessage("\\n<妖狐>")
ShowMessage("でも、まだまだ搾っちゃいま～す♪")
ShowMessage("勇者クンの子種、ぜんぶコキ出しちゃうよ～♪")
ShowMessageFace("",0,0,2,45)
ShowMessage("\\n<Luka>")
ShowMessage("あ……ひぁぁぁぁ～～！！")
ShowMessageFace("",0,0,2,46)
ShowMessage("なおも妖狐は腰を上下に跳ね、中をうねらせる。")
ShowMessage("その強烈な快感に、僕はびくびくと体を震わせるしかなかった。")
ShowMessageFace("youkosan_fc1",4,0,2,47)
ShowMessage("\\n<妖狐>")
ShowMessage("ほ～ら、またイっちゃえ♪")
ShowMessage("カラカラになるまで、吸い取られちゃえ～♪")
ShowMessageFace("",0,0,2,48)
ShowMessage("\\n<Luka>")
ShowMessage("ひぁぁぁぁぁぁ……！！")
RunCommonEvent(104)
RunCommonEvent(105)
ShowMessageFace("",0,0,2,49)
ShowMessage("大量の精が、温かい膣内に吸い上げられていく。")
ShowMessage("それでもなお、妖狐は腰を動かすのをやめてくれない――")
ShowMessageFace("youkosan_fc1",4,0,2,50)
ShowMessage("\\n<妖狐>")
ShowMessage("あはっ……♪　ドクドク出しちゃって……♪")
ShowMessage("ねぇ、そろそろ辛くなってきた？")
ShowMessageFace("",0,0,2,51)
ShowMessage("\\n<Luka>")
ShowMessage("つ、つらい……もう、やめてぇ……")
ShowMessageFace("youkosan_fc1",4,0,2,52)
ShowMessage("\\n<妖狐>")
ShowMessage("でも、やめませ～ん♪")
ShowMessage("観念して、ぜんぶ出しちゃえ♪")
ShowMessageFace("",0,0,2,53)
ShowMessage("\\n<Luka>")
ShowMessage("あひぃぃぃぃ……！！")
246(2)
RunCommonEvent(104)
RunCommonEvent(105)
ShowMessageFace("",0,0,2,54)
ShowMessage("そのまま僕は、何度も何度も陵辱され――")
ShowMessage("犯されるままに、精を吸い上げられ――")
ShowMessageFace("",0,0,2,55)
ShowMessage("\\n<Luka>")
ShowMessage("ぁ……ぁぅぅ……")
ShowMessageFace("",0,0,2,56)
ShowMessage("一時間の陵辱の後、すっかり脱力しきっていた。")
ShowMessage("ひたすらに搾られ尽くし、もはや指一本動かす事さえ出来ない。")
ShowMessageFace("youkosan_fc1",4,0,2,57)
ShowMessage("\\n<妖狐>")
ShowMessage("あはっ、もう出なくなっちゃったね。")
ShowMessage("負けて犯されるのって、クセになるでしょ？")
ShowMessageFace("",0,0,2,58)
ShowMessage("\\n<Luka>")
ShowMessage("う……うぅぅぅ……")
ShowMessageFace("youkosan_fc1",4,0,2,59)
ShowMessage("\\n<妖狐>")
ShowMessage("ウチは、これで終わりだけど……")
ShowMessage("順番待ちは、まだまだいるよ。")
ShowMessageFace("",0,0,2,60)
ShowMessage("\\n<Luka>")
ShowMessage("じゅ……順番待ち……？")
ShowMessageFace("",0,0,2,61)
ShowMessage("次の瞬間、僕は周囲に多数の気配を感じ取った。")
ShowMessage("あちこちで、狐達の目が妖しく光る――")
ShowMessageFace("",0,0,2,62)
ShowMessage("\\n<Luka>")
ShowMessage("あぁぁ……こんなぁ……")
ShowMessageFace("youkosan_fc1",4,0,2,63)
ShowMessage("\\n<妖狐>")
ShowMessage("ふふっ、いっぱいいるでしょ？")
ShowMessage("これみんな、キミを犯す順番待ち♪")
ShowMessageFace("youkosan_fc1",4,0,2,64)
ShowMessage("\\n<妖狐>")
ShowMessage("それじゃあ、たっぷり楽しんでね～♪")
ShowMessageFace("",0,0,2,65)
ShowMessage("\\n<Luka>")
ShowMessage("あぁぁぁ……")
ShowMessageFace("",0,0,2,66)
ShowMessage("こうして僕を待っていたのは、妖狐達の輪姦地獄だった。")
ShowMessage("ひたすらに犯し尽くされ、その精を吸い取られていく――")
ShowMessageFace("",0,0,2,67)
ShowMessage("こうして僕は、一晩中延々と輪姦されたのである。")
ShowMessage("翌朝には、足腰が立たない状態になってしまった――")
221()
PictureClear(5)
PictureClear(6)
ShowMessageFace("",0,0,2,68)
ShowMessage("・・・・・・・・")
RunCommonEvent(3998)
0()
