﻿// EVENT 0798
Name "ノーマルゲット"

ChangeVariable(11,11,0,2,1,2)
If(1,11,0,1,0)
 JumpToLabel("ランダム")
 0()
EndIf()
If(1,123,0,1,0)
 RunCommonEvent(813)
 EndEventProcessing()
 0()
EndIf()
If(1,123,0,2,0)
 RunCommonEvent(816)
 EndEventProcessing()
 0()
EndIf()
If(1,123,0,3,0)
 RunCommonEvent(804)
 EndEventProcessing()
 0()
EndIf()
If(1,123,0,4,0)
 RunCommonEvent(810)
 EndEventProcessing()
 0()
EndIf()
If(1,123,0,5,0)
 RunCommonEvent(801)
 EndEventProcessing()
 0()
EndIf()
If(1,123,0,6,0)
 RunCommonEvent(807)
 EndEventProcessing()
 0()
EndIf()
If(1,123,0,7,0)
 RunCommonEvent(819)
 EndEventProcessing()
 0()
EndIf()
If(1,123,0,8,0)
 RunCommonEvent(822)
 EndEventProcessing()
 0()
EndIf()
If(1,123,0,9,0)
 JumpToLabel("ランダム")
 0()
EndIf()
DefineLabel("ランダム")
ChangeVariable(11,11,0,2,1,8)
If(1,11,0,1,0)
 RunCommonEvent(813)
 EndEventProcessing()
 0()
EndIf()
If(1,11,0,2,0)
 RunCommonEvent(816)
 EndEventProcessing()
 0()
EndIf()
If(1,11,0,3,0)
 RunCommonEvent(804)
 EndEventProcessing()
 0()
EndIf()
If(1,11,0,4,0)
 RunCommonEvent(810)
 EndEventProcessing()
 0()
EndIf()
If(1,11,0,5,0)
 RunCommonEvent(801)
 EndEventProcessing()
 0()
EndIf()
If(1,11,0,6,0)
 RunCommonEvent(807)
 EndEventProcessing()
 0()
EndIf()
If(1,11,0,7,0)
 RunCommonEvent(819)
 EndEventProcessing()
 0()
EndIf()
If(1,11,0,8,0)
 RunCommonEvent(822)
 EndEventProcessing()
 0()
EndIf()
0()
