﻿
DisplayName "Pocket Castle Royal Parlor"



EVENT   1
 PAGE   1
  RunCommonEvent(111)
  0()



EVENT   2
 PAGE   1
  0()



EVENT   3
 PAGE   1
  281(0)
  250(bytes(0x04,0x08,0x6f,0x3a,0x0c,0x52,0x50,0x47,0x3a,0x3a,0x53,0x45,0x08,0x3a,0x0a,0x40,0x6e,0x61,0x6d,0x65,0x49,0x22,0x09,0x4d,0x6f,0x76,0x65,0x06,0x3a,0x06,0x45,0x54,0x3a,0x0b,0x40,0x70,0x69,0x74,0x63,0x68,0x69,0x69,0x3a,0x0c,0x40,0x76,0x6f,0x6c,0x75,0x6d,0x65,0x69,0x55))
  TeleportPlayer(0,277,40,30,0,0)
  0()



EVENT   4
 PAGE   1
  // condition: switch 1531 is ON
  PictureDisplay(5,"80_saniria_st11",0,0,0,0,100,100,0,0)
  PictureMove(5,null,0,0,0,0,100,100,255,0,30,true)
  If(1,3531,0,100,1)
   If(1,4531,0,0,0)
    ChangeVariable(4531,4531,0,0,1)
    ShowMessageFace("saniria_fc2",0,0,2,1)
    ShowMessage("\\n<King of San Ilia (Affection:\\V[3531])>Please take this. It's a relief supply from the Church.")
    250(bytes(0x04,0x08,0x6f,0x3a,0x0c,0x52,0x50,0x47,0x3a,0x3a,0x53,0x45,0x08,0x3a,0x0a,0x40,0x6e,0x61,0x6d,0x65,0x49,0x22,0x0a,0x49,0x74,0x65,0x6d,0x31,0x06,0x3a,0x06,0x45,0x54,0x3a,0x0b,0x40,0x70,0x69,0x74,0x63,0x68,0x69,0x69,0x3a,0x0c,0x40,0x76,0x6f,0x6c,0x75,0x6d,0x65,0x69,0x55))
    ChangeInventoryArmor(1031,0,0,1,false)
    0()
   EndIf()
   0()
  EndIf()
  If(1,3531,0,500,1)
   If(1,4531,0,1,0)
    ChangeVariable(4531,4531,0,0,2)
    ShowMessageFace("saniria_fc2",0,0,2,2)
    ShowMessage("\\n<King of San Ilia (Affection:\\V[3531])>Please take this. It's a relief supply from the Church.")
    250(bytes(0x04,0x08,0x6f,0x3a,0x0c,0x52,0x50,0x47,0x3a,0x3a,0x53,0x45,0x08,0x3a,0x0a,0x40,0x6e,0x61,0x6d,0x65,0x49,0x22,0x0a,0x49,0x74,0x65,0x6d,0x31,0x06,0x3a,0x06,0x45,0x54,0x3a,0x0b,0x40,0x70,0x69,0x74,0x63,0x68,0x69,0x69,0x3a,0x0c,0x40,0x76,0x6f,0x6c,0x75,0x6d,0x65,0x69,0x55))
    ChangeInventoryArmor(1261,0,0,1,false)
    0()
   EndIf()
   0()
  EndIf()
  If(1,3531,0,2000,1)
   If(1,4531,0,2,0)
    ChangeVariable(4531,4531,0,0,3)
    ShowMessageFace("saniria_fc2",0,0,2,3)
    ShowMessage("\\n<King of San Ilia (Affection:\\V[3531])>Please take this. It's a relief supply from the Church.")
    250(bytes(0x04,0x08,0x6f,0x3a,0x0c,0x52,0x50,0x47,0x3a,0x3a,0x53,0x45,0x08,0x3a,0x0a,0x40,0x6e,0x61,0x6d,0x65,0x49,0x22,0x0a,0x49,0x74,0x65,0x6d,0x31,0x06,0x3a,0x06,0x45,0x54,0x3a,0x0b,0x40,0x70,0x69,0x74,0x63,0x68,0x69,0x69,0x3a,0x0c,0x40,0x76,0x6f,0x6c,0x75,0x6d,0x65,0x69,0x55))
    ChangeInventoryArmor(1127,0,0,1,false)
    0()
   EndIf()
   0()
  EndIf()
  If(1,3531,0,4000,1)
   If(1,4531,0,3,0)
    ChangeVariable(4531,4531,0,0,4)
    ShowMessageFace("saniria_fc2",0,0,2,4)
    ShowMessage("\\n<King of San Ilia (Affection:\\V[3531])>Please take this. It's a relief supply from the Church.")
    250(bytes(0x04,0x08,0x6f,0x3a,0x0c,0x52,0x50,0x47,0x3a,0x3a,0x53,0x45,0x08,0x3a,0x0a,0x40,0x6e,0x61,0x6d,0x65,0x49,0x22,0x0a,0x49,0x74,0x65,0x6d,0x31,0x06,0x3a,0x06,0x45,0x54,0x3a,0x0b,0x40,0x70,0x69,0x74,0x63,0x68,0x69,0x69,0x3a,0x0c,0x40,0x76,0x6f,0x6c,0x75,0x6d,0x65,0x69,0x55))
    ChangeInventoryArmor(1034,0,0,1,false)
    0()
   EndIf()
   0()
  EndIf()
  355("actor_label_jump")
  ShowMessageFace("saniria_fc2",0,0,2,5)
  ShowMessage("\\n<King of San Ilia (Affection:\\V[3531])>Maintenance complete... Guess I can take off any time.")
  JumpToLabel("メニュー")
  DefineLabel("26")
  ShowMessageFace("saniria_fc2",0,0,2,6)
  ShowMessage("\\n<King of San Ilia (Affection:\\V[3531])>I must say, I absolutely did not expect the Goddess Ilias to be reduced to such an appearance...")
  ShowMessageFace("iriasu_fc4",2,0,2,7)
  ShowMessage("\\n<Ilias (Affection:\\V[3026])>I'm surprised by your appearance as well...")
  ShowMessageFace("saniria_fc2",0,0,2,8)
  ShowMessage("\\n<King of San Ilia (Affection:\\V[3531])>Well, no matter what forms we take, I shall dedicate my flesh and blood to your service.")
  ShowMessageFace("iriasu_fc4",2,0,2,9)
  ShowMessage("\\n<Ilias (Affection:\\V[3026])>Even though your flesh is mechanical and your blood is oil? Well, no matter. I expect great things from you.")
  JumpToLabel("メニュー")
  DefineLabel("34")
  ShowMessageFace("micaelac_fc1",0,0,2,10)
  ShowMessage("\\n<Micaela-chan (Affection:\\V[3034])>Pope, I've finished reading McNeil's History of Celebration. I feel like the conclusion of Chapter 5 was a little out of place...")
  ShowMessageFace("saniria_fc2",0,0,2,11)
  ShowMessage("\\n<King of San Ilia>Hmm, you've read it well.\nI'm certain that part was someone else's revision.")
  ShowMessageFace("rucyfinac_fc1",0,0,2,12)
  ShowMessage("\\n<Lucifina-chan (Affection:\\V[3036])>Read a picture book with me, Mecha Pope!")
  ShowMessageFace("saniria_fc2",0,0,2,13)
  ShowMessage("\\n<King of San Ilia>Well, please wait a little while.\nI'm reading \"The Adventures of Pirates\" together with the fairies.")
  ShowMessageFace("rucyfinac_fc1",1,0,2,14)
  ShowMessage("\\n<Lucifina-chan (Affection:\\V[3036])>Yaaay! ♪")
  JumpToLabel("メニュー")
  DefineLabel("72")
  ShowMessageFace("phoenix_fc1",4,0,2,15)
  ShowMessage("\\n<Mini (Affection:\\V[3072])>Oh, it's the king! Let's play together!")
  ShowMessageFace("saniria_fc2",0,0,2,16)
  ShowMessage("\\n<King of San Ilia (Affection:\\V[3531])>All right, what do you want to play?")
  ShowMessageFace("phoenix_fc1",1,0,2,17)
  ShowMessage("\\n<Mini (Affection:\\V[3072])>I'll get in a pot, and then I want you to set a fire underneath.")
  ShowMessageFace("saniria_fc2",0,0,2,18)
  ShowMessage("\\n<King of San Ilia (Affection:\\V[3531])>That's... What kind of game is that?")
  JumpToLabel("メニュー")
  DefineLabel("86")
  ShowMessageFace("saniria_fc2",0,0,2,19)
  ShowMessage("\\n<King of San Ilia (Affection:\\V[3531])>So there are even monsters who follow the teachings of Ilias... All are equal before the Goddess. It is a true pleasure.")
  ShowMessageFace("name_s_fc1",0,0,2,20)
  ShowMessage("\\n<Rosary (Affection:\\V[3086])>You are the King of San Ilia... I am still immature. Please show me the way.")
  ShowMessageFace("saniria_fc2",0,0,2,21)
  ShowMessage("\\n<King of San Ilia (Affection:\\V[3531])>Was it you who ruined my vegetable garden? That slime-covered veil looks familiar...")
  JumpToLabel("メニュー")
  DefineLabel("122")
  ShowMessageFace("saniria_fc2",0,0,2,22)
  ShowMessage("\\n<King of San Ilia (Affection:\\V[3531])>So there are even monsters who follow the teachings of Ilias... All are equal before the Goddess. It is a true pleasure.")
  ShowMessageFace("sisterlamia_fc1",0,0,2,23)
  ShowMessage("\\n<Sofia (Affection:\\V[3122])>I am often looked at with bias, but I want to spread the teachings of Ilias to the whole world.")
  ShowMessageFace("sisterlamia_fc1",4,0,2,24)
  ShowMessage("\\n<Sofia (Affection:\\V[3122])>King of San Ilia, head of the church... Please guide me as well.")
  ShowMessageFace("saniria_fc2",0,0,2,25)
  ShowMessage("\\n<King of San Ilia (Affection:\\V[3531])>Your smile is scary... First, keep in mind that a natural smile is best.")
  JumpToLabel("メニュー")
  DefineLabel("123")
  ShowMessageFace("saniria_fc2",0,0,2,26)
  ShowMessage("\\n<King of San Ilia (Affection:\\V[3531])>So there are even monsters who follow the teachings of Ilias... All are equal before the Goddess. It is a true pleasure.")
  ShowMessageFace("sisccubus_fc1",2,0,2,27)
  ShowMessage("\\n<Christie (Affection:\\V[3123])>King of San Ilia... Please give me guidance on how to stop my desires.")
  ShowMessageFace("saniria_fc2",0,0,2,28)
  ShowMessage("\\n<King of San Ilia (Affection:\\V[3531])>...Stop roaming around naked at night.")
  JumpToLabel("メニュー")
  DefineLabel("128")
  ShowMessageFace("saniria_fc2",0,0,2,29)
  ShowMessage("\\n<King of San Ilia (Affection:\\V[3531])>You also had cyborg surgery?")
  ShowMessageFace("kaniloid_fc1",0,0,2,30)
  ShowMessage("\\n<Jillian (Affection:\\V[3128])>Yes, but... This is my first time seeing a human who's like me.")
  ShowMessageFace("saniria_fc2",0,0,2,31)
  ShowMessage("\\n<King of San Ilia (Affection:\\V[3531])>Let's both do our best to make the whole world mechanical.")
  ShowMessageFace("kaniloid_fc1",2,0,2,32)
  ShowMessage("\\n<Jillian (Affection:\\V[3128])>........?!")
  ShowMessageFace("saniria_fc2",0,0,2,33)
  ShowMessage("\\n<King of San Ilia (Affection:\\V[3531])>...That was a joke.")
  JumpToLabel("メニュー")
  DefineLabel("139")
  ShowMessageFace("saniria_fc2",0,0,2,34)
  ShowMessage("\\n<King of San Ilia (Affection:\\V[3531])>Oh, fairies. I'll read a story for you.")
  ShowMessageFace("fairys_fc1",3,0,2,35)
  ShowMessage("\\n<Fairies (Affection:\\V[3139])>Yaaay! Gather round!")
  ShowMessageFace("sonia_fc1",0,0,2,36)
  ShowMessage("\\n<Sonya>You seem on good terms with those fairies, Your Holiness.")
  ShowMessageFace("saniria_fc2",0,0,2,37)
  ShowMessage("\\n<King of San Ilia (Affection:\\V[3531])>They started coming to the castle a while ago. Now, to the picture book. 'The judgment of the Goddess burned the sinner...'")
  ShowMessageFace("sonia_fc3",2,0,2,38)
  ShowMessage("\\n<Sonya>(You're doing missionary work?!)")
  JumpToLabel("メニュー")
  DefineLabel("520")
  ShowMessageFace("saniria_fc2",0,0,2,39)
  ShowMessage("\\n<King of San Ilia (Affection:\\V[3531])>I need to have a talk with you...")
  ShowMessageFace("lazarus3_fc1",0,0,2,40)
  ShowMessage("\\n<Lazarus (Affection:\\V[3520])>So, do I have the right to remain silent?\nOr will that be used as unfavorable evidence in the courtroom?")
  ShowMessageFace("lazarus3_fc1",0,0,2,41)
  ShowMessage("\\n<Lazarus (Affection:\\V[3520])>Do I have the right to call a lawyer?\nAm I able to call on a public defender when I have no money?")
  ShowMessageFace("saniria_fc2",0,0,2,42)
  ShowMessage("\\n<King of San Ilia (Affection:\\V[3531])>This isn't an investigation... That's why I want to hear this in plain words. Why did you have your sights set on me that time?")
  ShowMessageFace("lazarus3_fc1",1,0,2,43)
  ShowMessage("\\n<Lazarus (Affection:\\V[3520])>You assumed the terrorist bombing was the work of a criminal organization. Naturally, that's a tentative story amounting to little more than talking with your imagination.")
  ShowMessageFace("lazarus3_fc1",1,0,2,44)
  ShowMessage("\\n<Lazarus (Affection:\\V[3520])>You think there's someone in that criminal organization who requested the assassination of the pope, isn't there? Someone who wants to make a mess of this world...I suppose.")
  ShowMessageFace("lazarus3_fc1",1,0,2,45)
  ShowMessage("\\n<Lazarus (Affection:\\V[3520])>Thing is even if they killed him, they'd make fitting assholes of themselves. That criminal organization would also make an enemy of an entire country for making a move against the Pope.")
  ShowMessageFace("saniria_fc2",0,0,2,46)
  ShowMessage("\\n<King of San Ilia (Affection:\\V[3531])>That's right, after all...")
  ShowMessageFace("lazarus3_fc1",0,0,2,47)
  ShowMessage("\\n<Lazarus (Affection:\\V[3520])>Generally, it should be just what you're thinking... It was all one big picture, all of which included the Great War.")
  ShowMessageFace("lazarus3_fc1",0,0,2,48)
  ShowMessage("\\n<Lazarus (Affection:\\V[3520])>...that's it, all I've got left are hypothetical arguments. That means there's no evidence of culpability in this recording.")
  ShowMessageFace("saniria_fc2",0,0,2,49)
  ShowMessage("\\n<King of San Ilia (Affection:\\V[3531])>...So you noticed I was recording this.")
  ShowMessageFace("lazarus3_fc1",0,0,2,50)
  ShowMessage("\\n<Lazarus (Affection:\\V[3520])>I know your way of doing things, Mecha Pope.")
  JumpToLabel("メニュー")
  DefineLabel("522")
  ShowMessageFace("saniria_fc2",0,0,2,51)
  ShowMessage("\\n<King of San Ilia (Affection:\\V[3531])>Merlin... The Don Father of the table.\nYou aren't confined to just being the shadow commander, but also the Don's confidant.")
  ShowMessageFace("merlin_fc1",0,0,2,52)
  ShowMessage("\\n<Merlin (Affection:\\V[3522])>Let's stop trying to dig out the root of evil in a place like this. We cannot afford to inconvenience Mr. Luka's party.")
  ShowMessageFace("saniria_fc2",0,0,2,53)
  ShowMessage("\\n<King of San Ilia (Affection:\\V[3531])>I'll be sure to drag you out before the law...\n...but here, I would like to be your companion.")
  ShowMessageFace("merlin_fc1",0,0,2,54)
  ShowMessage("\\n<Merlin (Affection:\\V[3522])>Then let's refrain from mixing public and private conflicts with one another. Shall we defer the root of evil to the halls of justice then?")
  ShowMessageFace("saniria_fc2",0,0,2,55)
  ShowMessage("\\n<King of San Ilia (Affection:\\V[3531])>............")
  ShowMessageFace("merlin_fc1",0,0,2,56)
  ShowMessage("\\n<Merlin (Affection:\\V[3522])>............")
  JumpToLabel("メニュー")
  DefineLabel("529")
  ShowMessageFace("saniria_fc2",0,0,2,57)
  ShowMessage("\\n<King of San Ilia (Affection:\\V[3531])>Oh my, the Princess of Sabasa... No, you're the Queen now, aren't you. Your father told me to look after you if something were to happen with him.")
  ShowMessageFace("sara_fc1",3,0,2,58)
  ShowMessage("\\n<Sara (Affection:\\V[3529])>It has been quite a while, King of San Ilia. By 'if something were to happen,' did he mean... in case he died?")
  ShowMessageFace("saniria_fc2",0,0,2,59)
  ShowMessage("\\n<King of San Ilia (Affection:\\V[3531])>No, he meant in case he ran away from home or left for an adventure. That kind of thing.")
  ShowMessageFace("sara_fc1",4,0,2,60)
  ShowMessage("\\n<Sara (Affection:\\V[3529])>Father... Are you a kid...?")
  JumpToLabel("メニュー")
  DefineLabel("535")
  ShowMessageFace("saniria_fc2",0,0,2,61)
  ShowMessage("\\n<King of San Ilia (Affection:\\V[3531])>King of Grangold...\nIt appears we have both stopped being human.")
  ShowMessageFace("grangold_fc2",0,0,2,62)
  ShowMessage("\\n<King of Grangold (Affection:\\V[3535])>Yes...it has been very troubling.\nBut this body does have its uses at times.")
  ShowMessageFace("saniria_fc2",0,0,2,63)
  ShowMessage("\\n<King of San Ilia (Affection:\\V[3531])>By the way... Why don't you become mechanical while you're at it?")
  ShowMessageFace("grangold_fc2",0,0,2,64)
  ShowMessage("\\n<King of Grangold (Affection:\\V[3535])>Incidentally... Will you not head towards the direction of the shining light?")
  If(0,6,0)
   ShowMessageFace("sonia_fc3",2,0,2,65)
   ShowMessage("\\n<Sonya>Are you persuading each other into something dangerous?!")
   0()
  EndIf()
  JumpToLabel("メニュー")
  DefineLabel("538")
  ShowMessageFace("saniria_fc2",0,0,2,66)
  ShowMessage("\\n<King of San Ilia (Affection:\\V[3531])>You are the hero Heinrich...\nAfter 500 years, there is no one who doesn't know of your fame.")
  ShowMessageFace("heinrich_fc1",7,0,2,67)
  ShowMessage("\\n<Heinrich (Affection:\\V[3538])>That Heinrich is different from the one before you. I'm still in the middle of my quest to defeat the Monster Lord.")
  ShowMessageFace("heinrich_fc1",2,0,2,68)
  ShowMessage("\\n<Heinrich (Affection:\\V[3538])>But what's with that form...?\nAre all priests mechanized in the world of the future?")
  ShowMessageFace("saniria_fc2",0,0,2,69)
  ShowMessage("\\n<King of San Ilia (Affection:\\V[3531])>If that were the case, it would be a very enjoyable dystopia... Unfortunately, I'm an exception.")
  JumpToLabel("メニュー")
  DefineLabel("メニュー")
  StartLoop()
   355("unlimited_choices(11, [\"Give presents\",")
   655("\"Add to party\",")
   655("\"View present list\",\"Never mind\"])")
   If(1,11,0,0,0)
    355("present_start(531)")
    0()
   EndIf()
   If(1,11,0,1,0)
    PictureClear(5)
    355("move_actor_ex(531)")
    EndEventProcessing()
    0()
   EndIf()
   If(1,11,0,2,0)
    ShowMessageFace("",0,0,2,70)
    ShowMessage("Affection     100:\\ia[1031]")
    ShowMessage("Affection     500:\\ia[1261]")
    ShowMessage("Affection   2000:\\ia[1127]")
    ShowMessage("Affection   4000:\\ia[1034]")
    0()
   EndIf()
   If(1,11,0,3,1)
    PictureClear(5)
    EndEventProcessing()
    0()
   EndIf()
   0()
  EndLoop()
  0()
 PAGE   2
  // condition: party contains actor #531
  0()



EVENT   5
 PAGE   1
  // condition: switch 1533 is ON
  If(1,1090,0,1,0)
   RunCommonEvent(362)
   0()
  EndIf()
  PictureDisplay(5,"80_grandnoa_st01",0,0,0,0,100,100,0,0)
  PictureMove(5,null,0,0,0,0,100,100,255,0,30,true)
  If(1,3533,0,100,1)
   If(1,4533,0,0,0)
    ChangeVariable(4533,4533,0,0,1)
    ShowMessageFace("grandnoa_fc1",0,0,2,1)
    ShowMessage("\\n<Queen of Grand Noah (Affection:\\V[3533])>Allow me to give you this.")
    250(bytes(0x04,0x08,0x6f,0x3a,0x0c,0x52,0x50,0x47,0x3a,0x3a,0x53,0x45,0x08,0x3a,0x0a,0x40,0x6e,0x61,0x6d,0x65,0x49,0x22,0x0a,0x49,0x74,0x65,0x6d,0x31,0x06,0x3a,0x06,0x45,0x54,0x3a,0x0b,0x40,0x70,0x69,0x74,0x63,0x68,0x69,0x69,0x3a,0x0c,0x40,0x76,0x6f,0x6c,0x75,0x6d,0x65,0x69,0x55))
    ChangeInventoryArmor(1056,0,0,1,false)
    0()
   EndIf()
   0()
  EndIf()
  If(1,3533,0,500,1)
   If(1,4533,0,1,0)
    ChangeVariable(4533,4533,0,0,2)
    ShowMessageFace("grandnoa_fc1",0,0,2,2)
    ShowMessage("\\n<Queen of Grand Noah (Affection:\\V[3533])>Allow me to give you this.")
    250(bytes(0x04,0x08,0x6f,0x3a,0x0c,0x52,0x50,0x47,0x3a,0x3a,0x53,0x45,0x08,0x3a,0x0a,0x40,0x6e,0x61,0x6d,0x65,0x49,0x22,0x0a,0x49,0x74,0x65,0x6d,0x31,0x06,0x3a,0x06,0x45,0x54,0x3a,0x0b,0x40,0x70,0x69,0x74,0x63,0x68,0x69,0x69,0x3a,0x0c,0x40,0x76,0x6f,0x6c,0x75,0x6d,0x65,0x69,0x55))
    ChangeInventoryArmor(1071,0,0,1,false)
    0()
   EndIf()
   0()
  EndIf()
  If(1,3533,0,2000,1)
   If(1,4533,0,2,0)
    ChangeVariable(4533,4533,0,0,3)
    ShowMessageFace("grandnoa_fc1",0,0,2,3)
    ShowMessage("\\n<Queen of Grand Noah (Affection:\\V[3533])>Allow me to give you this.")
    250(bytes(0x04,0x08,0x6f,0x3a,0x0c,0x52,0x50,0x47,0x3a,0x3a,0x53,0x45,0x08,0x3a,0x0a,0x40,0x6e,0x61,0x6d,0x65,0x49,0x22,0x0a,0x49,0x74,0x65,0x6d,0x31,0x06,0x3a,0x06,0x45,0x54,0x3a,0x0b,0x40,0x70,0x69,0x74,0x63,0x68,0x69,0x69,0x3a,0x0c,0x40,0x76,0x6f,0x6c,0x75,0x6d,0x65,0x69,0x55))
    ChangeInventoryArmor(1168,0,0,1,false)
    0()
   EndIf()
   0()
  EndIf()
  If(1,3533,0,4000,1)
   If(1,4533,0,3,0)
    ChangeVariable(4533,4533,0,0,4)
    ShowMessageFace("grandnoa_fc1",0,0,2,4)
    ShowMessage("\\n<Queen of Grand Noah (Affection:\\V[3533])>Allow me to give you this.")
    250(bytes(0x04,0x08,0x6f,0x3a,0x0c,0x52,0x50,0x47,0x3a,0x3a,0x53,0x45,0x08,0x3a,0x0a,0x40,0x6e,0x61,0x6d,0x65,0x49,0x22,0x0a,0x49,0x74,0x65,0x6d,0x31,0x06,0x3a,0x06,0x45,0x54,0x3a,0x0b,0x40,0x70,0x69,0x74,0x63,0x68,0x69,0x69,0x3a,0x0c,0x40,0x76,0x6f,0x6c,0x75,0x6d,0x65,0x69,0x55))
    ChangeInventoryArmor(1590,0,0,1,false)
    0()
   EndIf()
   0()
  EndIf()
  355("actor_label_jump")
  ShowMessageFace("grandnoa_fc1",0,0,2,5)
  ShowMessage("\\n<Queen of Grand Noah (Affection:\\V[3533])>Ahh, what beautiful medals...")
  JumpToLabel("メニュー")
  DefineLabel("53")
  ShowMessageFace("slime_fc1",0,0,2,6)
  ShowMessage("\\n<Lime (Affection:\\V[3053])>Your majestyyyy! I found a small medaaal!")
  ShowMessageFace("grandnoa_fc1",2,0,2,7)
  ShowMessage("\\n<Queen of Grand Noah (Affection:\\V[3533])>Let's see... Oh, this isn't a medal. Is this a bottle cap?")
  ShowMessageFace("slime_fc1",2,0,2,8)
  ShowMessage("\\n<Lime (Affection:\\V[3053])>Whaaat...? That's disappointing...")
  ShowMessageFace("grandnoa_fc1",1,0,2,9)
  ShowMessage("\\n<Queen of Grand Noah (Affection:\\V[3533])>...But I also collect bottle caps. How about I trade you for a cookie?")
  ShowMessageFace("slime_fc1",0,0,2,10)
  ShowMessage("\\n<Lime (Affection:\\V[3053])>Yaay! Thank youuu!")
  ShowMessageFace("sonia_fc1",0,0,2,11)
  ShowMessage("\\n<Sonya (Affection:\\V[3525])>That's awfully kind of you, your majesty.")
  ShowMessageFace("grandnoa_fc1",1,0,2,12)
  ShowMessage("\\n<Queen of Grand Noah (Affection:\\V[3533])>Oh, it's actually very interesting in it's own way. It's 64 years old, and was made in the Delia Workshop...")
  ShowMessageFace("sonia_fc4",0,0,2,13)
  ShowMessage("\\n<Sonya (Affection:\\V[3525])>(She actually collects bottle caps?)")
  JumpToLabel("メニュー")
  DefineLabel("171")
  ShowMessageFace("lizardboss_fc1",1,0,2,14)
  ShowMessage("\\n<Miranda (Affection:\\V[3171])>Wait, isn't she Grand Noah's...?! I wonder how much I could squeeze out of her if I kidnapped her here...")
  ShowMessageFace("grandnoa_fc1",0,0,2,15)
  ShowMessage("\\n<Queen of Grand Noah (Affection:\\V[3533])>Unfortunately, I am just a mysterious medal queen. You won't be able to ransom me.")
  ShowMessageFace("lizardboss_fc1",3,0,2,16)
  ShowMessage("\\n<Miranda (Affection:\\V[3171])>What? You're not her? Sorry about that.")
  ShowMessageFace("sonia_fc3",2,0,2,17)
  ShowMessage("\\n<Sonya>(She was tricked that easily?!)")
  JumpToLabel("メニュー")
  DefineLabel("212")
  ShowMessageFace("durahan_fc1",0,0,2,18)
  ShowMessage("\\n<Arthur (Affection:\\V[3212])>Your Majesty... This sword shall always be used for your sake!")
  ShowMessageFace("grandnoa_fc1",0,0,2,19)
  ShowMessage("\\n<Queen of Grand Noah (Affection:\\V[3533])>No, I am the queen of unidentified medals...")
  ShowMessageFace("durahan_fc1",2,0,2,20)
  ShowMessage("\\n<Arthur (Affection:\\V[3212])>M-my apologies...")
  ShowMessageFace("grandnoa_fc1",1,0,2,21)
  ShowMessage("\\n<Queen of Grand Noah (Affection:\\V[3533])>Your queen would consider your loyalty to be reassuring. Please continue to fight for your country in the future.")
  ShowMessageFace("durahan_fc1",1,0,2,22)
  ShowMessage("\\n<Arthur (Affection:\\V[3212])>Ha! With pleasure!")
  JumpToLabel("メニュー")
  DefineLabel("213")
  ShowMessageFace("kerberos_fc1",0,0,2,23)
  ShowMessage("\\n<Caesar (Affection:\\V[3213])>My strength is for the sake of Your Majesty!")
  ShowMessageFace("grandnoa_fc1",0,0,2,24)
  ShowMessage("\\n<Queen of Grand Noah (Affection:\\V[3533])>No, I am the queen of unidentified medals...")
  ShowMessageFace("kerberos_fc1",2,0,2,25)
  ShowMessage("\\n<Caesar (Affection:\\V[3213])>How rude of me...")
  ShowMessageFace("grandnoa_fc1",0,0,2,26)
  ShowMessage("\\n<Queen of Grand Noah (Affection:\\V[3533])>No way, did she really not notice...?")
  JumpToLabel("メニュー")
  DefineLabel("233")
  ShowMessageFace("mefist_fc1",0,0,2,27)
  ShowMessage("\\n<Mephisto (Affection:\\V[3233])>Your Majesty... Why have you trusted me thus far? Have you not considered the possibility I could betray you at the last minute?")
  ShowMessageFace("grandnoa_fc1",0,0,2,28)
  ShowMessage("\\n<Queen of Grand Noah (Affection:\\V[3533])>I do not trust you, but I do depend on you.\nDoes your pride not permit you to betray me?")
  ShowMessageFace("mefist_fc1",0,0,2,29)
  ShowMessage("\\n<Mephisto (Affection:\\V[3233])>I see, you have a very good eye for people. Do you respect me based on my sense of values rather than trust?")
  ShowMessageFace("grandnoa_fc1",0,0,2,30)
  ShowMessage("\\n<Queen of Grand Noah (Affection:\\V[3533])>I believe you... Is that what you wanted me to say?")
  ShowMessageFace("mefist_fc1",0,0,2,31)
  ShowMessage("\\n<Mephisto (Affection:\\V[3233])>Yes, of course...")
  JumpToLabel("メニュー")
  DefineLabel("391")
  ShowMessageFace("mefist_fc2",0,0,2,32)
  ShowMessage("\\n<Mephisto (Affection:\\V[3233])>Your Majesty... Why have you trusted me thus far? Have you not considered the possibility I could betray you at the last minute?")
  ShowMessageFace("grandnoa_fc1",0,0,2,33)
  ShowMessage("\\n<Queen of Grand Noah (Affection:\\V[3533])>I do not trust you, but I do depend on you.\nDoes your pride not permit you to betray me?")
  ShowMessageFace("mefist_fc2",0,0,2,34)
  ShowMessage("\\n<Mephisto (Affection:\\V[3233])>I see, you have a very good eye for people. Do you respect me based on my sense of values rather than trust?")
  ShowMessageFace("grandnoa_fc1",0,0,2,35)
  ShowMessage("\\n<Queen of Grand Noah (Affection:\\V[3533])>I believe you... Is that what you wanted me to say?")
  ShowMessageFace("mefist_fc2",0,0,2,36)
  ShowMessage("\\n<Mephisto (Affection:\\V[3233])>Yes, of course...")
  JumpToLabel("メニュー")
  DefineLabel("525")
  ShowMessageFace("sonia_fc2",2,0,2,37)
  ShowMessage("\\n<Sonya (Affection:\\V[3525])>Umm, is this really okay? You're out on an adventure even though you're a queen...")
  ShowMessageFace("grandnoa_fc1",0,0,2,38)
  ShowMessage("\\n<Queen of Grand Noah (Affection:\\V[3533])>Meda-- ...Ensuring the safety of the world is part of a ruler's duties. To that end, it is appropriate for me to be willing to go on a long journey.")
  ShowMessageFace("sonia_fc4",0,0,2,39)
  ShowMessage("\\n<Sonya (Affection:\\V[3525])>(...She almost said 'medals.')")
  JumpToLabel("メニュー")
  DefineLabel("529")
  ShowMessageFace("sara_fc1",1,0,2,40)
  ShowMessage("\\n<Sara (Affection:\\V[3529])>The Queen of Grand Noah. Long time no see.")
  ShowMessageFace("grandnoa_fc1",0,0,2,41)
  ShowMessage("\\n<Queen of Grand Noah (Affection:\\V[3533])>Oh my, who have you mistaken me for? I am just a mysterious medal queen.")
  ShowMessageFace("sara_fc1",4,0,2,42)
  ShowMessage("\\n<Sara (Affection:\\V[3529])>You're that determined to keep up your persona?")
  JumpToLabel("メニュー")
  DefineLabel("535")
  ShowMessageFace("grangold_fc2",0,0,2,43)
  ShowMessage("\\n<King of Grangold (Affection:\\V[3535])>Queen of Grand Noah... Although we are fellow cousins, it has been a very long time. You seem to have changed since I last saw you at the banquet about a decade ago.")
  ShowMessageFace("grandnoa_fc1",2,0,2,44)
  ShowMessage("\\n<Queen of Grand Noah (Affection:\\V[3533])>At that time, I had yet to ascend to the throne.\nYou have changed a lot...or rather, you have transformed.")
  ShowMessageFace("grangold_fc2",0,0,2,45)
  ShowMessage("\\n<King of Grangold (Affection:\\V[3535])>Your Majesty, why don't you consider transforming a few stages further?")
  ShowMessageFace("grandnoa_fc1",1,0,2,46)
  ShowMessage("\\n<Queen of Grand Noah (Affection:\\V[3533])>No... I shall refrain.")
  JumpToLabel("メニュー")
  DefineLabel("メニュー")
  StartLoop()
   355("unlimited_choices(11, [\"Give presents\",")
   655("\"Add to party\",")
   655("\"View present list\",\"Never mind\"])")
   If(1,11,0,0,0)
    355("present_start(533)")
    0()
   EndIf()
   If(1,11,0,1,0)
    PictureClear(5)
    355("move_actor_ex(533)")
    EndEventProcessing()
    0()
   EndIf()
   If(1,11,0,2,0)
    ShowMessageFace("",0,0,2,47)
    ShowMessage("Affection     100:\\ia[1056]")
    ShowMessage("Affection     500:\\ia[1071]")
    ShowMessage("Affection   2000:\\ia[1168]")
    ShowMessage("Affection   4000:\\ia[1590]")
    0()
   EndIf()
   If(1,11,0,3,1)
    PictureClear(5)
    EndEventProcessing()
    0()
   EndIf()
   0()
  EndLoop()
  0()
 PAGE   2
  // condition: party contains actor #533
  0()



EVENT   6
 PAGE   1
  // condition: switch 1563 is ON
  355("actor_label_jump")
  ShowMessageFace("People4",7,0,2,1)
  ShowMessage("\\n<Pilate (Affection:\\V[3563])>To take even someone like me with you! Thank you! Thank you!")
  JumpToLabel("メニュー")
  DefineLabel("メニュー")
  ShowChoices(strings("Add to party","Never mind"),2)
  IfPlayerPicksChoice(0,null)
   PictureClear(5)
   355("move_actor_ex(563)")
   EndEventProcessing()
   0()
  IfPlayerPicksChoice(1,null)
   PictureClear(5)
   EndEventProcessing()
   0()
  404()
  0()
 PAGE   2
  // condition: party contains actor #563
  0()



EVENT   7
 PAGE   1
  // condition: switch 1565 is ON
  355("actor_label_jump")
  ShowMessageFace("Actor3",6,0,2,1)
  ShowMessage("\\n<Samson (Affection:\\V[3565])>I am Sabasa's mighty hammer, and my strength is widely praised! Now, let me show you what I do best!")
  JumpToLabel("メニュー")
  DefineLabel("メニュー")
  ShowChoices(strings("Add to party","Never mind"),2)
  IfPlayerPicksChoice(0,null)
   PictureClear(5)
   355("move_actor_ex(565)")
   EndEventProcessing()
   0()
  IfPlayerPicksChoice(1,null)
   PictureClear(5)
   EndEventProcessing()
   0()
  404()
  0()
 PAGE   2
  // condition: party contains actor #565
  0()



EVENT   8
 PAGE   1
  // condition: switch 1564 is ON
  355("actor_label_jump")
  ShowMessageFace("Actor1",4,0,2,1)
  ShowMessage("\\n<John (Affection:\\V[3564])>Do you need my power? I'll show you the spear of judgement known as the Lightning of Ilias.")
  JumpToLabel("メニュー")
  DefineLabel("メニュー")
  ShowChoices(strings("Add to party","Never mind"),2)
  IfPlayerPicksChoice(0,null)
   PictureClear(5)
   355("move_actor_ex(564)")
   EndEventProcessing()
   0()
  IfPlayerPicksChoice(1,null)
   PictureClear(5)
   EndEventProcessing()
   0()
  404()
  0()
 PAGE   2
  // condition: party contains actor #564
  0()



EVENT   9
 PAGE   1
  // condition: switch 1019 is ON
  PictureDisplay(5,"80_arumaeruma_st61",0,0,0,0,100,100,0,0)
  PictureMove(5,null,0,0,0,0,100,100,255,0,30,true)
  If(1,3019,0,2000,1)
   If(1,4019,0,0,0)
    ChangeVariable(4019,4019,0,0,1)
    ShowMessageFace("arumaeruma_fc2",0,0,2,1)
    ShowMessage("\\n<Alma Elma (Affection:\\V[3019])>Here's your present, Luka-boy. ♪")
    250(bytes(0x04,0x08,0x6f,0x3a,0x0c,0x52,0x50,0x47,0x3a,0x3a,0x53,0x45,0x08,0x3a,0x0a,0x40,0x6e,0x61,0x6d,0x65,0x49,0x22,0x0a,0x49,0x74,0x65,0x6d,0x31,0x06,0x3a,0x06,0x45,0x54,0x3a,0x0b,0x40,0x70,0x69,0x74,0x63,0x68,0x69,0x69,0x3a,0x0c,0x40,0x76,0x6f,0x6c,0x75,0x6d,0x65,0x69,0x55))
    ChangeInventoryArmor(1038,0,0,1,false)
    0()
   EndIf()
   0()
  EndIf()
  If(1,3019,0,4000,1)
   If(1,4019,0,1,0)
    ChangeVariable(4019,4019,0,0,2)
    ShowMessageFace("arumaeruma_fc2",0,0,2,2)
    ShowMessage("\\n<Alma Elma (Affection:\\V[3019])>Here's your present, Luka-boy. ♪")
    250(bytes(0x04,0x08,0x6f,0x3a,0x0c,0x52,0x50,0x47,0x3a,0x3a,0x53,0x45,0x08,0x3a,0x0a,0x40,0x6e,0x61,0x6d,0x65,0x49,0x22,0x0a,0x49,0x74,0x65,0x6d,0x31,0x06,0x3a,0x06,0x45,0x54,0x3a,0x0b,0x40,0x70,0x69,0x74,0x63,0x68,0x69,0x69,0x3a,0x0c,0x40,0x76,0x6f,0x6c,0x75,0x6d,0x65,0x69,0x55))
    ChangeInventoryArmor(1152,0,0,1,false)
    0()
   EndIf()
   0()
  EndIf()
  If(1,3019,0,6000,1)
   If(1,4019,0,2,0)
    ChangeVariable(4019,4019,0,0,3)
    ShowMessageFace("arumaeruma_fc2",0,0,2,3)
    ShowMessage("\\n<Alma Elma (Affection:\\V[3019])>Here's your present, Luka-boy. ♪")
    250(bytes(0x04,0x08,0x6f,0x3a,0x0c,0x52,0x50,0x47,0x3a,0x3a,0x53,0x45,0x08,0x3a,0x0a,0x40,0x6e,0x61,0x6d,0x65,0x49,0x22,0x0a,0x49,0x74,0x65,0x6d,0x31,0x06,0x3a,0x06,0x45,0x54,0x3a,0x0b,0x40,0x70,0x69,0x74,0x63,0x68,0x69,0x69,0x3a,0x0c,0x40,0x76,0x6f,0x6c,0x75,0x6d,0x65,0x69,0x55))
    ChangeInventoryArmor(1241,0,0,1,false)
    0()
   EndIf()
   0()
  EndIf()
  If(1,3019,0,10000,1)
   If(1,4019,0,3,0)
    ChangeVariable(4019,4019,0,0,4)
    ShowMessageFace("arumaeruma_fc2",0,0,2,4)
    ShowMessage("\\n<Alma Elma (Affection:\\V[3019])>Here's your present, Luka-boy. ♪")
    250(bytes(0x04,0x08,0x6f,0x3a,0x0c,0x52,0x50,0x47,0x3a,0x3a,0x53,0x45,0x08,0x3a,0x0a,0x40,0x6e,0x61,0x6d,0x65,0x49,0x22,0x0a,0x49,0x74,0x65,0x6d,0x31,0x06,0x3a,0x06,0x45,0x54,0x3a,0x0b,0x40,0x70,0x69,0x74,0x63,0x68,0x69,0x69,0x3a,0x0c,0x40,0x76,0x6f,0x6c,0x75,0x6d,0x65,0x69,0x55))
    ChangeInventoryArmor(1242,0,0,1,false)
    0()
   EndIf()
   0()
  EndIf()
  355("actor_label_jump")
  ShowMessageFace("arumaeruma_fc2",0,0,2,5)
  ShowMessage("\\n<Alma Elma (Affection:\\V[3019])>I'm bored here.\nWhy don't we hold a martial--I mean marital ball?")
  JumpToLabel("メニュー")
  DefineLabel("5")
  ShowMessageFace("alice_fc5",0,0,2,6)
  ShowMessage("\\n<Alice (Affection:\\V[3005])>Alma Elma...\nAs usual, you're acting on your own whims.")
  ShowMessageFace("arumaeruma_fc2",0,0,2,7)
  ShowMessage("\\n<Alma Elma (Affection:\\V[3019])>There's nothing I can do about my nature.\nBut is there anything that even I can't ignore...?")
  ShowMessageFace("alice_fc5",0,0,2,8)
  ShowMessage("\\n<Alice (Affection:\\V[3005])>That's why you're here now...\nI'm counting on your power.")
  ShowMessageFace("arumaeruma_fc2",1,0,2,9)
  ShowMessage("\\n<Alma Elma (Affection:\\V[3019])>Leave it to me, fufufu...♪")
  JumpToLabel("メニュー")
  DefineLabel("56")
  ShowMessageFace("inp_fc1",0,0,2,10)
  ShowMessage("\\n<Rami (Affection:\\V[3056])>Hey hey, Miss Alma Elma!\nCan I become the next Succubus Queen?")
  ShowMessageFace("arumaeruma_fc2",0,0,2,11)
  ShowMessage("\\n<Alma Elma (Affection:\\V[3019])>That will depend on your efforts.\nIf you try your best now, you could make that dream come true...")
  ShowMessageFace("inp_fc1",1,0,2,12)
  ShowMessage("\\n<Rami (Affection:\\V[3056])>Yaaay, I'm going to do my best!\nBy the way Miss Alma Elma, what's your weakness...?")
  ShowMessageFace("arumaeruma_fc2",0,0,2,13)
  ShowMessage("\\n<Alma Elma (Affection:\\V[3019])>(This girl is slowly thinking about overthrowing me...)")
  JumpToLabel("メニュー")
  DefineLabel("57")
  ShowMessageFace("inp_fc3",0,0,2,14)
  ShowMessage("\\n<Rumi (Affection:\\V[3057])>Alma Elma-senpai! Osu!")
  ShowMessageFace("arumaeruma_fc2",0,0,2,15)
  ShowMessage("\\n<Alma Elma (Affection:\\V[3019])>Ufufu...\nRumi, you're always so full of spirit.")
  ShowMessageFace("inp_fc3",0,0,2,16)
  ShowMessage("\\n<Rumi (Affection:\\V[3057])>*fwoosh* *woosh*...")
  ShowMessageFace("arumaeruma_fc2",0,0,2,17)
  ShowMessage("\\n<Alma Elma (Affection:\\V[3019])>Oh, shadow boxing?\nI'll keep you company for a spar.")
  ShowMessageFace("inp_fc3",0,0,2,18)
  ShowMessage("\\n<Rumi (Affection:\\V[3057])>Osu! I'll borrow your chest!")
  ShowMessageFace("arumaeruma_fc2",0,0,2,19)
  ShowMessage("\\n<Alma Elma (Affection:\\V[3019])>Fufu, you're a polite girl...")
  JumpToLabel("メニュー")
  DefineLabel("58")
  ShowMessageFace("inp_fc2",0,0,2,20)
  ShowMessage("\\n<Remi (Affection:\\V[3058])>*tremble*...")
  ShowMessageFace("arumaeruma_fc2",0,0,2,21)
  ShowMessage("\\n<Alma Elma (Affection:\\V[3019])>Don't worry, I'm not going to eat you...")
  ShowMessageFace("inp_fc2",2,0,2,22)
  ShowMessage("\\n<Remi (Affection:\\V[3058])>...*shudder*!")
  ShowMessageFace("arumaeruma_fc2",0,0,2,23)
  ShowMessage("\\n<Alma Elma (Affection:\\V[3019])>You're a really timid girl...\nI wonder if you can sufficiently catch prey?")
  JumpToLabel("メニュー")
  DefineLabel("143")
  ShowMessageFace("eva_fc1",0,0,2,24)
  ShowMessage("\\n<Eva (Affection:\\V[3143])>I know you very well!\nErr...Fuela Nolma!")
  ShowMessageFace("arumaeruma_fc2",0,0,2,25)
  ShowMessage("\\n<Alma Elma (Affection:\\V[3019])>That's a different name.")
  ShowMessageFace("eva_fc1",0,0,2,26)
  ShowMessage("\\n<Eva (Affection:\\V[3143])>I just came up with a great get-rich-quick scheme.\nHora hora, look at this brochure!")
  ShowMessageFace("arumaeruma_fc2",0,0,2,27)
  ShowMessage("\\n<Alma Elma (Affection:\\V[3019])>This girl does things her own way... She might be an unexpected bigshot.")
  JumpToLabel("メニュー")
  DefineLabel("287")
  ShowMessageFace("succubus_fc1",0,0,2,28)
  ShowMessage("\\n<Succubus (Affection:\\V[3287])>Alma Elma... Won't you help me govern the village? We need a strong symbol such as yourself.")
  ShowMessageFace("arumaeruma_fc2",0,0,2,29)
  ShowMessage("\\n<Alma Elma (Affection:\\V[3019])>Your village does not need a symbol. Because you are showing everyone the way as a leader.")
  ShowMessageFace("succubus_fc1",3,0,2,30)
  ShowMessage("\\n<Succubus (Affection:\\V[3287])>But...I am still lacking in ability...")
  ShowMessageFace("arumaeruma_fc2",0,0,2,31)
  ShowMessage("\\n<Alma Elma (Affection:\\V[3019])>If you advocated a wanderer like myself as a symbol, you would immediately disintegrate in the air. Understand that you yourself are the most trusted by the villagers.")
  ShowMessageFace("succubus_fc1",0,0,2,32)
  ShowMessage("\\n<Succubus (Affection:\\V[3287])>I understand...\nAfter this, I'll make my best efforts for the sake of the village.")
  JumpToLabel("メニュー")
  DefineLabel("303")
  ShowMessageFace("arumaeruma_fc2",0,0,2,33)
  ShowMessage("\\n<Alma Elma (Affection:\\V[3019])>Oh, it is unusual to see a harp monster...\nCan I play you for just a moment?")
  ShowMessageFace("jeraira_fc1",0,0,2,34)
  ShowMessage("\\n<Jellaila (Affection:\\V[3303])>I see you are someone acquainted with music.\nPlease strum me to your heart's content...")
  ShowMessageFace("arumaeruma_fc2",0,0,2,35)
  ShowMessage("\\n<Alma Elma (Affection:\\V[3019])>Well then, I shall take advantage of your words... Ufufu, it sounds very good...♪")
  ShowMessageFace("jeraira_fc1",0,0,2,36)
  ShowMessage("\\n<Jellaila (Affection:\\V[3303])>Ahh, what delicate handling...\nTo make me feel this way...")
  JumpToLabel("メニュー")
  DefineLabel("341")
  ShowMessageFace("lilith_fc1",0,0,2,37)
  ShowMessage("\\n<Lilith & Lilim (Affection:\\V[3341])>Alma Elma... You are the queen of this era.\nBut when we saw you...")
  ShowMessageFace("arumaeruma_fc2",0,0,2,38)
  ShowMessage("\\n<Alma Elma (Affection:\\V[3019])>...I've heard it so often from my mother.")
  ShowMessageFace("lilith_fc1",0,0,2,39)
  ShowMessage("\\n<Lilith & Lilim (Affection:\\V[3341])>Shall we teach you the sweet pleasure of the succubi...?")
  ShowMessageFace("arumaeruma_fc2",0,0,2,40)
  ShowMessage("\\n<Alma Elma (Affection:\\V[3019])>I'm good enough for now, fufufu...")
  JumpToLabel("メニュー")
  DefineLabel("349")
  ShowMessageFace("monk_sucubuss_fc1",0,0,2,41)
  ShowMessage("\\n<Elza (Affection:\\V[3349])>Alma Elma, there are rumors that you are a master of martial arts, but... Are they true?")
  ShowMessageFace("arumaeruma_fc2",0,0,2,42)
  ShowMessage("\\n<Alma Elma (Affection:\\V[3019])>Now, I wonder about that...fufu.")
  ShowMessageFace("monk_sucubuss_fc1",0,0,2,43)
  ShowMessage("\\n<Elza (Affection:\\V[3349])>A few years ago, a succubus appeared and mysteriously defeated everyone at a dojo.\nThere are rumors that she attacked various dojos everywhere...")
  ShowMessageFace("arumaeruma_fc2",7,0,2,44)
  ShowMessage("\\n<Alma Elma (Affection:\\V[3019])>Well, I wonder if what you saw was a dream...?")
  JumpToLabel("メニュー")
  DefineLabel("382")
  ShowMessageFace("morrigan_fc1",0,0,2,45)
  ShowMessage("\\n<Morrigan (Affection:\\V[3382])>Wow, it's the violent Succubus Queen!\nDidn't your mom ever get angry at you?")
  ShowMessageFace("arumaeruma_fc2",7,0,2,46)
  ShowMessage("\\n<Alma Elma (Affection:\\V[3019])>Of course she got angry... In the end, she disowned me.\nI never met my mother again after that and eventually, she passed away.")
  ShowMessageFace("morrigan_fc1",2,0,2,47)
  ShowMessage("\\n<Morrigan (Affection:\\V[3382])>Oops, I said something inappropriate...")
  ShowMessageFace("arumaeruma_fc2",7,0,2,48)
  ShowMessage("\\n<Alma Elma (Affection:\\V[3019])>Well, I was a poorly-behaved daughter.\nI just wish I had been more devoted to my parents.")
  JumpToLabel("メニュー")
  DefineLabel("メニュー")
  StartLoop()
   355("unlimited_choices(11, [\"Give presents\",")
   655("\"Add to party\",")
   655("\"View present list\",\"Make a request\",")
   655("\"Never mind\"])")
   If(1,11,0,0,0)
    355("present_start(19)")
    0()
   EndIf()
   If(1,11,0,1,0)
    PictureClear(5)
    355("move_actor_ex(19)")
    EndEventProcessing()
    0()
   EndIf()
   If(1,11,0,2,0)
    ShowMessageFace("",0,0,2,49)
    ShowMessage("Affection    2000:\\ia[1038]")
    ShowMessage("Affection    4000:\\ia[1152]")
    ShowMessage("Affection    6000:\\ia[1241]")
    ShowMessage("Affection  10000:\\ia[1242]")
    0()
   EndIf()
   If(1,11,0,3,0)
    PictureClear(5)
    ShowMessageFace("",0,0,2,50)
    ShowMessage("Ask her for what? (Affection:\\V[3019])")
    ShowChoices(strings("Handjob(Affection:10)","Tail Swallow(Affection:50)","Reverse Rape(Affection:100)","Never mind"),4)
    IfPlayerPicksChoice(0,null)
     If(1,3019,0,10,1)
      355("call_novel_scene(5731)")
      EndEventProcessing()
      0()
     Else()
      ShowMessageFace("arumaeruma_fc2",0,0,2,51)
      ShowMessage("\\n<Alma Elma (Affection:\\V[3019])>Give it more time, ufufu...")
      0()
     EndIf()
     0()
    IfPlayerPicksChoice(1,null)
     If(1,3019,0,50,1)
      355("call_novel_scene(5732)")
      EndEventProcessing()
      0()
     Else()
      ShowMessageFace("arumaeruma_fc2",0,0,2,52)
      ShowMessage("\\n<Alma Elma (Affection:\\V[3019])>Give it more time, ufufu...")
      0()
     EndIf()
     0()
    IfPlayerPicksChoice(2,null)
     If(1,3019,0,100,1)
      355("call_novel_scene(5733)")
      EndEventProcessing()
      0()
     Else()
      ShowMessageFace("arumaeruma_fc2",0,0,2,53)
      ShowMessage("\\n<Alma Elma (Affection:\\V[3019])>Give it more time, ufufu...")
      0()
     EndIf()
     0()
    IfPlayerPicksChoice(3,null)
     0()
    404()
    0()
   EndIf()
   If(1,11,0,4,1)
    PictureClear(5)
    EndEventProcessing()
    0()
   EndIf()
   0()
  EndLoop()
  0()
 PAGE   2
  // condition: party contains actor #19
  0()



EVENT   10
 PAGE   1
  // condition: switch 1535 is ON
  If(1,1082,0,1,0)
   RunCommonEvent(360)
   EndEventProcessing()
   0()
  EndIf()
  PictureDisplay(5,"80_grangold_st11b",0,0,0,0,100,100,0,0)
  PictureMove(5,null,0,0,0,0,100,100,255,0,30,true)
  If(1,3535,0,500,1)
   If(1,4535,0,0,0)
    ChangeVariable(4535,4535,0,0,1)
    ShowMessageFace("grangold_fc2",0,0,2,1)
    ShowMessage("\\n<King of Grangold (Affection:\\V[3535])>Please, I want you to make use of this in your travels.")
    250(bytes(0x04,0x08,0x6f,0x3a,0x0c,0x52,0x50,0x47,0x3a,0x3a,0x53,0x45,0x08,0x3a,0x0a,0x40,0x6e,0x61,0x6d,0x65,0x49,0x22,0x0a,0x49,0x74,0x65,0x6d,0x31,0x06,0x3a,0x06,0x45,0x54,0x3a,0x0b,0x40,0x70,0x69,0x74,0x63,0x68,0x69,0x69,0x3a,0x0c,0x40,0x76,0x6f,0x6c,0x75,0x6d,0x65,0x69,0x55))
    ChangeInventoryArmor(1092,0,0,1,false)
    0()
   EndIf()
   0()
  EndIf()
  If(1,3535,0,2000,1)
   If(1,4535,0,1,0)
    ChangeVariable(4535,4535,0,0,2)
    ShowMessageFace("grangold_fc2",0,0,2,2)
    ShowMessage("\\n<King of Grangold (Affection:\\V[3535])>Please, I want you to make use of this in your travels.")
    250(bytes(0x04,0x08,0x6f,0x3a,0x0c,0x52,0x50,0x47,0x3a,0x3a,0x53,0x45,0x08,0x3a,0x0a,0x40,0x6e,0x61,0x6d,0x65,0x49,0x22,0x0a,0x49,0x74,0x65,0x6d,0x31,0x06,0x3a,0x06,0x45,0x54,0x3a,0x0b,0x40,0x70,0x69,0x74,0x63,0x68,0x69,0x69,0x3a,0x0c,0x40,0x76,0x6f,0x6c,0x75,0x6d,0x65,0x69,0x55))
    ChangeInventoryArmor(1192,0,0,1,false)
    0()
   EndIf()
   0()
  EndIf()
  If(1,3535,0,4000,1)
   If(1,4535,0,2,0)
    ChangeVariable(4535,4535,0,0,3)
    ShowMessageFace("grangold_fc2",0,0,2,3)
    ShowMessage("\\n<King of Grangold (Affection:\\V[3535])>Please, I want you to make use of this in your travels.")
    250(bytes(0x04,0x08,0x6f,0x3a,0x0c,0x52,0x50,0x47,0x3a,0x3a,0x53,0x45,0x08,0x3a,0x0a,0x40,0x6e,0x61,0x6d,0x65,0x49,0x22,0x0a,0x49,0x74,0x65,0x6d,0x31,0x06,0x3a,0x06,0x45,0x54,0x3a,0x0b,0x40,0x70,0x69,0x74,0x63,0x68,0x69,0x69,0x3a,0x0c,0x40,0x76,0x6f,0x6c,0x75,0x6d,0x65,0x69,0x55))
    ChangeInventoryArmor(1597,0,0,1,false)
    0()
   EndIf()
   0()
  EndIf()
  If(1,3535,0,6000,1)
   If(1,4535,0,3,0)
    ChangeVariable(4535,4535,0,0,4)
    ShowMessageFace("grangold_fc2",0,0,2,4)
    ShowMessage("\\n<King of Grangold (Affection:\\V[3535])>Please, I want you to make use of this in your travels.")
    250(bytes(0x04,0x08,0x6f,0x3a,0x0c,0x52,0x50,0x47,0x3a,0x3a,0x53,0x45,0x08,0x3a,0x0a,0x40,0x6e,0x61,0x6d,0x65,0x49,0x22,0x0a,0x49,0x74,0x65,0x6d,0x31,0x06,0x3a,0x06,0x45,0x54,0x3a,0x0b,0x40,0x70,0x69,0x74,0x63,0x68,0x69,0x69,0x3a,0x0c,0x40,0x76,0x6f,0x6c,0x75,0x6d,0x65,0x69,0x55))
    ChangeInventoryArmor(1030,0,0,1,false)
    0()
   EndIf()
   0()
  EndIf()
  355("actor_label_jump")
  ShowMessageFace("grangold_fc2",0,0,2,5)
  ShowMessage("\\n<King of Grangold (Affection:\\V[3535])>This castle is pleasantly spacious...\nWould you mind exchanging it for my storehouse?")
  JumpToLabel("メニュー")
  DefineLabel("268")
  ShowMessageFace("grangold_fc2",0,0,2,6)
  ShowMessage("\\n<King of Grangold (Affection:\\V[3535])>Queen Ant...\nOur alliance shall last for many years to come.")
  ShowMessageFace("queenant_fc1",0,0,2,7)
  ShowMessage("\\n<Antine Ann (Affection:\\V[3268])>Yes, likewise.\nMy daughters' favorite food is sugar water, please be sure to give it to them.")
  ShowMessageFace("grangold_fc2",0,0,2,8)
  ShowMessage("\\n<King of Grangold (Affection:\\V[3535])>Yes, of course...")
  ShowMessageFace("queenant_fc1",0,0,2,9)
  ShowMessage("\\n<Antine Ann (Affection:\\V[3268])>Also, please give me a castella as an afternoon snack. And on holidays, a cake and some black tea...")
  ShowMessageFace("grangold_fc2",0,0,2,10)
  ShowMessage("\\n<King of Grangold (Affection:\\V[3535])>These are some excessive favors...\nNo, I should think of her as my girl.")
  JumpToLabel("メニュー")
  DefineLabel("530")
  ShowMessageFace("grangold_fc2",0,0,2,11)
  ShowMessage("\\n<King of Grangold (Affection:\\V[3535])>We've both undergone great hardship, Queen of Sabasa. To have become these forms...")
  ShowMessageFace("sara_fc4",0,0,2,12)
  ShowMessage("\\n<Sara (Affection:\\V[3529])>Really? I'm having fun...ufufu.\nA lustful pink aura comes out of me.")
  ShowMessageFace("grangold_fc2",0,0,2,13)
  ShowMessage("\\n<King of Grangold (Affection:\\V[3535])>Beams and strange lights come out of me...\nIt's completely unsuitable for incognito enjoyment.")
  ShowMessageFace("sara_fc4",2,0,2,14)
  ShowMessage("\\n<Sara (Affection:\\V[3529])>That must be difficult...")
  JumpToLabel("メニュー")
  DefineLabel("531")
  ShowMessageFace("saniria_fc2",0,0,2,15)
  ShowMessage("\\n<King of San Ilia (Affection:\\V[3531])>King of Grangold...\nIt appears we have both stopped being human.")
  ShowMessageFace("grangold_fc2",0,0,2,16)
  ShowMessage("\\n<King of Grangold (Affection:\\V[3535])>Yes...it has been very troubling.\nBut this body does have its uses at times.")
  ShowMessageFace("saniria_fc2",0,0,2,17)
  ShowMessage("\\n<King of San Ilia (Affection:\\V[3531])>By the way... Why don't you become mechanical while you're at it?")
  ShowMessageFace("grangold_fc2",0,0,2,18)
  ShowMessage("\\n<King of Grangold (Affection:\\V[3535])>Incidentally... Will you not head towards the direction of the shining light?")
  If(0,6,0)
   ShowMessageFace("sonia_fc3",2,0,2,19)
   ShowMessage("\\n<Sonya>Are you persuading each other into something dangerous?!")
   0()
  EndIf()
  JumpToLabel("メニュー")
  DefineLabel("533")
  ShowMessageFace("grangold_fc2",0,0,2,20)
  ShowMessage("\\n<King of Grangold (Affection:\\V[3535])>Queen of Grand Noah... Although we are fellow cousins, it has been a very long time. You seem to have changed since I last saw you at the banquet about a decade ago.")
  ShowMessageFace("grandnoa_fc1",2,0,2,21)
  ShowMessage("\\n<Queen of Grand Noah (Affection:\\V[3533])>At that time, I had yet to ascend to the throne.\nYou have changed a lot...or rather, you have transformed.")
  ShowMessageFace("grangold_fc2",0,0,2,22)
  ShowMessage("\\n<King of Grangold (Affection:\\V[3535])>Your Majesty, why don't you consider transforming a few stages further?")
  ShowMessageFace("grandnoa_fc1",1,0,2,23)
  ShowMessage("\\n<Queen of Grand Noah (Affection:\\V[3533])>No... I shall refrain.")
  JumpToLabel("メニュー")
  DefineLabel("メニュー")
  StartLoop()
   355("unlimited_choices(11, [\"Give presents\",")
   655("\"Add to party\",")
   655("\"View present list\",\"Never mind\"])")
   If(1,11,0,0,0)
    355("present_start(535)")
    0()
   EndIf()
   If(1,11,0,1,0)
    PictureClear(5)
    355("move_actor_ex(535)")
    EndEventProcessing()
    0()
   EndIf()
   If(1,11,0,2,0)
    ShowMessageFace("",0,0,2,24)
    ShowMessage("Affection     500:\\ia[1092]")
    ShowMessage("Affection   2000:\\ia[1192]")
    ShowMessage("Affection   4000:\\ia[1597]")
    ShowMessage("Affection   6000:\\ia[1030]")
    0()
   EndIf()
   If(1,11,0,3,1)
    PictureClear(5)
    EndEventProcessing()
    0()
   EndIf()
   0()
  EndLoop()
  0()
 PAGE   2
  // condition: party contains actor #535
  0()



EVENT   11
 PAGE   1
  // condition: switch 1045 is ON
  PictureDisplay(5,"80_alicetromeria_st01",0,0,0,0,100,100,0,0)
  PictureMove(5,null,0,0,0,0,100,100,255,0,30,true)
  If(1,3045,0,10,1)
   If(1,4045,0,0,0)
    ChangeVariable(4045,4045,0,0,1)
    ShowMessageFace("alicetromeria_fc1",0,0,2,1)
    ShowMessage("\\n<Alicetroemeria (Affection:\\V[3045])>This is a present, ufufu...")
    250(bytes(0x04,0x08,0x6f,0x3a,0x0c,0x52,0x50,0x47,0x3a,0x3a,0x53,0x45,0x08,0x3a,0x0a,0x40,0x6e,0x61,0x6d,0x65,0x49,0x22,0x0a,0x49,0x74,0x65,0x6d,0x31,0x06,0x3a,0x06,0x45,0x54,0x3a,0x0b,0x40,0x70,0x69,0x74,0x63,0x68,0x69,0x69,0x3a,0x0c,0x40,0x76,0x6f,0x6c,0x75,0x6d,0x65,0x69,0x55))
    ChangeInventory_Item(416,0,0,1)
    0()
   EndIf()
   0()
  EndIf()
  If(1,3045,0,100,1)
   If(1,4045,0,1,0)
    ChangeVariable(4045,4045,0,0,2)
    ShowMessageFace("alicetromeria_fc1",0,0,2,2)
    ShowMessage("\\n<Alicetroemeria (Affection:\\V[3045])>This is a present, ufufu...")
    250(bytes(0x04,0x08,0x6f,0x3a,0x0c,0x52,0x50,0x47,0x3a,0x3a,0x53,0x45,0x08,0x3a,0x0a,0x40,0x6e,0x61,0x6d,0x65,0x49,0x22,0x0a,0x49,0x74,0x65,0x6d,0x31,0x06,0x3a,0x06,0x45,0x54,0x3a,0x0b,0x40,0x70,0x69,0x74,0x63,0x68,0x69,0x69,0x3a,0x0c,0x40,0x76,0x6f,0x6c,0x75,0x6d,0x65,0x69,0x55))
    ChangeInventoryArmor(1041,0,0,1,false)
    0()
   EndIf()
   0()
  EndIf()
  If(1,3045,0,500,1)
   If(1,4045,0,2,0)
    ChangeVariable(4045,4045,0,0,3)
    ShowMessageFace("alicetromeria_fc1",0,0,2,3)
    ShowMessage("\\n<Alicetroemeria (Affection:\\V[3045])>This is a present, ufufu...")
    250(bytes(0x04,0x08,0x6f,0x3a,0x0c,0x52,0x50,0x47,0x3a,0x3a,0x53,0x45,0x08,0x3a,0x0a,0x40,0x6e,0x61,0x6d,0x65,0x49,0x22,0x0a,0x49,0x74,0x65,0x6d,0x31,0x06,0x3a,0x06,0x45,0x54,0x3a,0x0b,0x40,0x70,0x69,0x74,0x63,0x68,0x69,0x69,0x3a,0x0c,0x40,0x76,0x6f,0x6c,0x75,0x6d,0x65,0x69,0x55))
    ChangeInventoryArmor(1366,0,0,1,false)
    0()
   EndIf()
   0()
  EndIf()
  If(1,3045,0,2000,1)
   If(1,4045,0,3,0)
    ChangeVariable(4045,4045,0,0,4)
    ShowMessageFace("alicetromeria_fc1",0,0,2,4)
    ShowMessage("\\n<Alicetroemeria (Affection:\\V[3045])>This is a present, ufufu...")
    250(bytes(0x04,0x08,0x6f,0x3a,0x0c,0x52,0x50,0x47,0x3a,0x3a,0x53,0x45,0x08,0x3a,0x0a,0x40,0x6e,0x61,0x6d,0x65,0x49,0x22,0x0a,0x49,0x74,0x65,0x6d,0x31,0x06,0x3a,0x06,0x45,0x54,0x3a,0x0b,0x40,0x70,0x69,0x74,0x63,0x68,0x69,0x69,0x3a,0x0c,0x40,0x76,0x6f,0x6c,0x75,0x6d,0x65,0x69,0x55))
    ChangeInventoryArmor(1413,0,0,1,false)
    0()
   EndIf()
   0()
  EndIf()
  If(1,3045,0,4000,1)
   If(1,4045,0,4,0)
    ChangeVariable(4045,4045,0,0,5)
    ShowMessageFace("alicetromeria_fc1",0,0,2,5)
    ShowMessage("\\n<Alicetroemeria (Affection:\\V[3045])>This is a present, ufufu...")
    250(bytes(0x04,0x08,0x6f,0x3a,0x0c,0x52,0x50,0x47,0x3a,0x3a,0x53,0x45,0x08,0x3a,0x0a,0x40,0x6e,0x61,0x6d,0x65,0x49,0x22,0x0a,0x49,0x74,0x65,0x6d,0x31,0x06,0x3a,0x06,0x45,0x54,0x3a,0x0b,0x40,0x70,0x69,0x74,0x63,0x68,0x69,0x69,0x3a,0x0c,0x40,0x76,0x6f,0x6c,0x75,0x6d,0x65,0x69,0x55))
    ChangeInventoryArmor(1078,0,0,1,false)
    0()
   EndIf()
   0()
  EndIf()
  If(1,3045,0,6000,1)
   If(1,4045,0,5,0)
    ChangeVariable(4045,4045,0,0,6)
    ShowMessageFace("alicetromeria_fc1",0,0,2,6)
    ShowMessage("\\n<Alicetroemeria (Affection:\\V[3045])>This is a present, ufufu...")
    250(bytes(0x04,0x08,0x6f,0x3a,0x0c,0x52,0x50,0x47,0x3a,0x3a,0x53,0x45,0x08,0x3a,0x0a,0x40,0x6e,0x61,0x6d,0x65,0x49,0x22,0x0a,0x49,0x74,0x65,0x6d,0x31,0x06,0x3a,0x06,0x45,0x54,0x3a,0x0b,0x40,0x70,0x69,0x74,0x63,0x68,0x69,0x69,0x3a,0x0c,0x40,0x76,0x6f,0x6c,0x75,0x6d,0x65,0x69,0x55))
    ChangeInventoryArmor(1668,0,0,1,false)
    0()
   EndIf()
   0()
  EndIf()
  355("actor_label_jump")
  ShowMessageFace("alicetromeria_fc1",4,0,2,7)
  ShowMessage("\\n<Alicetroemeria (Affection:\\V[3045])>Ufufu, are you going to play with me...?")
  JumpToLabel("メニュー")
  DefineLabel("5")
  ShowMessageFace("alice_fc5",2,0,2,8)
  ShowMessage("\\n<Alice (Affection:\\V[3005])>You...\nWhy in the world did you conceal your identity and accompany Heinrich?")
  ShowMessageFace("alicetromeria_fc1",4,0,2,9)
  ShowMessage("\\n<Alicetroemeria (Affection:\\V[3045])>Ufufu, we are incompatible people walking the same path... Don't you think that is interesting?")
  ShowMessageFace("alice_fc5",2,0,2,10)
  ShowMessage("\\n<Alice (Affection:\\V[3005])>So what have you gotten out of it?\nDid you get to experience what you wanted...?")
  ShowMessageFace("alicetromeria_fc1",4,0,2,11)
  ShowMessage("\\n<Alicetroemeria (Affection:\\V[3045])>Of course I did, ufufufu...")
  ShowMessageFace("alice_fc5",3,0,2,12)
  ShowMessage("\\n<Alice (Affection:\\V[3005])>............")
  JumpToLabel("メニュー")
  DefineLabel("26")
  ShowMessageFace("iriasu_fc4",7,0,2,13)
  ShowMessage("\\n<Ilias (Affection:\\V[3026])>Black Alice...!\nEven if you've gotten into the hero Heinrich's heart, it will prove useless in the end!")
  ShowMessageFace("iriasu_fc4",7,0,2,14)
  ShowMessage("\\n<Ilias (Affection:\\V[3026])>Heinrich will slay you in the future!\nThis future event has been defined!")
  ShowMessageFace("alicetromeria_fc1",4,0,2,15)
  ShowMessage("\\n<Alicetroemeria (Affection:\\V[3045])>If that's true, then why aren't you smiling...?\nIf Heinrich were to defeat me, shouldn't you be showing more of a smile?")
  ShowMessageFace("iriasu_fc4",7,0,2,16)
  ShowMessage("\\n<Ilias (Affection:\\V[3026])>............")
  ShowMessageFace("alicetromeria_fc1",4,0,2,17)
  ShowMessage("\\n<Alicetroemeria (Affection:\\V[3045])>What, would it be inconvenient for you if that happened? Just what on earth has Heinrich done?")
  ShowMessageFace("iriasu_fc4",7,0,2,18)
  ShowMessage("\\n<Ilias (Affection:\\V[3026])>Black Alice...\nYou will not get what you want...!")
  JumpToLabel("メニュー")
  DefineLabel("295")
  ShowMessageFace("cassandra_fc1",5,0,2,19)
  ShowMessage("\\n<Cassandra (Affection:\\V[3295])>I have admired you ever since I was little...\nAh, can I please have your autograph?")
  ShowMessageFace("alicetromeria_fc1",0,0,2,20)
  ShowMessage("\\n<Alicetroemeria (Affection:\\V[3045])>Would it be fine if Beary signed it?\n...Here you go.")
  ShowMessageFace("cassandra_fc1",5,0,2,21)
  ShowMessage("\\n<Cassandra (Affection:\\V[3295])>Ah, wonderful...\nI shall keep this as a treasure of the Nereneid family...")
  ShowMessageFace("emily_fc1",0,0,2,22)
  ShowMessage("\\n<Emily (Affection:\\V[3294])>Hey, Mother... What's this fancy cardboard with the word \"Beary\" written on it? The handwriting is messy, can I throw it away?")
  ShowMessageFace("cassandra_fc1",7,0,2,23)
  ShowMessage("\\n<Cassandra (Affection:\\V[3295])>YOU MUST NOT!")
  JumpToLabel("メニュー")
  DefineLabel("341")
  ShowMessageFace("alicetromeria_fc1",0,0,2,24)
  ShowMessage("\\n<Alicetroemeria (Affection:\\V[3045])>Lilith, Lilim, what do you think of this world? Don't you think it's a lot of fun...?")
  ShowMessageFace("lilith_fc1",0,0,2,25)
  ShowMessage("\\n<Lilith (Affection:\\V[3341])>Yes, Alicetroemeria...\nIt's as if I've wandered into a wonderland...")
  ShowMessageFace("lilith_fc1",0,0,2,26)
  ShowMessage("\\n<Lilim (Affection:\\V[3341])>But Alicetroemeria...\nwill there not be a party in this world?")
  ShowMessageFace("alicetromeria_fc1",4,0,2,27)
  ShowMessage("\\n<Alicetroemeria (Affection:\\V[3045])>I'm already in the midst of a grand party.\nLet's enjoy ourselves in this world...")
  ShowMessageFace("lilith_fc1",0,0,2,28)
  ShowMessage("\\n<Lilith (Affection:\\V[3341])>Ufufu, that's lovely...")
  ShowMessageFace("lilith_fc1",0,0,2,29)
  ShowMessage("\\n<Lilim (Affection:\\V[3341])>Let's have a wonderful event with lots of pleasure...")
  JumpToLabel("メニュー")
  DefineLabel("370")
  ShowMessageFace("alicetromeria_fc1",4,0,2,30)
  ShowMessage("\\n<Alicetroemeria (Affection:\\V[3045])>Ufufu, a naughty fairy...")
  ShowMessageFace("cirqueb_fc2",0,0,2,31)
  ShowMessage("\\n<Titania (Affection:\\V[3370])>Aren't you a Monster Lord?\nWhy do you look like a magician?")
  ShowMessageFace("alicetromeria_fc1",4,0,2,32)
  ShowMessage("\\n<Alicetroemeria (Affection:\\V[3045])>I'm just playing around, of course...ufufufufu.")
  ShowMessageFace("cirqueb_fc2",1,0,2,33)
  ShowMessage("\\n<Titania (Affection:\\V[3370])>Looks fun! ♪\nMaybe I should try it too...?")
  JumpToLabel("メニュー")
  DefineLabel("538")
  ShowMessageFace("heinrich_fc1",1,0,2,34)
  ShowMessage("\\n<Heinrich (Affection:\\V[3538])>This time, we're going to be adventuring together in another world... It's a very strange destiny, Alicetroemeria.")
  ShowMessageFace("alicetromeria_fc1",4,0,2,35)
  ShowMessage("\\n<Alicetroemeria (Affection:\\V[3045])>Ufufu, it's wonderful...\nWherever we go, we shall conquer it together.")
  ShowMessageFace("heinrich_fc1",1,0,2,36)
  ShowMessage("\\n<Heinrich (Affection:\\V[3538])>Ah! We'll fight together to the bitter end!")
  ShowMessageFace("alicetromeria_fc1",4,0,2,37)
  ShowMessage("\\n<Alicetroemeria (Affection:\\V[3045])>Ufufufu...we'll stay together forever.")
  JumpToLabel("メニュー")
  DefineLabel("メニュー")
  StartLoop()
   355("unlimited_choices(11, [\"Give presents\",")
   655("\"Add to party\",")
   655("\"View present list\",\"Make a request\",")
   655("\"Never mind\"])")
   If(1,11,0,0,0)
    355("present_start(45)")
    0()
   EndIf()
   If(1,11,0,1,0)
    PictureClear(5)
    355("move_actor_ex(45)")
    EndEventProcessing()
    0()
   EndIf()
   If(1,11,0,2,0)
    ShowMessageFace("",0,0,2,38)
    ShowMessage("Affection       10:\\ii[416]")
    ShowMessage("Affection     100:\\ia[1041]")
    ShowMessage("Affection     500:\\ia[1366]")
    ShowMessage("Affection   2000:\\ia[1413]")
    ShowMessageFace("",0,0,2,39)
    ShowMessage("Affection   4000:\\ia[1078]")
    ShowMessage("Affection   6000:\\ia[1668]")
    0()
   EndIf()
   If(1,11,0,3,0)
    PictureClear(5)
    ShowMessageFace("",0,0,2,40)
    ShowMessage("Ask her for what? (Affection:\\V[3045])")
    ShowChoices(strings("Blowjob(Affection:10)","Never mind"),2)
    IfPlayerPicksChoice(0,null)
     If(1,3045,0,10,1)
      355("call_novel_scene(4756)")
      EndEventProcessing()
      0()
     Else()
      ShowMessageFace("alicetromeria_fc1",4,0,2,41)
      ShowMessage("\\n<Alicetroemeria (Affection:\\V[3045])>Let's do that some other time, ufufu...")
      0()
     EndIf()
     0()
    IfPlayerPicksChoice(1,null)
     0()
    404()
    0()
   EndIf()
   If(1,11,0,4,1)
    PictureClear(5)
    EndEventProcessing()
    0()
   EndIf()
   0()
  EndLoop()
  0()
 PAGE   2
  // condition: party contains actor #45
  0()



EVENT   12
 PAGE   1
  // condition: switch 1233 is ON
  PictureDisplay(5,"80_mefist_st01",0,0,0,0,100,100,0,0)
  PictureMove(5,null,0,0,0,0,100,100,255,0,30,true)
  If(1,3233,0,100,1)
   If(1,4233,0,0,0)
    ChangeVariable(4233,4233,0,0,1)
    ShowMessageFace("mefist_fc1",0,0,2,1)
    ShowMessage("\\n<Mephisto (Affection:\\V[3233])>This should prove useful...")
    250(bytes(0x04,0x08,0x6f,0x3a,0x0c,0x52,0x50,0x47,0x3a,0x3a,0x53,0x45,0x08,0x3a,0x0a,0x40,0x6e,0x61,0x6d,0x65,0x49,0x22,0x0a,0x49,0x74,0x65,0x6d,0x31,0x06,0x3a,0x06,0x45,0x54,0x3a,0x0b,0x40,0x70,0x69,0x74,0x63,0x68,0x69,0x69,0x3a,0x0c,0x40,0x76,0x6f,0x6c,0x75,0x6d,0x65,0x69,0x55))
    ChangeInventoryArmor(1171,0,0,1,false)
    0()
   EndIf()
   0()
  EndIf()
  If(1,3233,0,500,1)
   If(1,4233,0,1,0)
    ChangeVariable(4233,4233,0,0,2)
    ShowMessageFace("mefist_fc1",0,0,2,2)
    ShowMessage("\\n<Mephisto (Affection:\\V[3233])>This should prove useful...")
    250(bytes(0x04,0x08,0x6f,0x3a,0x0c,0x52,0x50,0x47,0x3a,0x3a,0x53,0x45,0x08,0x3a,0x0a,0x40,0x6e,0x61,0x6d,0x65,0x49,0x22,0x0a,0x49,0x74,0x65,0x6d,0x31,0x06,0x3a,0x06,0x45,0x54,0x3a,0x0b,0x40,0x70,0x69,0x74,0x63,0x68,0x69,0x69,0x3a,0x0c,0x40,0x76,0x6f,0x6c,0x75,0x6d,0x65,0x69,0x55))
    ChangeInventoryArmor(1354,0,0,1,false)
    0()
   EndIf()
   0()
  EndIf()
  If(1,3233,0,2000,1)
   If(1,4233,0,2,0)
    ChangeVariable(4233,4233,0,0,3)
    ShowMessageFace("mefist_fc1",0,0,2,3)
    ShowMessage("\\n<Mephisto (Affection:\\V[3233])>This should prove useful...")
    250(bytes(0x04,0x08,0x6f,0x3a,0x0c,0x52,0x50,0x47,0x3a,0x3a,0x53,0x45,0x08,0x3a,0x0a,0x40,0x6e,0x61,0x6d,0x65,0x49,0x22,0x0a,0x49,0x74,0x65,0x6d,0x31,0x06,0x3a,0x06,0x45,0x54,0x3a,0x0b,0x40,0x70,0x69,0x74,0x63,0x68,0x69,0x69,0x3a,0x0c,0x40,0x76,0x6f,0x6c,0x75,0x6d,0x65,0x69,0x55))
    ChangeInventoryArmor(1028,0,0,1,false)
    0()
   EndIf()
   0()
  EndIf()
  If(1,3233,0,4000,1)
   If(1,4233,0,3,0)
    ChangeVariable(4233,4233,0,0,4)
    ShowMessageFace("mefist_fc1",0,0,2,4)
    ShowMessage("\\n<Mephisto (Affection:\\V[3233])>This should prove useful...")
    250(bytes(0x04,0x08,0x6f,0x3a,0x0c,0x52,0x50,0x47,0x3a,0x3a,0x53,0x45,0x08,0x3a,0x0a,0x40,0x6e,0x61,0x6d,0x65,0x49,0x22,0x0a,0x49,0x74,0x65,0x6d,0x31,0x06,0x3a,0x06,0x45,0x54,0x3a,0x0b,0x40,0x70,0x69,0x74,0x63,0x68,0x69,0x69,0x3a,0x0c,0x40,0x76,0x6f,0x6c,0x75,0x6d,0x65,0x69,0x55))
    ChangeInventoryArmor(1029,0,0,1,false)
    0()
   EndIf()
   0()
  EndIf()
  355("actor_label_jump")
  ShowMessageFace("mefist_fc1",0,0,2,5)
  ShowMessage("\\n<Mephisto (Affection:\\V[3233])>There are a lot of comrades whom I would like to re-educate. Can I build an academy here?")
  JumpToLabel("メニュー")
  DefineLabel("121")
  ShowMessageFace("page65537_fc1",0,0,2,6)
  ShowMessage("\\n<Cornelia (Affection:\\V[3121])>Mephisto...\nYou didn't return the book you borrowed from the Monster Lord's Castle library, did you?")
  ShowMessageFace("mefist_fc1",0,0,2,7)
  ShowMessage("\\n<Mephisto (Affection:\\V[3233])>Now that you mention it, I had completely forgotten about it. I'll reprint it, can you wait a little longer?")
  ShowMessageFace("page65537_fc1",0,0,2,8)
  ShowMessage("\\n<Cornelia (Affection:\\V[3121])>Really... Is that the language of someone in the teaching profession?")
  ShowMessageFace("mefist_fc1",0,0,2,9)
  ShowMessage("\\n<Mephisto (Affection:\\V[3233])>I take anything I can because it is my doctrine...")
  ShowMessageFace("page65537_fc1",0,0,2,10)
  ShowMessage("\\n<Cornelia (Affection:\\V[3121])>I see, you're now prohibited from entering the library.")
  ShowMessageFace("mefist_fc1",0,0,2,11)
  ShowMessage("\\n<Mephisto (Affection:\\V[3233])>...There are matters like this too.\nI'll have to warn the students not to get too greedy.")
  JumpToLabel("メニュー")
  DefineLabel("163")
  ShowMessageFace("lily_fc1",3,0,2,12)
  ShowMessage("\\n<Lily (Affection:\\V[3163])>You're Mephisto...\nI've heard you are a very famous magician.")
  ShowMessageFace("mefist_fc1",0,0,2,13)
  ShowMessage("\\n<Mephisto (Affection:\\V[3233])>You do not know me because you are young.\nDuring the era of the previous Monster Lord, I was the master of magic.")
  ShowMessageFace("lily_fc1",3,0,2,14)
  ShowMessage("\\n<Lily (Affection:\\V[3163])>Rumor has it you're also a dubious character... You're better at wicked deeds than you are with magic, aren't you?")
  ShowMessageFace("mefist_fc1",0,0,2,15)
  ShowMessage("\\n<Mephisto (Affection:\\V[3233])>Both of those are practically the same thing.\nMagic is nothing but a wicked deed, and brings no happiness to people...")
  ShowMessageFace("lily_fc1",3,0,2,16)
  ShowMessage("\\n<Lily (Affection:\\V[3163])>Hmph, I wonder what you're insinuating...?")
  JumpToLabel("メニュー")
  DefineLabel("226")
  ShowMessageFace("sirohebisama_fc1",0,0,2,17)
  ShowMessage("\\n<Shirohebi (Affection:\\V[3226])>Mephisto...\nYou are a confidant of the 15th who has slipped into a human royal family.")
  ShowMessageFace("mefist_fc1",0,0,2,18)
  ShowMessage("\\n<Mephisto (Affection:\\V[3233])>Again, I have a contract...\nI have not deceived anyone.")
  ShowMessageFace("sirohebisama_fc1",0,0,2,19)
  ShowMessage("\\n<Shirohebi (Affection:\\V[3226])>You have been obsessed with contracts and commitments since your former days. You truly are a sly, yet dutiful woman...")
  ShowMessageFace("mefist_fc1",0,0,2,20)
  ShowMessage("\\n<Mephisto (Affection:\\V[3233])>It is simply my duty as a yoma, there is no misunderstanding...")
  JumpToLabel("メニュー")
  DefineLabel("231")
  ShowMessageFace("mefist_fc1",0,0,2,21)
  ShowMessage("\\n<Mephisto (Affection:\\V[3233])>What are you doing for your research projects?")
  ShowMessageFace("m_batterfly_fc1",0,0,2,22)
  ShowMessage("\\n<Magical Butterfly (Affection:\\V[3231])>Gathering semen!")
  ShowMessageFace("m_dragonfly_fc1",0,0,2,23)
  ShowMessage("\\n<Magical Dragonfly (Affection:\\V[3231])>Collecting insects...")
  ShowMessageFace("m_tento_fc1",0,0,2,24)
  ShowMessage("\\n<Magical Ladybug (Affection:\\V[3231])>Eating tour...♪")
  ShowMessageFace("mefist_fc1",2,0,2,25)
  ShowMessage("\\n<Mephisto (Affection:\\V[3233])>Good grief, this is worrying...")
  JumpToLabel("メニュー")
  DefineLabel("232")
  ShowMessageFace("mefist_fc1",0,0,2,26)
  ShowMessage("\\n<Mephisto (Affection:\\V[3233])>What kind of books have you been reading lately...?")
  ShowMessageFace("m_elf_fc1",0,0,2,27)
  ShowMessage("\\n<Magical Elf (Affection:\\V[3232])>\"Tips for Overthrowing Superiors\".")
  ShowMessageFace("m_succubus_fc1",0,0,2,28)
  ShowMessage("\\n<Magical Succubus (Affection:\\V[3232])>\"Magic for Murdering Your Mentor\"...")
  ShowMessageFace("m_fairy_fc1",1,0,2,29)
  ShowMessage("\\n<Magical Pixie (Affection:\\V[3232])>A romance diary Professor Mephisto wrote when she was young!")
  ShowMessageFace("mefist_fc1",2,0,2,30)
  ShowMessage("\\n<Mephisto (Affection:\\V[3233])>Good grief, this is worrying...")
  JumpToLabel("メニュー")
  DefineLabel("262")
  ShowMessageFace("mefist_fc1",0,0,2,31)
  ShowMessage("\\n<Mephisto (Affection:\\V[3233])>Is this the golem made by Grangold?\nI see, it has a very high degree of perfection...")
  ShowMessageFace("golem_fc1",0,0,2,32)
  ShowMessage("\\n<Emeth (Affection:\\V[3262])>MASTER?\nAWAITING ORDERS...")
  ShowMessageFace("mefist_fc1",0,0,2,33)
  ShowMessage("\\n<Mephisto (Affection:\\V[3233])>So, you are absolutely loyal to me...")
  ShowMessageFace("sonia_fc2",5,0,2,34)
  ShowMessage("\\n<Sonya>Wait! What are you doing?")
  JumpToLabel("メニュー")
  DefineLabel("286")
  ShowMessageFace("witchs_fc1",0,0,2,35)
  ShowMessage("\\n<Witch (Affection:\\V[3286])>Mephisto, the most famous magician in the world... I want you to show me your best magic.")
  ShowMessageFace("mefist_fc1",0,0,2,36)
  ShowMessage("\\n<Mephisto (Affection:\\V[3233])>Aren't you quite famous yourself?\nYou're the most outstanding magician among succubi...")
  ShowMessageFace("witchs_fc1",0,0,2,37)
  ShowMessage("\\n<Witch (Affection:\\V[3286])>It's fascinating that we'll be able to fight together. Let's compete with our magic techniques as comrades.")
  ShowMessageFace("mefist_fc1",0,0,2,38)
  ShowMessage("\\n<Mephisto (Affection:\\V[3233])>Yes, I am looking forward to it as well. Please don't go too hard on me...fufu.")
  JumpToLabel("メニュー")
  DefineLabel("295")
  ShowMessageFace("cassandra_fc1",5,0,2,39)
  ShowMessage("\\n<Cassandra (Affection:\\V[3295])>Ah, Mephisto...\nIt seems you are as ill-natured as ever.")
  ShowMessageFace("mefist_fc1",0,0,2,40)
  ShowMessage("\\n<Mephisto (Affection:\\V[3233])>Oh, Cassandra...\nYou seem to have completely lost your fame lately.")
  ShowMessageFace("cassandra_fc1",5,0,2,41)
  ShowMessage("\\n<Cassandra (Affection:\\V[3295])>Ufufu, it's amusing...")
  ShowMessageFace("mefist_fc1",0,0,2,42)
  ShowMessage("\\n<Mephisto (Affection:\\V[3233])>It's amusing all right, ufufu...")
  JumpToLabel("メニュー")
  DefineLabel("533")
  ShowMessageFace("mefist_fc1",0,0,2,43)
  ShowMessage("\\n<Mephisto (Affection:\\V[3233])>Your Majesty... Why have you trusted me thus far? Have you not considered the possibility I could betray you at the last minute?")
  ShowMessageFace("grandnoa_fc1",0,0,2,44)
  ShowMessage("\\n<Queen of Grand Noah (Affection:\\V[3533])>I do not trust you, but I do depend on you.\nDoes your pride not permit you to betray me?")
  ShowMessageFace("mefist_fc1",0,0,2,45)
  ShowMessage("\\n<Mephisto (Affection:\\V[3233])>I see, you have a very good eye for people. Do you respect me based on my sense of values rather than trust?")
  ShowMessageFace("grandnoa_fc1",0,0,2,46)
  ShowMessage("\\n<Queen of Grand Noah (Affection:\\V[3533])>I believe you... Is that what you wanted me to say?")
  ShowMessageFace("mefist_fc1",0,0,2,47)
  ShowMessage("\\n<Mephisto (Affection:\\V[3233])>Yes, of course...")
  JumpToLabel("メニュー")
  DefineLabel("メニュー")
  StartLoop()
   355("unlimited_choices(11, [\"Give presents\",")
   655("\"Add to party\",")
   655("\"View present list\",\"Make a request\",")
   655("\"Change form\",\"Never mind\"])")
   If(1,11,0,0,0)
    355("present_start(233)")
    0()
   EndIf()
   If(1,11,0,1,0)
    PictureClear(5)
    355("move_actor_ex(233)")
    EndEventProcessing()
    0()
   EndIf()
   If(1,11,0,2,0)
    ShowMessageFace("",0,0,2,48)
    ShowMessage("Affection     100:\\ia[1171]")
    ShowMessage("Affection     500:\\ia[1354]")
    ShowMessage("Affection   2000:\\ia[1028]")
    ShowMessage("Affection   4000:\\ia[1029]")
    0()
   EndIf()
   If(1,11,0,3,0)
    PictureClear(5)
    ShowMessageFace("",0,0,2,49)
    ShowMessage("Ask her for what? (Affection:\\V[3233])")
    ShowChoices(strings("Semen Squeezing Lesson(Affection:10)","Never mind"),2)
    IfPlayerPicksChoice(0,null)
     If(1,3233,0,10,1)
      355("call_novel_scene(4981)")
      EndEventProcessing()
      0()
     Else()
      ShowMessageFace("mefist_fc1",0,0,2,50)
      ShowMessage("\\n<Mephisto (Affection:\\V[3233])>You'll have to excuse me and wait for another opportunity.")
      0()
     EndIf()
     0()
    IfPlayerPicksChoice(1,null)
     0()
    404()
    0()
   EndIf()
   If(1,11,0,4,0)
    ShowMessageFace("",0,0,2,51)
    ShowMessage("Which form would you like to change to?")
    ShowChoices(strings("Mephisto(Yoma)","Mephisto(Giant Serpent)"),1)
    IfPlayerPicksChoice(0,null)
     PictureClear(5)
     EndEventProcessing()
     0()
    IfPlayerPicksChoice(1,null)
     355("persona_change(391)")
     PictureClear(5)
     EndEventProcessing()
     0()
    404()
    0()
   EndIf()
   If(1,11,0,5,1)
    PictureClear(5)
    EndEventProcessing()
    0()
   EndIf()
   0()
  EndLoop()
  0()
 PAGE   2
  // condition: switch 1391 is ON
  PictureDisplay(5,"80_mefist_st11",0,0,0,0,100,100,0,0)
  PictureMove(5,null,0,0,0,0,100,100,255,0,30,true)
  If(1,3233,0,100,1)
   If(1,4233,0,0,0)
    ChangeVariable(4233,4233,0,0,1)
    ShowMessageFace("mefist_fc2",0,0,2,1)
    ShowMessage("\\n<Mephisto (Affection:\\V[3233])>This should prove useful...")
    250(bytes(0x04,0x08,0x6f,0x3a,0x0c,0x52,0x50,0x47,0x3a,0x3a,0x53,0x45,0x08,0x3a,0x0a,0x40,0x6e,0x61,0x6d,0x65,0x49,0x22,0x0a,0x49,0x74,0x65,0x6d,0x31,0x06,0x3a,0x06,0x45,0x54,0x3a,0x0b,0x40,0x70,0x69,0x74,0x63,0x68,0x69,0x69,0x3a,0x0c,0x40,0x76,0x6f,0x6c,0x75,0x6d,0x65,0x69,0x55))
    ChangeInventoryArmor(1171,0,0,1,false)
    0()
   EndIf()
   0()
  EndIf()
  If(1,3233,0,500,1)
   If(1,4233,0,1,0)
    ChangeVariable(4233,4233,0,0,2)
    ShowMessageFace("mefist_fc2",0,0,2,2)
    ShowMessage("\\n<Mephisto (Affection:\\V[3233])>This should prove useful...")
    250(bytes(0x04,0x08,0x6f,0x3a,0x0c,0x52,0x50,0x47,0x3a,0x3a,0x53,0x45,0x08,0x3a,0x0a,0x40,0x6e,0x61,0x6d,0x65,0x49,0x22,0x0a,0x49,0x74,0x65,0x6d,0x31,0x06,0x3a,0x06,0x45,0x54,0x3a,0x0b,0x40,0x70,0x69,0x74,0x63,0x68,0x69,0x69,0x3a,0x0c,0x40,0x76,0x6f,0x6c,0x75,0x6d,0x65,0x69,0x55))
    ChangeInventoryArmor(1354,0,0,1,false)
    0()
   EndIf()
   0()
  EndIf()
  If(1,3233,0,2000,1)
   If(1,4233,0,2,0)
    ChangeVariable(4233,4233,0,0,3)
    ShowMessageFace("mefist_fc2",0,0,2,3)
    ShowMessage("\\n<Mephisto (Affection:\\V[3233])>This should prove useful...")
    250(bytes(0x04,0x08,0x6f,0x3a,0x0c,0x52,0x50,0x47,0x3a,0x3a,0x53,0x45,0x08,0x3a,0x0a,0x40,0x6e,0x61,0x6d,0x65,0x49,0x22,0x0a,0x49,0x74,0x65,0x6d,0x31,0x06,0x3a,0x06,0x45,0x54,0x3a,0x0b,0x40,0x70,0x69,0x74,0x63,0x68,0x69,0x69,0x3a,0x0c,0x40,0x76,0x6f,0x6c,0x75,0x6d,0x65,0x69,0x55))
    ChangeInventoryArmor(1028,0,0,1,false)
    0()
   EndIf()
   0()
  EndIf()
  If(1,3233,0,4000,1)
   If(1,4233,0,3,0)
    ChangeVariable(4233,4233,0,0,4)
    ShowMessageFace("mefist_fc2",0,0,2,4)
    ShowMessage("\\n<Mephisto (Affection:\\V[3233])>This should prove useful...")
    250(bytes(0x04,0x08,0x6f,0x3a,0x0c,0x52,0x50,0x47,0x3a,0x3a,0x53,0x45,0x08,0x3a,0x0a,0x40,0x6e,0x61,0x6d,0x65,0x49,0x22,0x0a,0x49,0x74,0x65,0x6d,0x31,0x06,0x3a,0x06,0x45,0x54,0x3a,0x0b,0x40,0x70,0x69,0x74,0x63,0x68,0x69,0x69,0x3a,0x0c,0x40,0x76,0x6f,0x6c,0x75,0x6d,0x65,0x69,0x55))
    ChangeInventoryArmor(1029,0,0,1,false)
    0()
   EndIf()
   0()
  EndIf()
  355("actor_label_jump")
  ShowMessageFace("mefist_fc2",0,0,2,5)
  ShowMessage("\\n<Mephisto (Affection:\\V[3233])>There are a lot of comrades whom I would like to re-educate. Can I build an academy here?")
  JumpToLabel("メニュー")
  DefineLabel("121")
  ShowMessageFace("page65537_fc1",0,0,2,6)
  ShowMessage("\\n<Cornelia (Affection:\\V[3121])>Mephisto...\nYou didn't return the book you borrowed from the Monster Lord's Castle library, did you?")
  ShowMessageFace("mefist_fc2",0,0,2,7)
  ShowMessage("\\n<Mephisto (Affection:\\V[3233])>Now that you mention it, I had completely forgotten about it. I'll reprint it, can you wait a little longer?")
  ShowMessageFace("page65537_fc1",0,0,2,8)
  ShowMessage("\\n<Cornelia (Affection:\\V[3121])>Really... Is that the language of someone in the teaching profession?")
  ShowMessageFace("mefist_fc2",0,0,2,9)
  ShowMessage("\\n<Mephisto (Affection:\\V[3233])>I take anything I can because it is my doctrine...")
  ShowMessageFace("page65537_fc1",0,0,2,10)
  ShowMessage("\\n<Cornelia (Affection:\\V[3121])>I see, you're now prohibited from entering the library.")
  ShowMessageFace("mefist_fc2",0,0,2,11)
  ShowMessage("\\n<Mephisto (Affection:\\V[3233])>...There are matters like this too.\nI'll have to warn the students not to get too greedy.")
  JumpToLabel("メニュー")
  DefineLabel("163")
  ShowMessageFace("lily_fc1",3,0,2,12)
  ShowMessage("\\n<Lily (Affection:\\V[3163])>You're Mephisto...\nI've heard you are a very famous magician.")
  ShowMessageFace("mefist_fc2",0,0,2,13)
  ShowMessage("\\n<Mephisto (Affection:\\V[3233])>You do not know me because you are young.\nDuring the era of the previous Monster Lord, I was the master of magic.")
  ShowMessageFace("lily_fc1",3,0,2,14)
  ShowMessage("\\n<Lily (Affection:\\V[3163])>Rumor has it you're also a dubious character... You're better at wicked deeds than you are with magic, aren't you?")
  ShowMessageFace("mefist_fc2",0,0,2,15)
  ShowMessage("\\n<Mephisto (Affection:\\V[3233])>Both of those are practically the same thing.\nMagic is nothing but a wicked deed, and brings no happiness to people...")
  ShowMessageFace("lily_fc1",3,0,2,16)
  ShowMessage("\\n<Lily (Affection:\\V[3163])>Hmph, I wonder what you're insinuating...?")
  JumpToLabel("メニュー")
  DefineLabel("226")
  ShowMessageFace("sirohebisama_fc1",0,0,2,17)
  ShowMessage("\\n<Shirohebi (Affection:\\V[3226])>Mephisto...\nYou are a confidant of the 15th who has slipped into a human royal family.")
  ShowMessageFace("mefist_fc2",0,0,2,18)
  ShowMessage("\\n<Mephisto (Affection:\\V[3233])>Again, I have a contract...\nI have not deceived anyone.")
  ShowMessageFace("sirohebisama_fc1",0,0,2,19)
  ShowMessage("\\n<Shirohebi (Affection:\\V[3226])>You have been obsessed with contracts and commitments since your former days. You truly are a sly, yet dutiful woman...")
  ShowMessageFace("mefist_fc2",0,0,2,20)
  ShowMessage("\\n<Mephisto (Affection:\\V[3233])>It is simply my duty as a yoma, there is no misunderstanding...")
  JumpToLabel("メニュー")
  DefineLabel("231")
  ShowMessageFace("mefist_fc2",0,0,2,21)
  ShowMessage("\\n<Mephisto (Affection:\\V[3233])>What are you doing for your research projects?")
  ShowMessageFace("m_batterfly_fc1",0,0,2,22)
  ShowMessage("\\n<Magical Butterfly (Affection:\\V[3231])>Gathering semen!")
  ShowMessageFace("m_dragonfly_fc1",0,0,2,23)
  ShowMessage("\\n<Magical Dragonfly (Affection:\\V[3231])>Collecting insects...")
  ShowMessageFace("m_tento_fc1",0,0,2,24)
  ShowMessage("\\n<Magical Ladybug (Affection:\\V[3231])>Eating tour...♪")
  ShowMessageFace("mefist_fc2",2,0,2,25)
  ShowMessage("\\n<Mephisto (Affection:\\V[3233])>Good grief, this is worrying...")
  JumpToLabel("メニュー")
  DefineLabel("232")
  ShowMessageFace("mefist_fc2",0,0,2,26)
  ShowMessage("\\n<Mephisto (Affection:\\V[3233])>What kind of books have you been reading lately...?")
  ShowMessageFace("m_elf_fc1",0,0,2,27)
  ShowMessage("\\n<Magical Elf (Affection:\\V[3232])>\"Tips for Overthrowing Superiors\".")
  ShowMessageFace("m_succubus_fc1",0,0,2,28)
  ShowMessage("\\n<Magical Succubus (Affection:\\V[3232])>\"Magic for Murdering Your Mentor\"...")
  ShowMessageFace("m_fairy_fc1",1,0,2,29)
  ShowMessage("\\n<Magical Pixie (Affection:\\V[3232])>A romance diary Professor Mephisto wrote when she was young!")
  ShowMessageFace("mefist_fc2",2,0,2,30)
  ShowMessage("\\n<Mephisto (Affection:\\V[3233])>Good grief, this is worrying...")
  JumpToLabel("メニュー")
  DefineLabel("262")
  ShowMessageFace("mefist_fc2",0,0,2,31)
  ShowMessage("\\n<Mephisto (Affection:\\V[3233])>Is this the golem made by Grangold?\nI see, it has a very high degree of perfection...")
  ShowMessageFace("golem_fc1",0,0,2,32)
  ShowMessage("\\n<Emeth (Affection:\\V[3262])>MASTER?\nAWAITING ORDERS...")
  ShowMessageFace("mefist_fc2",0,0,2,33)
  ShowMessage("\\n<Mephisto (Affection:\\V[3233])>So, you are absolutely loyal to me...")
  ShowMessageFace("sonia_fc2",5,0,2,34)
  ShowMessage("\\n<Sonya>Wait! What are you doing?")
  JumpToLabel("メニュー")
  DefineLabel("286")
  ShowMessageFace("witchs_fc1",0,0,2,35)
  ShowMessage("\\n<Witch (Affection:\\V[3286])>Mephisto, the most famous magician in the world... I want you to show me your best magic.")
  ShowMessageFace("mefist_fc2",0,0,2,36)
  ShowMessage("\\n<Mephisto (Affection:\\V[3233])>Aren't you quite famous yourself?\nYou're the most outstanding magician among succubi...")
  ShowMessageFace("witchs_fc1",0,0,2,37)
  ShowMessage("\\n<Witch (Affection:\\V[3286])>It's fascinating that we'll be able to fight together. Let's compete with our magic techniques as comrades.")
  ShowMessageFace("mefist_fc2",0,0,2,38)
  ShowMessage("\\n<Mephisto (Affection:\\V[3233])>Yes, I am looking forward to it as well. Please don't go too hard on me...fufu.")
  JumpToLabel("メニュー")
  DefineLabel("295")
  ShowMessageFace("cassandra_fc1",5,0,2,39)
  ShowMessage("\\n<Cassandra (Affection:\\V[3295])>Ah, Mephisto...\nIt seems you are as ill-natured as ever.")
  ShowMessageFace("mefist_fc2",0,0,2,40)
  ShowMessage("\\n<Mephisto (Affection:\\V[3233])>Oh, Cassandra...\nYou seem to have completely lost your fame lately.")
  ShowMessageFace("cassandra_fc1",5,0,2,41)
  ShowMessage("\\n<Cassandra (Affection:\\V[3295])>Ufufu, it's amusing...")
  ShowMessageFace("mefist_fc2",0,0,2,42)
  ShowMessage("\\n<Mephisto (Affection:\\V[3233])>It's amusing all right, ufufu...")
  JumpToLabel("メニュー")
  DefineLabel("533")
  ShowMessageFace("mefist_fc2",0,0,2,43)
  ShowMessage("\\n<Mephisto (Affection:\\V[3233])>Your Majesty... Why have you trusted me thus far? Have you not considered the possibility I could betray you at the last minute?")
  ShowMessageFace("grandnoa_fc1",0,0,2,44)
  ShowMessage("\\n<Queen of Grand Noah (Affection:\\V[3533])>I do not trust you, but I do depend on you.\nDoes your pride not permit you to betray me?")
  ShowMessageFace("mefist_fc2",0,0,2,45)
  ShowMessage("\\n<Mephisto (Affection:\\V[3233])>I see, you have a very good eye for people. Do you respect me based on my sense of values rather than trust?")
  ShowMessageFace("grandnoa_fc1",0,0,2,46)
  ShowMessage("\\n<Queen of Grand Noah (Affection:\\V[3533])>I believe you... Is that what you wanted me to say?")
  ShowMessageFace("mefist_fc2",0,0,2,47)
  ShowMessage("\\n<Mephisto (Affection:\\V[3233])>Yes, of course...")
  JumpToLabel("メニュー")
  DefineLabel("メニュー")
  StartLoop()
   355("unlimited_choices(11, [\"Give presents\",")
   655("\"Add to party\",")
   655("\"View present list\",\"Make a request\",")
   655("\"Change form\",\"Never mind\"])")
   If(1,11,0,0,0)
    355("present_start(233)")
    0()
   EndIf()
   If(1,11,0,1,0)
    PictureClear(5)
    355("move_actor_ex(233)")
    EndEventProcessing()
    0()
   EndIf()
   If(1,11,0,2,0)
    ShowMessageFace("",0,0,2,48)
    ShowMessage("Affection     100:\\ia[1171]")
    ShowMessage("Affection     500:\\ia[1354]")
    ShowMessage("Affection   2000:\\ia[1028]")
    ShowMessage("Affection   4000:\\ia[1029]")
    0()
   EndIf()
   If(1,11,0,3,0)
    PictureClear(5)
    ShowMessageFace("",0,0,2,49)
    ShowMessage("Ask her for what? (Affection:\\V[3233])")
    ShowChoices(strings("Predation(Affection:10)","Predation...?(Affection:100)","Never mind"),3)
    IfPlayerPicksChoice(0,null)
     If(1,3233,0,10,1)
      355("call_novel_scene(4982)")
      EndEventProcessing()
      0()
     Else()
      ShowMessageFace("mefist_fc2",0,0,2,50)
      ShowMessage("\\n<Mephisto (Affection:\\V[3233])>You'll have to excuse me and wait for another opportunity.")
      0()
     EndIf()
     0()
    IfPlayerPicksChoice(1,null)
     If(1,3233,0,100,1)
      355("call_novel_scene(4983)")
      EndEventProcessing()
      0()
     Else()
      ShowMessageFace("mefist_fc2",0,0,2,51)
      ShowMessage("\\n<Mephisto (Affection:\\V[3233])>You'll have to excuse me and wait for another opportunity.")
      0()
     EndIf()
     0()
    IfPlayerPicksChoice(2,null)
     0()
    404()
    0()
   EndIf()
   If(1,11,0,4,0)
    ShowMessageFace("",0,0,2,52)
    ShowMessage("Which form would you like to change to?")
    ShowChoices(strings("Mephisto(Yoma)","Mephisto(Giant Serpent)"),2)
    IfPlayerPicksChoice(0,null)
     355("persona_change(233)")
     PictureClear(5)
     EndEventProcessing()
     0()
    IfPlayerPicksChoice(1,null)
     PictureClear(5)
     EndEventProcessing()
     0()
    404()
    0()
   EndIf()
   If(1,11,0,5,1)
    PictureClear(5)
    EndEventProcessing()
    0()
   EndIf()
   0()
  EndLoop()
  0()
 PAGE   3
  // condition: party contains actor #233
  0()
 PAGE   4
  // condition: party contains actor #391
  0()
