﻿


EVENT   5
 PAGE   1
  If(1,1209,0,7,0)
   ShowMessageFace("rest_fc1",0,0,2,1)
   ShowMessage("\\n<Lest>")
   ShowMessage("こっちに戻るのは危険だ！！")
   205(-1,bytes(0x04,0x08,0x6f,0x3a,0x13,0x52,0x50,0x47,0x3a,0x3a,0x4d,0x6f,0x76,0x65,0x52,0x6f,0x75,0x74,0x65,0x09,0x3a,0x0c,0x40,0x72,0x65,0x70,0x65,0x61,0x74,0x46,0x3a,0x0f,0x40,0x73,0x6b,0x69,0x70,0x70,0x61,0x62,0x6c,0x65,0x46,0x3a,0x0a,0x40,0x77,0x61,0x69,0x74,0x54,0x3a,0x0a,0x40,0x6c,0x69,0x73,0x74,0x5b,0x07,0x6f,0x3a,0x15,0x52,0x50,0x47,0x3a,0x3a,0x4d,0x6f,0x76,0x65,0x43,0x6f,0x6d,0x6d,0x61,0x6e,0x64,0x07,0x3a,0x0a,0x40,0x63,0x6f,0x64,0x65,0x69,0x09,0x3a,0x10,0x40,0x70,0x61,0x72,0x61,0x6d,0x65,0x74,0x65,0x72,0x73,0x5b,0x00,0x6f,0x3b,0x0a,0x07,0x3b,0x0b,0x69,0x00,0x3b,0x0c,0x5b,0x00))
   EndEventProcessing()
   0()
  EndIf()
  250(bytes(0x04,0x08,0x6f,0x3a,0x0c,0x52,0x50,0x47,0x3a,0x3a,0x53,0x45,0x08,0x3a,0x0a,0x40,0x6e,0x61,0x6d,0x65,0x49,0x22,0x09,0x4d,0x6f,0x76,0x65,0x06,0x3a,0x06,0x45,0x54,0x3a,0x0b,0x40,0x70,0x69,0x74,0x63,0x68,0x69,0x69,0x3a,0x0c,0x40,0x76,0x6f,0x6c,0x75,0x6d,0x65,0x69,0x55))
  TeleportPlayer(0,899,7,5,0,0)
  0()



EVENT   1
 PAGE   1
  If(1,1209,0,7,0)
   ChangeSwitch(31,31,1)
   ChangeSwitch(32,32,1)
   ChangeSwitch(33,33,1)
   ChangeSwitch(34,34,1)
   ChangeSwitch(35,35,1)
   ChangeSwitch(89,89,1)
   TeleportPlayer(0,942,17,19,8,0)
   EndEventProcessing()
   0()
  EndIf()
  ChangeSwitch(35,35,1)
  250(bytes(0x04,0x08,0x6f,0x3a,0x0c,0x52,0x50,0x47,0x3a,0x3a,0x53,0x45,0x08,0x3a,0x0a,0x40,0x6e,0x61,0x6d,0x65,0x49,0x22,0x09,0x4d,0x6f,0x76,0x65,0x06,0x3a,0x06,0x45,0x54,0x3a,0x0b,0x40,0x70,0x69,0x74,0x63,0x68,0x69,0x69,0x3a,0x0c,0x40,0x76,0x6f,0x6c,0x75,0x6d,0x65,0x69,0x55))
  TeleportPlayer(0,876,17,19,0,0)
  0()



EVENT   3
 PAGE   1
  If(1,1209,0,7,0)
   ShowMessageFace("rest_fc1",0,0,2,1)
   ShowMessage("\\n<Lest>")
   ShowMessage("こっちに戻るのは危険だ！！")
   205(-1,bytes(0x04,0x08,0x6f,0x3a,0x13,0x52,0x50,0x47,0x3a,0x3a,0x4d,0x6f,0x76,0x65,0x52,0x6f,0x75,0x74,0x65,0x09,0x3a,0x0c,0x40,0x72,0x65,0x70,0x65,0x61,0x74,0x46,0x3a,0x0f,0x40,0x73,0x6b,0x69,0x70,0x70,0x61,0x62,0x6c,0x65,0x46,0x3a,0x0a,0x40,0x77,0x61,0x69,0x74,0x54,0x3a,0x0a,0x40,0x6c,0x69,0x73,0x74,0x5b,0x07,0x6f,0x3a,0x15,0x52,0x50,0x47,0x3a,0x3a,0x4d,0x6f,0x76,0x65,0x43,0x6f,0x6d,0x6d,0x61,0x6e,0x64,0x07,0x3a,0x0a,0x40,0x63,0x6f,0x64,0x65,0x69,0x08,0x3a,0x10,0x40,0x70,0x61,0x72,0x61,0x6d,0x65,0x74,0x65,0x72,0x73,0x5b,0x00,0x6f,0x3b,0x0a,0x07,0x3b,0x0b,0x69,0x00,0x3b,0x0c,0x5b,0x00))
   EndEventProcessing()
   0()
  EndIf()
  250(bytes(0x04,0x08,0x6f,0x3a,0x0c,0x52,0x50,0x47,0x3a,0x3a,0x53,0x45,0x08,0x3a,0x0a,0x40,0x6e,0x61,0x6d,0x65,0x49,0x22,0x09,0x4d,0x6f,0x76,0x65,0x06,0x3a,0x06,0x45,0x54,0x3a,0x0b,0x40,0x70,0x69,0x74,0x63,0x68,0x69,0x69,0x3a,0x0c,0x40,0x76,0x6f,0x6c,0x75,0x6d,0x65,0x69,0x55))
  TeleportPlayer(0,898,15,7,0,0)
  0()



EVENT   10
 PAGE   1
  // condition: variable 1209 >= 1
  RunCommonEvent(524)
  0()
 PAGE   2
  // condition: variable 1209 >= 7
  0()



EVENT   11
 PAGE   1
  // condition: variable 1209 >= 1
  RunCommonEvent(524)
  0()
 PAGE   2
  // condition: variable 1209 >= 7
  0()



EVENT   13
 PAGE   1
  // condition: variable 1209 >= 1
  RunCommonEvent(524)
  0()
 PAGE   2
  // condition: variable 1209 >= 7
  0()



EVENT   14
 PAGE   1
  // condition: switch 31 is ON
  0()
 PAGE   2
  // condition: variable 1209 >= 7
  PictureDisplay(5,"80_executioner_st01",0,0,70,-50,70,70,0,0)
  PictureDisplay(6,"80_ogretooth_st01",0,0,-150,80,100,100,0,0)
  PictureDisplay(7,"80_mistilteinn_st01",0,0,280,130,80,80,0,0)
  PictureMove(5,null,0,0,70,-50,70,70,255,0,30,false)
  PictureMove(6,null,0,0,-150,80,100,100,255,0,30,false)
  PictureMove(7,null,0,0,280,130,80,80,255,0,30,true)
  ShowMessageFace("mistilteinn_fc1",0,0,2,1)
  ShowMessage("\\n<Mysteltainn>")
  ShowMessage("もう、逃げられませんよ……")
  250(bytes(0x04,0x08,0x6f,0x3a,0x0c,0x52,0x50,0x47,0x3a,0x3a,0x53,0x45,0x08,0x3a,0x0a,0x40,0x6e,0x61,0x6d,0x65,0x49,0x22,0x0a,0x44,0x6f,0x77,0x6e,0x31,0x06,0x3a,0x06,0x45,0x54,0x3a,0x0b,0x40,0x70,0x69,0x74,0x63,0x68,0x69,0x69,0x3a,0x0c,0x40,0x76,0x6f,0x6c,0x75,0x6d,0x65,0x69,0x55))
  ShowMessageFace("",0,0,2,2)
  ShowMessage("魔剣三姉妹に捕まってしまった……")
  241(bytes(0x04,0x08,0x6f,0x3a,0x0d,0x52,0x50,0x47,0x3a,0x3a,0x42,0x47,0x4d,0x08,0x3a,0x0a,0x40,0x6e,0x61,0x6d,0x65,0x49,0x22,0x09,0x65,0x72,0x6f,0x31,0x06,0x3a,0x06,0x45,0x54,0x3a,0x0c,0x40,0x76,0x6f,0x6c,0x75,0x6d,0x65,0x69,0x69,0x3a,0x0b,0x40,0x70,0x69,0x74,0x63,0x68,0x69,0x69))
  ShowMessageFace("mistilteinn_fc1",0,0,2,3)
  ShowMessage("\\n<Mysteltainn>")
  ShowMessage("それでは、その精を頂きましょうか。")
  ShowMessage("我々も忙しいので、手早く終わらせますね。")
  ShowMessageFace("executioner_fc1",1,0,2,4)
  ShowMessage("\\n<Executioner>")
  ShowMessage("ふふっ、きもちよ～く処刑してあげる♪")
  ShowMessageFace("ogretooth_fc1",0,0,2,5)
  ShowMessage("\\n<Ogretooth>")
  ShowMessage("さあ、死ぬまで犯してやるぜ！")
  ShowMessageFace("rest_fc1",0,0,2,6)
  ShowMessage("\\n<Lest>")
  ShowMessage("や、やめろ……！")
  221()
  PictureClear(5)
  PictureClear(6)
  PictureClear(7)
  RunCommonEvent(104)
  RunCommonEvent(105)
  ShowMessageFace("rest_fc1",0,0,2,7)
  ShowMessage("\\n<Lest>")
  ShowMessage("ぅ……ぅぅ……")
  ShowMessageFace("mistilteinn_fc1",0,0,2,8)
  ShowMessage("\\n<Mysteltainn>")
  ShowMessage("ごちそうさま……")
  ShowMessage("これで、こっちは片付きましたね。")
  242(1)
  Wait(120)
  ShowMessageFace("",0,0,2,9)
  ShowMessage("・・・・・・・・")
  RunCommonEvent(2999)
  0()
 PAGE   3
  // condition: variable 1209 >= 8
  0()



EVENT   15
 PAGE   1
  // condition: switch 31 is ON
  0()
 PAGE   2
  // condition: variable 1209 >= 7
  PictureDisplay(5,"80_executioner_st01",0,0,70,-50,70,70,0,0)
  PictureDisplay(6,"80_ogretooth_st01",0,0,-150,80,100,100,0,0)
  PictureDisplay(7,"80_mistilteinn_st01",0,0,280,130,80,80,0,0)
  PictureMove(5,null,0,0,70,-50,70,70,255,0,30,false)
  PictureMove(6,null,0,0,-150,80,100,100,255,0,30,false)
  PictureMove(7,null,0,0,280,130,80,80,255,0,30,true)
  ShowMessageFace("ogretooth_fc1",0,0,2,1)
  ShowMessage("\\n<Ogretooth>")
  ShowMessage("ははっ、捕まえたぜ！")
  250(bytes(0x04,0x08,0x6f,0x3a,0x0c,0x52,0x50,0x47,0x3a,0x3a,0x53,0x45,0x08,0x3a,0x0a,0x40,0x6e,0x61,0x6d,0x65,0x49,0x22,0x0a,0x44,0x6f,0x77,0x6e,0x31,0x06,0x3a,0x06,0x45,0x54,0x3a,0x0b,0x40,0x70,0x69,0x74,0x63,0x68,0x69,0x69,0x3a,0x0c,0x40,0x76,0x6f,0x6c,0x75,0x6d,0x65,0x69,0x55))
  ShowMessageFace("",0,0,2,2)
  ShowMessage("魔剣三姉妹に捕まってしまった……")
  241(bytes(0x04,0x08,0x6f,0x3a,0x0d,0x52,0x50,0x47,0x3a,0x3a,0x42,0x47,0x4d,0x08,0x3a,0x0a,0x40,0x6e,0x61,0x6d,0x65,0x49,0x22,0x09,0x65,0x72,0x6f,0x31,0x06,0x3a,0x06,0x45,0x54,0x3a,0x0c,0x40,0x76,0x6f,0x6c,0x75,0x6d,0x65,0x69,0x69,0x3a,0x0b,0x40,0x70,0x69,0x74,0x63,0x68,0x69,0x69))
  ShowMessageFace("mistilteinn_fc1",0,0,2,3)
  ShowMessage("\\n<Mysteltainn>")
  ShowMessage("それでは、その精を頂きましょうか。")
  ShowMessage("我々も忙しいので、手早く終わらせますね。")
  ShowMessageFace("executioner_fc1",1,0,2,4)
  ShowMessage("\\n<Executioner>")
  ShowMessage("ふふっ、きもちよ～く処刑してあげる♪")
  ShowMessageFace("ogretooth_fc1",0,0,2,5)
  ShowMessage("\\n<Ogretooth>")
  ShowMessage("さあ、死ぬまで犯してやるぜ！")
  ShowMessageFace("rest_fc1",0,0,2,6)
  ShowMessage("\\n<Lest>")
  ShowMessage("や、やめろ……！")
  221()
  PictureClear(5)
  PictureClear(6)
  PictureClear(7)
  RunCommonEvent(104)
  RunCommonEvent(105)
  ShowMessageFace("rest_fc1",0,0,2,7)
  ShowMessage("\\n<Lest>")
  ShowMessage("ぅ……ぅぅ……")
  ShowMessageFace("mistilteinn_fc1",0,0,2,8)
  ShowMessage("\\n<Mysteltainn>")
  ShowMessage("ごちそうさま……")
  ShowMessage("これで、こっちは片付きましたね。")
  242(1)
  Wait(120)
  ShowMessageFace("",0,0,2,9)
  ShowMessage("・・・・・・・・")
  RunCommonEvent(2999)
  0()
 PAGE   3
  // condition: variable 1209 >= 8
  0()



EVENT   16
 PAGE   1
  // condition: switch 31 is ON
  0()
 PAGE   2
  // condition: variable 1209 >= 7
  PictureDisplay(5,"80_executioner_st01",0,0,70,-50,70,70,0,0)
  PictureDisplay(6,"80_ogretooth_st01",0,0,-150,80,100,100,0,0)
  PictureDisplay(7,"80_mistilteinn_st01",0,0,280,130,80,80,0,0)
  PictureMove(5,null,0,0,70,-50,70,70,255,0,30,false)
  PictureMove(6,null,0,0,-150,80,100,100,255,0,30,false)
  PictureMove(7,null,0,0,280,130,80,80,255,0,30,true)
  ShowMessageFace("executioner_fc1",1,0,2,1)
  ShowMessage("\\n<Executioner>")
  ShowMessage("はい、つかまえた～♪")
  250(bytes(0x04,0x08,0x6f,0x3a,0x0c,0x52,0x50,0x47,0x3a,0x3a,0x53,0x45,0x08,0x3a,0x0a,0x40,0x6e,0x61,0x6d,0x65,0x49,0x22,0x0a,0x44,0x6f,0x77,0x6e,0x31,0x06,0x3a,0x06,0x45,0x54,0x3a,0x0b,0x40,0x70,0x69,0x74,0x63,0x68,0x69,0x69,0x3a,0x0c,0x40,0x76,0x6f,0x6c,0x75,0x6d,0x65,0x69,0x55))
  ShowMessageFace("",0,0,2,2)
  ShowMessage("魔剣三姉妹に捕まってしまった……")
  241(bytes(0x04,0x08,0x6f,0x3a,0x0d,0x52,0x50,0x47,0x3a,0x3a,0x42,0x47,0x4d,0x08,0x3a,0x0a,0x40,0x6e,0x61,0x6d,0x65,0x49,0x22,0x09,0x65,0x72,0x6f,0x31,0x06,0x3a,0x06,0x45,0x54,0x3a,0x0c,0x40,0x76,0x6f,0x6c,0x75,0x6d,0x65,0x69,0x69,0x3a,0x0b,0x40,0x70,0x69,0x74,0x63,0x68,0x69,0x69))
  ShowMessageFace("mistilteinn_fc1",0,0,2,3)
  ShowMessage("\\n<Mysteltainn>")
  ShowMessage("それでは、その精を頂きましょうか。")
  ShowMessage("我々も忙しいので、手早く終わらせますね。")
  ShowMessageFace("executioner_fc1",1,0,2,4)
  ShowMessage("\\n<Executioner>")
  ShowMessage("ふふっ、きもちよ～く処刑してあげる♪")
  ShowMessageFace("ogretooth_fc1",0,0,2,5)
  ShowMessage("\\n<Ogretooth>")
  ShowMessage("さあ、死ぬまで犯してやるぜ！")
  ShowMessageFace("rest_fc1",0,0,2,6)
  ShowMessage("\\n<Lest>")
  ShowMessage("や、やめろ……！")
  221()
  PictureClear(5)
  PictureClear(6)
  PictureClear(7)
  RunCommonEvent(104)
  RunCommonEvent(105)
  ShowMessageFace("rest_fc1",0,0,2,7)
  ShowMessage("\\n<Lest>")
  ShowMessage("ぅ……ぅぅ……")
  ShowMessageFace("mistilteinn_fc1",0,0,2,8)
  ShowMessage("\\n<Mysteltainn>")
  ShowMessage("ごちそうさま……")
  ShowMessage("これで、こっちは片付きましたね。")
  242(1)
  Wait(120)
  ShowMessageFace("",0,0,2,9)
  ShowMessage("・・・・・・・・")
  RunCommonEvent(2999)
  0()
 PAGE   3
  // condition: variable 1209 >= 8
  0()



EVENT   17
 PAGE   1
  // condition: variable 1210 >= 3
  ChangeSelfSwitch("A",0)
  ShowMessageFace("rovissa_fc1",0,0,2,1)
  ShowMessage("\\n<Rovissa>")
  ShowMessage("魔城を出るのは、そっちじゃないわ。")
  ShowMessage("階上に上がらないと……")
  EndEventProcessing()
  0()
 PAGE   2
  // condition: self-switch A is ON
  0()



EVENT   18
 PAGE   1
  // condition: variable 1210 >= 3
  ChangeSelfSwitch("A",0)
  ShowMessageFace("rovissa_fc1",0,0,2,1)
  ShowMessage("\\n<Rovissa>")
  ShowMessage("魔城を出るのは、そっちじゃないわ。")
  ShowMessage("階上に上がらないと……")
  EndEventProcessing()
  0()
 PAGE   2
  // condition: self-switch A is ON
  0()



EVENT   19
 PAGE   1
  0()



EVENT   4
 PAGE   1
  0()



EVENT   20
 PAGE   1
  0()



EVENT   21
 PAGE   1
  0()



EVENT   12
 PAGE   1
  0()



EVENT   22
 PAGE   1
  0()



EVENT   23
 PAGE   1
  0()



EVENT   9
 PAGE   1
  RunCommonEvent(500)
  0()



EVENT   24
 PAGE   1
  // condition: variable 1209 >= 1
  RunCommonEvent(524)
  0()
 PAGE   2
  // condition: variable 1209 >= 7
  0()



EVENT   2
 PAGE   1
  If(1,1209,0,7,0)
   ChangeSwitch(31,31,1)
   ChangeSwitch(32,32,1)
   ChangeSwitch(33,33,1)
   ChangeSwitch(34,34,1)
   ChangeSwitch(35,35,1)
   ChangeSwitch(89,89,1)
   TeleportPlayer(0,942,17,19,8,0)
   EndEventProcessing()
   0()
  EndIf()
  ChangeSwitch(35,35,1)
  250(bytes(0x04,0x08,0x6f,0x3a,0x0c,0x52,0x50,0x47,0x3a,0x3a,0x53,0x45,0x08,0x3a,0x0a,0x40,0x6e,0x61,0x6d,0x65,0x49,0x22,0x09,0x4d,0x6f,0x76,0x65,0x06,0x3a,0x06,0x45,0x54,0x3a,0x0b,0x40,0x70,0x69,0x74,0x63,0x68,0x69,0x69,0x3a,0x0c,0x40,0x76,0x6f,0x6c,0x75,0x6d,0x65,0x69,0x55))
  TeleportPlayer(0,876,17,19,0,0)
  0()



EVENT   6
 PAGE   1
  If(1,1209,0,7,0)
   ChangeSwitch(31,31,1)
   ChangeSwitch(32,32,1)
   ChangeSwitch(33,33,1)
   ChangeSwitch(34,34,1)
   ChangeSwitch(35,35,1)
   ChangeSwitch(89,89,1)
   TeleportPlayer(0,942,17,19,8,0)
   EndEventProcessing()
   0()
  EndIf()
  ChangeSwitch(35,35,1)
  250(bytes(0x04,0x08,0x6f,0x3a,0x0c,0x52,0x50,0x47,0x3a,0x3a,0x53,0x45,0x08,0x3a,0x0a,0x40,0x6e,0x61,0x6d,0x65,0x49,0x22,0x09,0x4d,0x6f,0x76,0x65,0x06,0x3a,0x06,0x45,0x54,0x3a,0x0b,0x40,0x70,0x69,0x74,0x63,0x68,0x69,0x69,0x3a,0x0c,0x40,0x76,0x6f,0x6c,0x75,0x6d,0x65,0x69,0x55))
  TeleportPlayer(0,876,17,19,0,0)
  0()



EVENT   7
 PAGE   1
  If(1,1209,0,7,0)
   ChangeSwitch(31,31,1)
   ChangeSwitch(32,32,1)
   ChangeSwitch(33,33,1)
   ChangeSwitch(34,34,1)
   ChangeSwitch(35,35,1)
   ChangeSwitch(89,89,1)
   TeleportPlayer(0,942,17,19,8,0)
   EndEventProcessing()
   0()
  EndIf()
  ChangeSwitch(35,35,1)
  250(bytes(0x04,0x08,0x6f,0x3a,0x0c,0x52,0x50,0x47,0x3a,0x3a,0x53,0x45,0x08,0x3a,0x0a,0x40,0x6e,0x61,0x6d,0x65,0x49,0x22,0x09,0x4d,0x6f,0x76,0x65,0x06,0x3a,0x06,0x45,0x54,0x3a,0x0b,0x40,0x70,0x69,0x74,0x63,0x68,0x69,0x69,0x3a,0x0c,0x40,0x76,0x6f,0x6c,0x75,0x6d,0x65,0x69,0x55))
  TeleportPlayer(0,876,17,19,0,0)
  0()



EVENT   8
 PAGE   1
  If(1,1209,0,7,0)
   ChangeSwitch(31,31,1)
   ChangeSwitch(32,32,1)
   ChangeSwitch(33,33,1)
   ChangeSwitch(34,34,1)
   ChangeSwitch(35,35,1)
   ChangeSwitch(89,89,1)
   TeleportPlayer(0,942,17,19,8,0)
   EndEventProcessing()
   0()
  EndIf()
  ChangeSwitch(35,35,1)
  250(bytes(0x04,0x08,0x6f,0x3a,0x0c,0x52,0x50,0x47,0x3a,0x3a,0x53,0x45,0x08,0x3a,0x0a,0x40,0x6e,0x61,0x6d,0x65,0x49,0x22,0x09,0x4d,0x6f,0x76,0x65,0x06,0x3a,0x06,0x45,0x54,0x3a,0x0b,0x40,0x70,0x69,0x74,0x63,0x68,0x69,0x69,0x3a,0x0c,0x40,0x76,0x6f,0x6c,0x75,0x6d,0x65,0x69,0x55))
  TeleportPlayer(0,876,17,19,0,0)
  0()
