﻿


EVENT   1
 PAGE   1
  250(bytes(0x04,0x08,0x6f,0x3a,0x0c,0x52,0x50,0x47,0x3a,0x3a,0x53,0x45,0x08,0x3a,0x0a,0x40,0x6e,0x61,0x6d,0x65,0x49,0x22,0x09,0x4d,0x6f,0x76,0x65,0x06,0x3a,0x06,0x45,0x54,0x3a,0x0b,0x40,0x70,0x69,0x74,0x63,0x68,0x69,0x69,0x3a,0x0c,0x40,0x76,0x6f,0x6c,0x75,0x6d,0x65,0x69,0x55))
  TeleportPlayer(0,883,20,21,0,0)
  0()



EVENT   2
 PAGE   1
  250(bytes(0x04,0x08,0x6f,0x3a,0x0c,0x52,0x50,0x47,0x3a,0x3a,0x53,0x45,0x08,0x3a,0x0a,0x40,0x6e,0x61,0x6d,0x65,0x49,0x22,0x09,0x4d,0x6f,0x76,0x65,0x06,0x3a,0x06,0x45,0x54,0x3a,0x0b,0x40,0x70,0x69,0x74,0x63,0x68,0x69,0x69,0x3a,0x0c,0x40,0x76,0x6f,0x6c,0x75,0x6d,0x65,0x69,0x55))
  TeleportPlayer(0,883,20,21,0,0)
  0()



EVENT   3
 PAGE   1
  250(bytes(0x04,0x08,0x6f,0x3a,0x0c,0x52,0x50,0x47,0x3a,0x3a,0x53,0x45,0x08,0x3a,0x0a,0x40,0x6e,0x61,0x6d,0x65,0x49,0x22,0x09,0x4d,0x6f,0x76,0x65,0x06,0x3a,0x06,0x45,0x54,0x3a,0x0b,0x40,0x70,0x69,0x74,0x63,0x68,0x69,0x69,0x3a,0x0c,0x40,0x76,0x6f,0x6c,0x75,0x6d,0x65,0x69,0x55))
  TeleportPlayer(0,883,20,21,0,0)
  0()



EVENT   4
 PAGE   1
  ChangeSwitch(31,31,1)
  250(bytes(0x04,0x08,0x6f,0x3a,0x0c,0x52,0x50,0x47,0x3a,0x3a,0x53,0x45,0x08,0x3a,0x0a,0x40,0x6e,0x61,0x6d,0x65,0x49,0x22,0x09,0x4d,0x6f,0x76,0x65,0x06,0x3a,0x06,0x45,0x54,0x3a,0x0b,0x40,0x70,0x69,0x74,0x63,0x68,0x69,0x69,0x3a,0x0c,0x40,0x76,0x6f,0x6c,0x75,0x6d,0x65,0x69,0x55))
  TeleportPlayer(0,883,51,21,0,0)
  0()



EVENT   5
 PAGE   1
  ChangeSwitch(31,31,1)
  250(bytes(0x04,0x08,0x6f,0x3a,0x0c,0x52,0x50,0x47,0x3a,0x3a,0x53,0x45,0x08,0x3a,0x0a,0x40,0x6e,0x61,0x6d,0x65,0x49,0x22,0x09,0x4d,0x6f,0x76,0x65,0x06,0x3a,0x06,0x45,0x54,0x3a,0x0b,0x40,0x70,0x69,0x74,0x63,0x68,0x69,0x69,0x3a,0x0c,0x40,0x76,0x6f,0x6c,0x75,0x6d,0x65,0x69,0x55))
  TeleportPlayer(0,883,51,21,0,0)
  0()



EVENT   6
 PAGE   1
  ChangeSwitch(31,31,1)
  250(bytes(0x04,0x08,0x6f,0x3a,0x0c,0x52,0x50,0x47,0x3a,0x3a,0x53,0x45,0x08,0x3a,0x0a,0x40,0x6e,0x61,0x6d,0x65,0x49,0x22,0x09,0x4d,0x6f,0x76,0x65,0x06,0x3a,0x06,0x45,0x54,0x3a,0x0b,0x40,0x70,0x69,0x74,0x63,0x68,0x69,0x69,0x3a,0x0c,0x40,0x76,0x6f,0x6c,0x75,0x6d,0x65,0x69,0x55))
  TeleportPlayer(0,883,51,21,0,0)
  0()



EVENT   7
 PAGE   1
  PictureDisplay(5,"80_succubusm_st01",0,0,0,0,100,100,0,0)
  PictureMove(5,null,0,0,0,0,100,100,255,0,30,true)
  ShowMessageFace("succubusm_fc1",0,0,2,1)
  ShowMessage("\\n<サキュバス>")
  ShowMessage("ここは、宝物庫……")
  ShowMessage("通すわけにはいかないわ♡")
  PictureClear(5)
  Battle(0,1369,false,false)
  ChangeSelfSwitch("A",0)
  0()
 PAGE   2
  // condition: self-switch A is ON
  0()



EVENT   10
 PAGE   1
  PictureDisplay(5,"80_succubusm_st01",0,0,0,0,100,100,0,0)
  PictureMove(5,null,0,0,0,0,100,100,255,0,30,true)
  If(1,1208,0,3,0)
   ChangeVariable(1208,1208,0,0,4)
   ShowMessageFace("succubusm_fc1",0,0,2,1)
   ShowMessage("\\n<夢魔>")
   ShowMessage("解除装置の場所が知りたいの？")
   ShowMessage("でも、タダじゃねぇ……")
   ShowMessageFace("succubusm_fc1",0,0,2,2)
   ShowMessage("\\n<夢魔>")
   ShowMessage("そっちの男三人の誰かから、少し精を吸わせてよ。")
   ShowMessage("そうしたら、教えてあげる。")
   ShowMessageFace("magatu_fc1",0,0,2,3)
   ShowMessage("\\n<Magatsu>")
   ShowMessage("うむ、良いぞ。")
   ShowMessage("さあ、誰に吸わせる？")
   ShowMessageFace("kazuya_fc2",3,0,2,4)
   ShowMessage("\\n<Kazuya>")
   ShowMessage("めっちゃ快諾してるぅ！？")
   ShowMessageFace("rejeo_fc1",1,0,2,5)
   ShowMessage("\\n<Rigeo>")
   ShowMessage("ちょっと、そんな勝手に――")
   ShowMessageFace("",0,0,2,6)
   ShowMessage("誰の精を夢魔に与えますか？")
   ShowChoices(strings("カズヤ","白念","ロウラット"),0)
   IfPlayerPicksChoice(0,null)
    ShowMessageFace("kazuya_fc4",7,0,2,7)
    ShowMessage("\\n<Kazuya>")
    ShowMessage("僕か、仕方ない……")
    ShowMessageFace("mukuro_fc1",3,0,2,8)
    ShowMessage("\\n<Mukuro>")
    ShowMessage("カズヤ、声が上ずっているぞ……")
    ShowMessage("もしかして、期待しているのか？")
    ShowMessageFace("kazuya_fc2",3,0,2,9)
    ShowMessage("\\n<Kazuya>")
    ShowMessage("ち、違うよ！")
    ShowMessage("本当に仕方なくだって……！")
    ShowMessageFace("succubusm_fc1",1,0,2,10)
    ShowMessage("\\n<夢魔>")
    ShowMessage("それじゃあ、ちゅっ♡")
    250(bytes(0x04,0x08,0x6f,0x3a,0x0c,0x52,0x50,0x47,0x3a,0x3a,0x53,0x45,0x08,0x3a,0x0a,0x40,0x6e,0x61,0x6d,0x65,0x49,0x22,0x11,0x6d,0x6f,0x6e,0x5f,0x65,0x72,0x6f,0x5f,0x70,0x79,0x75,0x31,0x06,0x3a,0x06,0x45,0x54,0x3a,0x0b,0x40,0x70,0x69,0x74,0x63,0x68,0x69,0x69,0x3a,0x0c,0x40,0x76,0x6f,0x6c,0x75,0x6d,0x65,0x69,0x69))
    ShowMessageFace("",0,0,2,11)
    ShowMessage("夢魔はカズヤに唇を重ねた！")
    ShowMessageFace("kazuya_fc3",0,0,2,12)
    ShowMessage("\\n<Kazuya>")
    ShowMessage("うぅっ……！")
    ShowMessageFace("succubusm_fc1",1,0,2,13)
    ShowMessage("\\n<夢魔>")
    ShowMessage("ちゅぅぅっ……♡")
    ShowMessageFace("kazuya_fc3",4,0,2,14)
    ShowMessage("\\n<Kazuya>")
    ShowMessage("あ……うぁぁぁ……")
    250(bytes(0x04,0x08,0x6f,0x3a,0x0c,0x52,0x50,0x47,0x3a,0x3a,0x53,0x45,0x08,0x3a,0x0a,0x40,0x6e,0x61,0x6d,0x65,0x49,0x22,0x13,0x6d,0x6f,0x6e,0x5f,0x65,0x72,0x6f,0x5f,0x63,0x68,0x75,0x70,0x61,0x36,0x06,0x3a,0x06,0x45,0x54,0x3a,0x0b,0x40,0x70,0x69,0x74,0x63,0x68,0x69,0x69,0x3a,0x0c,0x40,0x76,0x6f,0x6c,0x75,0x6d,0x65,0x69,0x55))
    311(0,815,1,0,1500,true)
    ShowMessageFace("",0,0,2,15)
    ShowMessage("カズヤの精が吸われていく……")
    ShowMessageFace("mukuro_fc1",3,0,2,16)
    ShowMessage("\\n<Mukuro>")
    ShowMessage("……………………")
    ShowMessage("……………………")
    ShowMessageFace("lanpass_fc2",5,0,2,17)
    ShowMessage("\\n<Lampas>")
    ShowMessage("ねぇ、もうそれくらいでいいんじゃない？")
    ShowMessage("躯ちゃんの髪の毛がゾワゾワし出したんだけど……")
    ShowMessageFace("succubusm_fc1",1,0,2,18)
    ShowMessage("\\n<夢魔>")
    ShowMessage("うふふっ、味わわせてもらったわ……")
    ShowMessageFace("",0,0,2,19)
    ShowMessage("夢魔は、カズヤから唇を離した……")
    0()
   IfPlayerPicksChoice(1,null)
    ShowMessageFace("magatu_fc1",0,0,2,20)
    ShowMessage("\\n<Magatsu>")
    ShowMessage("では白念、お主が行け。")
    ShowMessageFace("byakunen_fc2",4,0,2,21)
    ShowMessage("\\n<Hakunen>")
    ShowMessage("そ、そんな……お師匠様……")
    ShowMessageFace("magatu_fc1",0,0,2,22)
    ShowMessage("\\n<Magatsu>")
    ShowMessage("これも修行と思うがいい……さあ。")
    ShowMessageFace("byakunen_fc3",2,0,2,23)
    ShowMessage("\\n<Hakunen>")
    ShowMessage("は、はい……お手柔らかにお願いします。")
    ShowMessageFace("succubusm_fc1",1,0,2,24)
    ShowMessage("\\n<夢魔>")
    ShowMessage("それじゃあ、ちゅっ♡")
    250(bytes(0x04,0x08,0x6f,0x3a,0x0c,0x52,0x50,0x47,0x3a,0x3a,0x53,0x45,0x08,0x3a,0x0a,0x40,0x6e,0x61,0x6d,0x65,0x49,0x22,0x11,0x6d,0x6f,0x6e,0x5f,0x65,0x72,0x6f,0x5f,0x70,0x79,0x75,0x31,0x06,0x3a,0x06,0x45,0x54,0x3a,0x0b,0x40,0x70,0x69,0x74,0x63,0x68,0x69,0x69,0x3a,0x0c,0x40,0x76,0x6f,0x6c,0x75,0x6d,0x65,0x69,0x69))
    ShowMessageFace("",0,0,2,25)
    ShowMessage("夢魔は白念に唇を重ねた！")
    ShowMessageFace("byakunen_fc3",5,0,2,26)
    ShowMessage("\\n<Hakunen>")
    ShowMessage("んんっ……")
    ShowMessageFace("succubusm_fc1",1,0,2,27)
    ShowMessage("\\n<夢魔>")
    ShowMessage("ちゅぅぅっ……♡")
    ShowMessageFace("byakunen_fc3",4,0,2,28)
    ShowMessage("\\n<Hakunen>")
    ShowMessage("ふぁぁぁぁ……")
    250(bytes(0x04,0x08,0x6f,0x3a,0x0c,0x52,0x50,0x47,0x3a,0x3a,0x53,0x45,0x08,0x3a,0x0a,0x40,0x6e,0x61,0x6d,0x65,0x49,0x22,0x13,0x6d,0x6f,0x6e,0x5f,0x65,0x72,0x6f,0x5f,0x63,0x68,0x75,0x70,0x61,0x36,0x06,0x3a,0x06,0x45,0x54,0x3a,0x0b,0x40,0x70,0x69,0x74,0x63,0x68,0x69,0x69,0x3a,0x0c,0x40,0x76,0x6f,0x6c,0x75,0x6d,0x65,0x69,0x55))
    311(0,811,1,0,1500,true)
    ShowMessageFace("",0,0,2,29)
    ShowMessage("白念の精が吸われていく……")
    ShowMessageFace("magatu_fc1",4,0,2,30)
    ShowMessage("\\n<Magatsu>")
    ShowMessage("くくく……感じておるな、白念。")
    ShowMessage("とろけた顔をしおって……くくくっ。")
    ShowMessageFace("rejeo_fc1",1,0,2,31)
    ShowMessage("\\n<Rigeo>")
    ShowMessage("（この人、変なシュミでもあるの……？）")
    ShowMessageFace("succubusm_fc1",1,0,2,32)
    ShowMessage("\\n<夢魔>")
    ShowMessage("うふふっ、味わわせてもらったわ……")
    ShowMessageFace("",0,0,2,33)
    ShowMessage("夢魔は、白念から唇を離した……")
    0()
   IfPlayerPicksChoice(2,null)
    ShowMessageFace("rejeo_fc1",1,0,2,34)
    ShowMessage("\\n<Rigeo>")
    ShowMessage("えっ、ちょっと……！")
    ShowMessage("ロウラットが行かなくても……")
    ShowMessageFace("lawrat_fc1",0,0,2,35)
    ShowMessage("\\n<Lauratt>")
    ShowMessage("……………………")
    ShowMessageFace("succubusm_fc1",1,0,2,36)
    ShowMessage("\\n<夢魔>")
    ShowMessage("それじゃあ、ちゅっ♡")
    250(bytes(0x04,0x08,0x6f,0x3a,0x0c,0x52,0x50,0x47,0x3a,0x3a,0x53,0x45,0x08,0x3a,0x0a,0x40,0x6e,0x61,0x6d,0x65,0x49,0x22,0x11,0x6d,0x6f,0x6e,0x5f,0x65,0x72,0x6f,0x5f,0x70,0x79,0x75,0x31,0x06,0x3a,0x06,0x45,0x54,0x3a,0x0b,0x40,0x70,0x69,0x74,0x63,0x68,0x69,0x69,0x3a,0x0c,0x40,0x76,0x6f,0x6c,0x75,0x6d,0x65,0x69,0x69))
    ShowMessageFace("",0,0,2,37)
    ShowMessage("夢魔はロウラットに唇を重ねた！")
    ShowMessageFace("lawrat_fc1",1,0,2,38)
    ShowMessage("\\n<Lauratt>")
    ShowMessage("…………！！")
    ShowMessageFace("succubusm_fc1",1,0,2,39)
    ShowMessage("\\n<夢魔>")
    ShowMessage("ちゅぅぅっ……♡")
    ShowMessageFace("lawrat_fc1",1,0,2,40)
    ShowMessage("\\n<Lauratt>")
    ShowMessage("……………………")
    250(bytes(0x04,0x08,0x6f,0x3a,0x0c,0x52,0x50,0x47,0x3a,0x3a,0x53,0x45,0x08,0x3a,0x0a,0x40,0x6e,0x61,0x6d,0x65,0x49,0x22,0x13,0x6d,0x6f,0x6e,0x5f,0x65,0x72,0x6f,0x5f,0x63,0x68,0x75,0x70,0x61,0x36,0x06,0x3a,0x06,0x45,0x54,0x3a,0x0b,0x40,0x70,0x69,0x74,0x63,0x68,0x69,0x69,0x3a,0x0c,0x40,0x76,0x6f,0x6c,0x75,0x6d,0x65,0x69,0x55))
    311(0,807,1,0,1500,true)
    ShowMessageFace("",0,0,2,41)
    ShowMessage("ロウラットの精が吸われていく……")
    ShowMessageFace("magatu_fc1",0,0,2,42)
    ShowMessage("\\n<Magatsu>")
    ShowMessage("どうした、リジェオ。")
    ShowMessage("ずいぶん苛立っているようだが……")
    ShowMessageFace("rejeo_fc1",0,0,2,43)
    ShowMessage("\\n<Rigeo>")
    ShowMessage("別に……苛立って、ないし……")
    ShowMessage("このぐらい、全然珍しいことでもないから……")
    ShowMessageFace("succubusm_fc1",1,0,2,44)
    ShowMessage("\\n<夢魔>")
    ShowMessage("うふふっ、味わわせてもらったわ……")
    ShowMessageFace("",0,0,2,45)
    ShowMessage("夢魔は、ロウラットから唇を離した……")
    0()
   404()
   0()
  EndIf()
  If(1,1208,0,4,1)
   If(1,1208,0,6,2)
    ShowMessageFace("succubusm_fc1",0,0,2,46)
    ShowMessage("\\n<夢魔>")
    ShowMessage("それじゃあ、約束通り……ヒントをあげるわ。")
    ShowMessage("夢魔が踊ってるフロアに行ってみなさい。")
    ShowMessageFace("rejeo_fc1",0,0,2,47)
    ShowMessage("\\n<Rigeo>")
    ShowMessage("精をもらっておいて……ヒントだけ？")
    ShowMessageFace("magatu_fc1",0,0,2,48)
    ShowMessage("\\n<Magatsu>")
    ShowMessage("とりあえず、該当フロアを探し回ってみよう。")
    ShowMessage("その部屋にいる者なら、何か知っているかもしれんしな。")
    PictureClear(5)
    EndEventProcessing()
    0()
   EndIf()
   0()
  EndIf()
  ShowMessageFace("succubusm_fc1",2,0,2,49)
  ShowMessage("\\n<夢魔>")
  ShowMessage("ああもう、忙しいわ……")
  ShowMessage("ちょっと、邪魔しないでよ。")
  PictureClear(5)
  0()



EVENT   11
 PAGE   1
  ShowMessageFace("youkosan_fc1",0,0,2,1)
  ShowMessage("\\n<妖狐>")
  ShowMessage("どれ、少々つまみ食いでも……")
  ShowMessage("……見ないでよ。")
  0()



EVENT   12
 PAGE   1
  ShowMessageFace("monk_demon_fc1",0,0,2,1)
  ShowMessage("\\n<モンクデーモン>")
  ShowMessage("夢魔は本来、食事する必要がないみたいね。")
  ShowMessage("でも、味を楽しむ夢魔も多いみたい。")
  0()



EVENT   8
 PAGE   1
  250(bytes(0x04,0x08,0x6f,0x3a,0x0c,0x52,0x50,0x47,0x3a,0x3a,0x53,0x45,0x08,0x3a,0x0a,0x40,0x6e,0x61,0x6d,0x65,0x49,0x22,0x0a,0x43,0x68,0x65,0x73,0x74,0x06,0x3a,0x06,0x45,0x54,0x3a,0x0b,0x40,0x70,0x69,0x74,0x63,0x68,0x69,0x69,0x3a,0x0c,0x40,0x76,0x6f,0x6c,0x75,0x6d,0x65,0x69,0x55))
  205(0,bytes(0x04,0x08,0x6f,0x3a,0x13,0x52,0x50,0x47,0x3a,0x3a,0x4d,0x6f,0x76,0x65,0x52,0x6f,0x75,0x74,0x65,0x09,0x3a,0x0c,0x40,0x72,0x65,0x70,0x65,0x61,0x74,0x46,0x3a,0x0f,0x40,0x73,0x6b,0x69,0x70,0x70,0x61,0x62,0x6c,0x65,0x46,0x3a,0x0a,0x40,0x77,0x61,0x69,0x74,0x54,0x3a,0x0a,0x40,0x6c,0x69,0x73,0x74,0x5b,0x0b,0x6f,0x3a,0x15,0x52,0x50,0x47,0x3a,0x3a,0x4d,0x6f,0x76,0x65,0x43,0x6f,0x6d,0x6d,0x61,0x6e,0x64,0x07,0x3a,0x0a,0x40,0x63,0x6f,0x64,0x65,0x69,0x29,0x3a,0x10,0x40,0x70,0x61,0x72,0x61,0x6d,0x65,0x74,0x65,0x72,0x73,0x5b,0x00,0x6f,0x3b,0x0a,0x07,0x3b,0x0b,0x69,0x16,0x3b,0x0c,0x5b,0x00,0x6f,0x3b,0x0a,0x07,0x3b,0x0b,0x69,0x14,0x3b,0x0c,0x5b,0x06,0x69,0x08,0x6f,0x3b,0x0a,0x07,0x3b,0x0b,0x69,0x17,0x3b,0x0c,0x5b,0x00,0x6f,0x3b,0x0a,0x07,0x3b,0x0b,0x69,0x14,0x3b,0x0c,0x5b,0x06,0x69,0x08,0x6f,0x3b,0x0a,0x07,0x3b,0x0b,0x69,0x00,0x3b,0x0c,0x5b,0x00))
  ChangeSelfSwitch("A",0)
  ChangeInventoryWeapon(909,0,0,1,false)
  0()
 PAGE   2
  // condition: self-switch A is ON
  0()



EVENT   9
 PAGE   1
  250(bytes(0x04,0x08,0x6f,0x3a,0x0c,0x52,0x50,0x47,0x3a,0x3a,0x53,0x45,0x08,0x3a,0x0a,0x40,0x6e,0x61,0x6d,0x65,0x49,0x22,0x0a,0x43,0x68,0x65,0x73,0x74,0x06,0x3a,0x06,0x45,0x54,0x3a,0x0b,0x40,0x70,0x69,0x74,0x63,0x68,0x69,0x69,0x3a,0x0c,0x40,0x76,0x6f,0x6c,0x75,0x6d,0x65,0x69,0x55))
  205(0,bytes(0x04,0x08,0x6f,0x3a,0x13,0x52,0x50,0x47,0x3a,0x3a,0x4d,0x6f,0x76,0x65,0x52,0x6f,0x75,0x74,0x65,0x09,0x3a,0x0c,0x40,0x72,0x65,0x70,0x65,0x61,0x74,0x46,0x3a,0x0f,0x40,0x73,0x6b,0x69,0x70,0x70,0x61,0x62,0x6c,0x65,0x46,0x3a,0x0a,0x40,0x77,0x61,0x69,0x74,0x54,0x3a,0x0a,0x40,0x6c,0x69,0x73,0x74,0x5b,0x0b,0x6f,0x3a,0x15,0x52,0x50,0x47,0x3a,0x3a,0x4d,0x6f,0x76,0x65,0x43,0x6f,0x6d,0x6d,0x61,0x6e,0x64,0x07,0x3a,0x0a,0x40,0x63,0x6f,0x64,0x65,0x69,0x29,0x3a,0x10,0x40,0x70,0x61,0x72,0x61,0x6d,0x65,0x74,0x65,0x72,0x73,0x5b,0x00,0x6f,0x3b,0x0a,0x07,0x3b,0x0b,0x69,0x16,0x3b,0x0c,0x5b,0x00,0x6f,0x3b,0x0a,0x07,0x3b,0x0b,0x69,0x14,0x3b,0x0c,0x5b,0x06,0x69,0x08,0x6f,0x3b,0x0a,0x07,0x3b,0x0b,0x69,0x17,0x3b,0x0c,0x5b,0x00,0x6f,0x3b,0x0a,0x07,0x3b,0x0b,0x69,0x14,0x3b,0x0c,0x5b,0x06,0x69,0x08,0x6f,0x3b,0x0a,0x07,0x3b,0x0b,0x69,0x00,0x3b,0x0c,0x5b,0x00))
  ChangeSelfSwitch("A",0)
  ChangeInventoryWeapon(538,0,0,1,false)
  0()
 PAGE   2
  // condition: self-switch A is ON
  0()



EVENT   13
 PAGE   1
  250(bytes(0x04,0x08,0x6f,0x3a,0x0c,0x52,0x50,0x47,0x3a,0x3a,0x53,0x45,0x08,0x3a,0x0a,0x40,0x6e,0x61,0x6d,0x65,0x49,0x22,0x0a,0x43,0x68,0x65,0x73,0x74,0x06,0x3a,0x06,0x45,0x54,0x3a,0x0b,0x40,0x70,0x69,0x74,0x63,0x68,0x69,0x69,0x3a,0x0c,0x40,0x76,0x6f,0x6c,0x75,0x6d,0x65,0x69,0x55))
  205(0,bytes(0x04,0x08,0x6f,0x3a,0x13,0x52,0x50,0x47,0x3a,0x3a,0x4d,0x6f,0x76,0x65,0x52,0x6f,0x75,0x74,0x65,0x09,0x3a,0x0c,0x40,0x72,0x65,0x70,0x65,0x61,0x74,0x46,0x3a,0x0f,0x40,0x73,0x6b,0x69,0x70,0x70,0x61,0x62,0x6c,0x65,0x46,0x3a,0x0a,0x40,0x77,0x61,0x69,0x74,0x54,0x3a,0x0a,0x40,0x6c,0x69,0x73,0x74,0x5b,0x0b,0x6f,0x3a,0x15,0x52,0x50,0x47,0x3a,0x3a,0x4d,0x6f,0x76,0x65,0x43,0x6f,0x6d,0x6d,0x61,0x6e,0x64,0x07,0x3a,0x0a,0x40,0x63,0x6f,0x64,0x65,0x69,0x29,0x3a,0x10,0x40,0x70,0x61,0x72,0x61,0x6d,0x65,0x74,0x65,0x72,0x73,0x5b,0x00,0x6f,0x3b,0x0a,0x07,0x3b,0x0b,0x69,0x16,0x3b,0x0c,0x5b,0x00,0x6f,0x3b,0x0a,0x07,0x3b,0x0b,0x69,0x14,0x3b,0x0c,0x5b,0x06,0x69,0x08,0x6f,0x3b,0x0a,0x07,0x3b,0x0b,0x69,0x17,0x3b,0x0c,0x5b,0x00,0x6f,0x3b,0x0a,0x07,0x3b,0x0b,0x69,0x14,0x3b,0x0c,0x5b,0x06,0x69,0x08,0x6f,0x3b,0x0a,0x07,0x3b,0x0b,0x69,0x00,0x3b,0x0c,0x5b,0x00))
  ChangeSelfSwitch("A",0)
  ChangeInventoryArmor(191,0,0,1,false)
  0()
 PAGE   2
  // condition: self-switch A is ON
  0()



EVENT   14
 PAGE   1
  250(bytes(0x04,0x08,0x6f,0x3a,0x0c,0x52,0x50,0x47,0x3a,0x3a,0x53,0x45,0x08,0x3a,0x0a,0x40,0x6e,0x61,0x6d,0x65,0x49,0x22,0x0a,0x43,0x68,0x65,0x73,0x74,0x06,0x3a,0x06,0x45,0x54,0x3a,0x0b,0x40,0x70,0x69,0x74,0x63,0x68,0x69,0x69,0x3a,0x0c,0x40,0x76,0x6f,0x6c,0x75,0x6d,0x65,0x69,0x55))
  205(0,bytes(0x04,0x08,0x6f,0x3a,0x13,0x52,0x50,0x47,0x3a,0x3a,0x4d,0x6f,0x76,0x65,0x52,0x6f,0x75,0x74,0x65,0x09,0x3a,0x0c,0x40,0x72,0x65,0x70,0x65,0x61,0x74,0x46,0x3a,0x0f,0x40,0x73,0x6b,0x69,0x70,0x70,0x61,0x62,0x6c,0x65,0x46,0x3a,0x0a,0x40,0x77,0x61,0x69,0x74,0x54,0x3a,0x0a,0x40,0x6c,0x69,0x73,0x74,0x5b,0x0b,0x6f,0x3a,0x15,0x52,0x50,0x47,0x3a,0x3a,0x4d,0x6f,0x76,0x65,0x43,0x6f,0x6d,0x6d,0x61,0x6e,0x64,0x07,0x3a,0x0a,0x40,0x63,0x6f,0x64,0x65,0x69,0x29,0x3a,0x10,0x40,0x70,0x61,0x72,0x61,0x6d,0x65,0x74,0x65,0x72,0x73,0x5b,0x00,0x6f,0x3b,0x0a,0x07,0x3b,0x0b,0x69,0x16,0x3b,0x0c,0x5b,0x00,0x6f,0x3b,0x0a,0x07,0x3b,0x0b,0x69,0x14,0x3b,0x0c,0x5b,0x06,0x69,0x08,0x6f,0x3b,0x0a,0x07,0x3b,0x0b,0x69,0x17,0x3b,0x0c,0x5b,0x00,0x6f,0x3b,0x0a,0x07,0x3b,0x0b,0x69,0x14,0x3b,0x0c,0x5b,0x06,0x69,0x08,0x6f,0x3b,0x0a,0x07,0x3b,0x0b,0x69,0x00,0x3b,0x0c,0x5b,0x00))
  ChangeSelfSwitch("A",0)
  ChangeInventoryArmor(67,0,0,1,false)
  0()
 PAGE   2
  // condition: self-switch A is ON
  0()



EVENT   15
 PAGE   1
  0()



EVENT   16
 PAGE   1
  0()



EVENT   17
 PAGE   1
  0()



EVENT   18
 PAGE   1
  0()
