﻿
DisplayName "魔城トゥーロマンサ 第2層"



EVENT   2
 PAGE   1
  250(bytes(0x04,0x08,0x6f,0x3a,0x0c,0x52,0x50,0x47,0x3a,0x3a,0x53,0x45,0x08,0x3a,0x0a,0x40,0x6e,0x61,0x6d,0x65,0x49,0x22,0x09,0x4d,0x6f,0x76,0x65,0x06,0x3a,0x06,0x45,0x54,0x3a,0x0b,0x40,0x70,0x69,0x74,0x63,0x68,0x69,0x69,0x3a,0x0c,0x40,0x76,0x6f,0x6c,0x75,0x6d,0x65,0x69,0x55))
  TeleportPlayer(0,922,45,66,0,0)
  0()



EVENT   5
 PAGE   1
  If(1,1228,0,2,2)
   ChangeVariable(1228,1228,0,0,3)
   0()
  EndIf()
  250(bytes(0x04,0x08,0x6f,0x3a,0x0c,0x52,0x50,0x47,0x3a,0x3a,0x53,0x45,0x08,0x3a,0x0a,0x40,0x6e,0x61,0x6d,0x65,0x49,0x22,0x09,0x4d,0x6f,0x76,0x65,0x06,0x3a,0x06,0x45,0x54,0x3a,0x0b,0x40,0x70,0x69,0x74,0x63,0x68,0x69,0x69,0x3a,0x0c,0x40,0x76,0x6f,0x6c,0x75,0x6d,0x65,0x69,0x55))
  TeleportPlayer(0,924,13,73,0,0)
  0()



EVENT   1
 PAGE   1
  250(bytes(0x04,0x08,0x6f,0x3a,0x0c,0x52,0x50,0x47,0x3a,0x3a,0x53,0x45,0x08,0x3a,0x0a,0x40,0x6e,0x61,0x6d,0x65,0x49,0x22,0x09,0x4d,0x6f,0x76,0x65,0x06,0x3a,0x06,0x45,0x54,0x3a,0x0b,0x40,0x70,0x69,0x74,0x63,0x68,0x69,0x69,0x3a,0x0c,0x40,0x76,0x6f,0x6c,0x75,0x6d,0x65,0x69,0x55))
  TeleportPlayer(0,922,45,66,0,0)
  0()



EVENT   3
 PAGE   1
  250(bytes(0x04,0x08,0x6f,0x3a,0x0c,0x52,0x50,0x47,0x3a,0x3a,0x53,0x45,0x08,0x3a,0x0a,0x40,0x6e,0x61,0x6d,0x65,0x49,0x22,0x09,0x4d,0x6f,0x76,0x65,0x06,0x3a,0x06,0x45,0x54,0x3a,0x0b,0x40,0x70,0x69,0x74,0x63,0x68,0x69,0x69,0x3a,0x0c,0x40,0x76,0x6f,0x6c,0x75,0x6d,0x65,0x69,0x55))
  TeleportPlayer(0,922,45,66,0,0)
  0()



EVENT   4
 PAGE   1
  If(1,1228,0,2,2)
   ChangeVariable(1228,1228,0,0,3)
   0()
  EndIf()
  250(bytes(0x04,0x08,0x6f,0x3a,0x0c,0x52,0x50,0x47,0x3a,0x3a,0x53,0x45,0x08,0x3a,0x0a,0x40,0x6e,0x61,0x6d,0x65,0x49,0x22,0x09,0x4d,0x6f,0x76,0x65,0x06,0x3a,0x06,0x45,0x54,0x3a,0x0b,0x40,0x70,0x69,0x74,0x63,0x68,0x69,0x69,0x3a,0x0c,0x40,0x76,0x6f,0x6c,0x75,0x6d,0x65,0x69,0x55))
  TeleportPlayer(0,924,13,73,0,0)
  0()



EVENT   6
 PAGE   1
  If(1,1228,0,2,2)
   ChangeVariable(1228,1228,0,0,3)
   0()
  EndIf()
  250(bytes(0x04,0x08,0x6f,0x3a,0x0c,0x52,0x50,0x47,0x3a,0x3a,0x53,0x45,0x08,0x3a,0x0a,0x40,0x6e,0x61,0x6d,0x65,0x49,0x22,0x09,0x4d,0x6f,0x76,0x65,0x06,0x3a,0x06,0x45,0x54,0x3a,0x0b,0x40,0x70,0x69,0x74,0x63,0x68,0x69,0x69,0x3a,0x0c,0x40,0x76,0x6f,0x6c,0x75,0x6d,0x65,0x69,0x55))
  TeleportPlayer(0,924,13,73,0,0)
  0()



EVENT   7
 PAGE   1
  If(1,1228,0,2,2)
   ChangeVariable(1228,1228,0,0,3)
   0()
  EndIf()
  250(bytes(0x04,0x08,0x6f,0x3a,0x0c,0x52,0x50,0x47,0x3a,0x3a,0x53,0x45,0x08,0x3a,0x0a,0x40,0x6e,0x61,0x6d,0x65,0x49,0x22,0x09,0x4d,0x6f,0x76,0x65,0x06,0x3a,0x06,0x45,0x54,0x3a,0x0b,0x40,0x70,0x69,0x74,0x63,0x68,0x69,0x69,0x3a,0x0c,0x40,0x76,0x6f,0x6c,0x75,0x6d,0x65,0x69,0x55))
  TeleportPlayer(0,924,13,73,0,0)
  0()



EVENT   8
 PAGE   1
  If(1,1228,0,2,2)
   ChangeVariable(1228,1228,0,0,3)
   0()
  EndIf()
  250(bytes(0x04,0x08,0x6f,0x3a,0x0c,0x52,0x50,0x47,0x3a,0x3a,0x53,0x45,0x08,0x3a,0x0a,0x40,0x6e,0x61,0x6d,0x65,0x49,0x22,0x09,0x4d,0x6f,0x76,0x65,0x06,0x3a,0x06,0x45,0x54,0x3a,0x0b,0x40,0x70,0x69,0x74,0x63,0x68,0x69,0x69,0x3a,0x0c,0x40,0x76,0x6f,0x6c,0x75,0x6d,0x65,0x69,0x55))
  TeleportPlayer(0,924,13,73,0,0)
  0()



EVENT   10
 PAGE   1
  // condition: switch 31 is ON
  0()



EVENT   11
 PAGE   1
  // condition: switch 33 is ON
  0()



EVENT   12
 PAGE   1
  // condition: switch 32 is ON
  0()



EVENT   13
 PAGE   1
  // condition: variable 1212 >= 1
  205(-1,bytes(0x04,0x08,0x6f,0x3a,0x13,0x52,0x50,0x47,0x3a,0x3a,0x4d,0x6f,0x76,0x65,0x52,0x6f,0x75,0x74,0x65,0x09,0x3a,0x0c,0x40,0x72,0x65,0x70,0x65,0x61,0x74,0x46,0x3a,0x0f,0x40,0x73,0x6b,0x69,0x70,0x70,0x61,0x62,0x6c,0x65,0x46,0x3a,0x0a,0x40,0x77,0x61,0x69,0x74,0x54,0x3a,0x0a,0x40,0x6c,0x69,0x73,0x74,0x5b,0x08,0x6f,0x3a,0x15,0x52,0x50,0x47,0x3a,0x3a,0x4d,0x6f,0x76,0x65,0x43,0x6f,0x6d,0x6d,0x61,0x6e,0x64,0x07,0x3a,0x0a,0x40,0x63,0x6f,0x64,0x65,0x69,0x07,0x3a,0x10,0x40,0x70,0x61,0x72,0x61,0x6d,0x65,0x74,0x65,0x72,0x73,0x5b,0x00,0x6f,0x3b,0x0a,0x07,0x3b,0x0b,0x69,0x18,0x3b,0x0c,0x5b,0x00,0x6f,0x3b,0x0a,0x07,0x3b,0x0b,0x69,0x00,0x3b,0x0c,0x5b,0x00))
  ShowSpeechBalloon(-1,1,false)
  241(bytes(0x04,0x08,0x6f,0x3a,0x0d,0x52,0x50,0x47,0x3a,0x3a,0x42,0x47,0x4d,0x08,0x3a,0x0a,0x40,0x6e,0x61,0x6d,0x65,0x49,0x22,0x0c,0x62,0x6f,0x73,0x73,0x30,0x2d,0x34,0x06,0x3a,0x06,0x45,0x54,0x3a,0x0c,0x40,0x76,0x6f,0x6c,0x75,0x6d,0x65,0x69,0x69,0x3a,0x0b,0x40,0x70,0x69,0x74,0x63,0x68,0x69,0x69))
  212(10,501,false)
  Wait(30)
  ChangeSwitch(31,31,0)
  212(11,501,false)
  Wait(30)
  ChangeSwitch(32,32,0)
  212(12,501,false)
  Wait(30)
  ChangeSwitch(33,33,0)
  Wait(120)
  PictureDisplay(7,"80_lira_st01",0,0,-200,0,100,100,0,0)
  PictureDisplay(6,"80_bell_st01",0,0,200,0,100,100,0,0)
  PictureDisplay(5,"80_muzet_st01",0,0,0,0,100,100,0,0)
  PictureMove(7,null,0,0,-200,0,100,100,255,0,30,false)
  PictureMove(6,null,0,0,200,0,100,100,255,0,30,false)
  PictureMove(5,null,0,0,0,0,100,100,255,0,30,true)
  ShowMessageFace("muzet_fc1",0,0,2,1)
  ShowMessage("\\n<Musette>")
  ShowMessage("来たわね、勇者達……")
  ShowMessage("私がいる以上、先には進ませないわよ。")
  ShowMessageFace("bell_fc1",0,0,2,2)
  ShowMessage("\\n<Bell>")
  ShowMessage("私とリラ、それにミュゼット様の力が合わされば……")
  ShowMessage("あなた達なんて、敵じゃないわね。")
  ShowMessageFace("lira_fc1",0,0,2,3)
  ShowMessage("\\n<Lyla>")
  ShowMessage("そういうわけで……")
  ShowMessage("みんな、ここでやられちゃってよ。")
  ShowMessageFace("rest_fc1",0,0,2,4)
  ShowMessage("\\n<Lest>")
  ShowMessage("ミュゼット……いったい、何を考えているんだ？")
  ShowMessage("お前は、誰かに従うようなタイプじゃないだろう。")
  ShowMessageFace("muzet_fc1",0,0,2,5)
  ShowMessage("\\n<Musette>")
  ShowMessage("ふふっ……私は「夢の主」と約束を交わしたの。")
  ShowMessage("手下となって働く代わりに、グランドノアを頂くとね。")
  If(0,4,0)
   ShowMessageFace("alice_fc5",2,0,2,6)
   ShowMessage("\\n<Alice>")
   ShowMessage("グランドノアの支配のため、だと……？")
   ShowMessage("それが貴様の目的か？")
   0()
  EndIf()
  If(0,5,0)
   ShowMessageFace("iriasu_fc4",7,0,2,7)
   ShowMessage("\\n<Ilias>")
   ShowMessage("グランドノアの支配――")
   ShowMessage("それがあなたの目的だというのですか？")
   0()
  EndIf()
  ShowMessageFace("muzet_fc1",0,0,2,8)
  ShowMessage("\\n<Musette>")
  ShowMessage("ホホホ、私がそんなスケールに収まるとでも？")
  ShowMessage("私が欲しいのは、この世界よ……！")
  ShowMessageFace("muzet_fc1",0,0,2,9)
  ShowMessage("\\n<Musette>")
  ShowMessage("ここで、あなた達全員を洗脳して――")
  ShowMessage("この私の、忠実な手駒にするのよ。")
  ShowMessageFace("muzet_fc1",0,0,2,10)
  ShowMessage("\\n<Musette>")
  ShowMessage("その戦力をもって、同盟者も「夢の主」をも滅ぼし――")
  ShowMessage("そしてこの世界は、私の掌に収まるのよ！")
  ShowMessageFace("magatu_fc1",2,0,2,11)
  ShowMessage("\\n<Magatsu>")
  ShowMessage("なるほど、支配欲が動機か。")
  ShowMessage("正直、夢魔どもよりはよほど理解できるが――")
  ShowMessageFace("magatu_fc1",2,0,2,12)
  ShowMessage("\\n<Magatsu>")
  ShowMessage("だが、そのような事は看過できんな。")
  ShowMessage("其方の支配下では、何万何億もの無辜の民が苦しもう。")
  ShowMessageFace("rest_fc1",0,0,2,13)
  ShowMessage("\\n<Lest>")
  ShowMessage("決着の時だ、ミュゼット――")
  ShowMessage("お前の野望、僕の剣が斬り払う！")
  ShowMessageFace("muzet_fc1",0,0,2,14)
  ShowMessage("\\n<Musette>")
  ShowMessage("来なさい、万能剣士――そして、勇者達！")
  ShowMessage("どうせみんな、私の傀儡に成り下がるのよ……！")
  SetBattleBGM(bytes(0x04,0x08,0x6f,0x3a,0x0d,0x52,0x50,0x47,0x3a,0x3a,0x42,0x47,0x4d,0x08,0x3a,0x0a,0x40,0x6e,0x61,0x6d,0x65,0x49,0x22,0x0a,0x62,0x6f,0x73,0x73,0x33,0x06,0x3a,0x06,0x45,0x54,0x3a,0x0c,0x40,0x76,0x6f,0x6c,0x75,0x6d,0x65,0x69,0x69,0x3a,0x0b,0x40,0x70,0x69,0x74,0x63,0x68,0x69,0x69))
  Battle(0,1413,false,false)
  SetBattleBGM(bytes(0x04,0x08,0x6f,0x3a,0x0d,0x52,0x50,0x47,0x3a,0x3a,0x42,0x47,0x4d,0x08,0x3a,0x0a,0x40,0x6e,0x61,0x6d,0x65,0x49,0x22,0x0b,0x62,0x61,0x74,0x74,0x6c,0x65,0x06,0x3a,0x06,0x45,0x54,0x3a,0x0c,0x40,0x76,0x6f,0x6c,0x75,0x6d,0x65,0x69,0x69,0x3a,0x0b,0x40,0x70,0x69,0x74,0x63,0x68,0x69,0x69))
  241(bytes(0x04,0x08,0x6f,0x3a,0x0d,0x52,0x50,0x47,0x3a,0x3a,0x42,0x47,0x4d,0x08,0x3a,0x0a,0x40,0x6e,0x61,0x6d,0x65,0x49,0x22,0x0a,0x6b,0x69,0x6b,0x69,0x32,0x06,0x3a,0x06,0x45,0x54,0x3a,0x0c,0x40,0x76,0x6f,0x6c,0x75,0x6d,0x65,0x69,0x69,0x3a,0x0b,0x40,0x70,0x69,0x74,0x63,0x68,0x69,0x69))
  ShowMessageFace("muzet_fc1",0,0,2,15)
  ShowMessage("\\n<Musette>")
  ShowMessage("こんな……まさか、この私が……！")
  ShowMessageFace("rest_fc1",0,0,2,16)
  ShowMessage("\\n<Lest>")
  ShowMessage("僕達の勝ちだ！")
  ShowMessage("観念しろ、ミュゼット！！")
  ShowMessageFace("bell_fc1",0,0,2,17)
  ShowMessage("\\n<Bell>")
  ShowMessage("ミュゼット様、どうします……？")
  ShowMessageFace("lira_fc1",0,0,2,18)
  ShowMessage("\\n<Lyla>")
  ShowMessage("どうしよう……大ピンチ！")
  ShowMessageFace("muzet_fc1",0,0,2,19)
  ShowMessage("\\n<Musette>")
  ShowMessage("私は、まだ負けないわ……！")
  ShowMessage("ベル、リラ！　退くわよ！")
  PictureClear(5)
  PictureClear(6)
  PictureClear(7)
  212(10,501,false)
  Wait(30)
  ChangeSwitch(31,31,1)
  Wait(60)
  ShowMessageFace("bell_fc1",0,0,2,20)
  ShowMessage("\\n<Bell>")
  ShowMessage("くっ……今度こそ、吠え面をかかせてやるわ！")
  ShowMessageFace("lira_fc1",0,0,2,21)
  ShowMessage("\\n<Lyla>")
  ShowMessage("あっ、待って～！")
  212(11,501,false)
  Wait(30)
  ChangeSwitch(32,32,1)
  212(12,501,false)
  Wait(30)
  ChangeSwitch(33,33,1)
  Wait(60)
  ChangeVariable(1212,1212,0,0,2)
  241(bytes(0x04,0x08,0x6f,0x3a,0x0d,0x52,0x50,0x47,0x3a,0x3a,0x42,0x47,0x4d,0x08,0x3a,0x0a,0x40,0x6e,0x61,0x6d,0x65,0x49,0x22,0x08,0x63,0x62,0x31,0x06,0x3a,0x06,0x45,0x54,0x3a,0x0c,0x40,0x76,0x6f,0x6c,0x75,0x6d,0x65,0x69,0x69,0x3a,0x0b,0x40,0x70,0x69,0x74,0x63,0x68,0x69,0x69))
  ShowMessageFace("rejeo_fc1",1,0,2,22)
  ShowMessage("\\n<Rigeo>")
  ShowMessage("あっ、逃げちゃった……")
  ShowMessage("どうする？　追いかける？")
  If(0,4,0)
   ShowMessageFace("alice_fc5",2,0,2,23)
   ShowMessage("\\n<Alice>")
   ShowMessage("残念ながら、後を追う余裕はないな……")
   ShowMessage("今は、ゲートを閉じる事を優先しよう。")
   ShowMessageFace("",0,0,2,24)
   ShowMessage("アリスの言うように、まずは問題の大元を解決し――")
   ShowMessage("その後に、ミュゼットに対処した方がいいだろう。")
   0()
  EndIf()
  If(0,5,0)
   ShowMessageFace("iriasu_fc4",2,0,2,25)
   ShowMessage("\\n<Ilias>")
   ShowMessage("残念ながら、後を追う余裕はありませんね……")
   ShowMessage("今は、ゲートを閉じる事を優先しましょう。")
   ShowMessageFace("",0,0,2,26)
   ShowMessage("イリアスの言うように、まずは問題の大元を解決し――")
   ShowMessage("その後に、ミュゼットに対処した方がいいだろう。")
   0()
  EndIf()
  ShowMessageFace("byakunen_fc1",1,0,2,27)
  ShowMessage("\\n<Hakunen>")
  ShowMessage("でも、これで同盟者の方を三人も倒しましたね！")
  ShowMessage("良い調子ではないですか！")
  ShowMessageFace("kazuya_fc2",0,0,2,28)
  ShowMessage("\\n<Kazuya>")
  ShowMessage("ああ……だが、まだまだ厄介なのが残ってるんだ。")
  ShowMessage("ここから先も、油断は出来ないぞ。")
  ShowMessageFace("",0,0,2,29)
  ShowMessage("まだ、ここから先も同盟者達は襲ってくるだろう。")
  ShowMessage("ミュゼットを倒したからといって、気は抜けない――")
  If(0,4,0)
   ShowMessageFace("alice_fc5",2,0,2,30)
   ShowMessage("\\n<Alice>")
   ShowMessage("さあ、先に進もう。")
   ShowMessage("気を抜くな、まだまだ先は長いぞ！")
   0()
  EndIf()
  If(0,5,0)
   ShowMessageFace("iriasu_fc4",7,0,2,31)
   ShowMessage("\\n<Ilias>")
   ShowMessage("さあ、先に進みましょう。")
   ShowMessage("まだ先は長いです、断じて気を抜かないように！")
   0()
  EndIf()
  ShowMessageFace("",0,0,2,32)
  ShowMessage("魔城の最奥にあるという、魔力供給室へと向かって――")
  ShowMessage("僕達は、確実に歩を進めるのだった。")
  EndEventProcessing()
  0()
 PAGE   2
  // condition: variable 1212 >= 2
  0()



EVENT   15
 PAGE   1
  If(6,-1,4)
   205(0,bytes(0x04,0x08,0x6f,0x3a,0x13,0x52,0x50,0x47,0x3a,0x3a,0x4d,0x6f,0x76,0x65,0x52,0x6f,0x75,0x74,0x65,0x09,0x3a,0x0c,0x40,0x72,0x65,0x70,0x65,0x61,0x74,0x46,0x3a,0x0f,0x40,0x73,0x6b,0x69,0x70,0x70,0x61,0x62,0x6c,0x65,0x46,0x3a,0x0a,0x40,0x77,0x61,0x69,0x74,0x54,0x3a,0x0a,0x40,0x6c,0x69,0x73,0x74,0x5b,0x09,0x6f,0x3a,0x15,0x52,0x50,0x47,0x3a,0x3a,0x4d,0x6f,0x76,0x65,0x43,0x6f,0x6d,0x6d,0x61,0x6e,0x64,0x07,0x3a,0x0a,0x40,0x63,0x6f,0x64,0x65,0x69,0x31,0x3a,0x10,0x40,0x70,0x61,0x72,0x61,0x6d,0x65,0x74,0x65,0x72,0x73,0x5b,0x06,0x6f,0x3a,0x0c,0x52,0x50,0x47,0x3a,0x3a,0x53,0x45,0x08,0x3a,0x0a,0x40,0x6e,0x61,0x6d,0x65,0x49,0x22,0x10,0x68,0x61,0x6e,0x64,0x2d,0x64,0x72,0x75,0x6d,0x30,0x31,0x06,0x3a,0x06,0x45,0x54,0x3a,0x0b,0x40,0x70,0x69,0x74,0x63,0x68,0x69,0x69,0x3a,0x0c,0x40,0x76,0x6f,0x6c,0x75,0x6d,0x65,0x69,0x69,0x6f,0x3b,0x0a,0x07,0x3b,0x0b,0x69,0x2e,0x3b,0x0c,0x5b,0x07,0x49,0x22,0x0b,0x73,0x61,0x6e,0x6d,0x61,0x69,0x06,0x3b,0x0f,0x54,0x69,0x06,0x6f,0x3b,0x0a,0x07,0x3b,0x0b,0x69,0x13,0x3b,0x0c,0x5b,0x07,0x69,0x00,0x69,0x00,0x6f,0x3b,0x0a,0x07,0x3b,0x0b,0x69,0x00,0x3b,0x0c,0x5b,0x00))
   205(0,bytes(0x04,0x08,0x6f,0x3a,0x13,0x52,0x50,0x47,0x3a,0x3a,0x4d,0x6f,0x76,0x65,0x52,0x6f,0x75,0x74,0x65,0x09,0x3a,0x0c,0x40,0x72,0x65,0x70,0x65,0x61,0x74,0x46,0x3a,0x0f,0x40,0x73,0x6b,0x69,0x70,0x70,0x61,0x62,0x6c,0x65,0x46,0x3a,0x0a,0x40,0x77,0x61,0x69,0x74,0x46,0x3a,0x0a,0x40,0x6c,0x69,0x73,0x74,0x5b,0x0d,0x6f,0x3a,0x15,0x52,0x50,0x47,0x3a,0x3a,0x4d,0x6f,0x76,0x65,0x43,0x6f,0x6d,0x6d,0x61,0x6e,0x64,0x07,0x3a,0x0a,0x40,0x63,0x6f,0x64,0x65,0x69,0x31,0x3a,0x10,0x40,0x70,0x61,0x72,0x61,0x6d,0x65,0x74,0x65,0x72,0x73,0x5b,0x06,0x6f,0x3a,0x0c,0x52,0x50,0x47,0x3a,0x3a,0x53,0x45,0x08,0x3a,0x0a,0x40,0x6e,0x61,0x6d,0x65,0x49,0x22,0x09,0x53,0x61,0x6e,0x64,0x06,0x3a,0x06,0x45,0x54,0x3a,0x0b,0x40,0x70,0x69,0x74,0x63,0x68,0x69,0x01,0x96,0x3a,0x0c,0x40,0x76,0x6f,0x6c,0x75,0x6d,0x65,0x69,0x55,0x6f,0x3b,0x0a,0x07,0x3b,0x0b,0x69,0x29,0x3b,0x0c,0x5b,0x00,0x6f,0x3b,0x0a,0x07,0x3b,0x0b,0x69,0x2e,0x3b,0x0c,0x5b,0x07,0x49,0x22,0x0b,0x21,0x46,0x6c,0x61,0x6d,0x65,0x06,0x3b,0x0f,0x54,0x69,0x0c,0x6f,0x3b,0x0a,0x07,0x3b,0x0b,0x69,0x17,0x3b,0x0c,0x5b,0x00,0x6f,0x3b,0x0a,0x07,0x3b,0x0b,0x69,0x22,0x3b,0x0c,0x5b,0x06,0x69,0x0a,0x6f,0x3b,0x0a,0x07,0x3b,0x0b,0x69,0x26,0x3b,0x0c,0x5b,0x00,0x6f,0x3b,0x0a,0x07,0x3b,0x0b,0x69,0x14,0x3b,0x0c,0x5b,0x06,0x69,0x23,0x6f,0x3b,0x0a,0x07,0x3b,0x0b,0x69,0x00,0x3b,0x0c,0x5b,0x00))
   ShowMessageFace("youkosan_fc1",3,0,2,1)
   ShowMessage("\\n<妖狐>")
   ShowMessage("むぎゃっ！！\\^\\.\\.")
   ChangeSelfSwitch("A",0)
   EndEventProcessing()
   0()
  Else()
   ShowMessageFace("youkosan_fc2",0,0,2,2)
   ShowMessage("\\n<狐像>")
   ShowMessage("フフフ……。ウチは石像狐。")
   ShowMessage("「お尻」から話しかけない限り退かないのだ。")
   EndEventProcessing()
   0()
  EndIf()
  0()
 PAGE   2
  // condition: self-switch A is ON
  0()



EVENT   16
 PAGE   1
  250(bytes(0x04,0x08,0x6f,0x3a,0x0c,0x52,0x50,0x47,0x3a,0x3a,0x53,0x45,0x08,0x3a,0x0a,0x40,0x6e,0x61,0x6d,0x65,0x49,0x22,0x0a,0x43,0x68,0x65,0x73,0x74,0x06,0x3a,0x06,0x45,0x54,0x3a,0x0b,0x40,0x70,0x69,0x74,0x63,0x68,0x69,0x69,0x3a,0x0c,0x40,0x76,0x6f,0x6c,0x75,0x6d,0x65,0x69,0x55))
  205(0,bytes(0x04,0x08,0x6f,0x3a,0x13,0x52,0x50,0x47,0x3a,0x3a,0x4d,0x6f,0x76,0x65,0x52,0x6f,0x75,0x74,0x65,0x09,0x3a,0x0c,0x40,0x72,0x65,0x70,0x65,0x61,0x74,0x46,0x3a,0x0f,0x40,0x73,0x6b,0x69,0x70,0x70,0x61,0x62,0x6c,0x65,0x46,0x3a,0x0a,0x40,0x77,0x61,0x69,0x74,0x54,0x3a,0x0a,0x40,0x6c,0x69,0x73,0x74,0x5b,0x0b,0x6f,0x3a,0x15,0x52,0x50,0x47,0x3a,0x3a,0x4d,0x6f,0x76,0x65,0x43,0x6f,0x6d,0x6d,0x61,0x6e,0x64,0x07,0x3a,0x0a,0x40,0x63,0x6f,0x64,0x65,0x69,0x29,0x3a,0x10,0x40,0x70,0x61,0x72,0x61,0x6d,0x65,0x74,0x65,0x72,0x73,0x5b,0x00,0x6f,0x3b,0x0a,0x07,0x3b,0x0b,0x69,0x16,0x3b,0x0c,0x5b,0x00,0x6f,0x3b,0x0a,0x07,0x3b,0x0b,0x69,0x14,0x3b,0x0c,0x5b,0x06,0x69,0x08,0x6f,0x3b,0x0a,0x07,0x3b,0x0b,0x69,0x17,0x3b,0x0c,0x5b,0x00,0x6f,0x3b,0x0a,0x07,0x3b,0x0b,0x69,0x14,0x3b,0x0c,0x5b,0x06,0x69,0x08,0x6f,0x3b,0x0a,0x07,0x3b,0x0b,0x69,0x00,0x3b,0x0c,0x5b,0x00))
  ChangeSwitch(2930,2930,0)
  ChangeInventoryWeapon(963,0,0,1,false)
  ShowMessageFace("tarsa_fc2",1,0,2,1)
  ShowMessage("\\n<Tarsa>")
  ShowMessage("これ……私のだ♪")
  ShowMessageFace("sonia_fc2",2,0,2,2)
  ShowMessage("\\n<Sonya>")
  ShowMessage("ターサ、鎌なんて使えるの……？")
  ShowMessageFace("tarsa_fc2",1,0,2,3)
  ShowMessage("\\n<Tarsa>")
  ShowMessage("この鎌は、扇のように使えるの。")
  ShowMessage("これ持って踊ると、気分良いんだよ～♪")
  0()
 PAGE   2
  // condition: switch 2930 is ON
  0()



EVENT   18
 PAGE   1
  250(bytes(0x04,0x08,0x6f,0x3a,0x0c,0x52,0x50,0x47,0x3a,0x3a,0x53,0x45,0x08,0x3a,0x0a,0x40,0x6e,0x61,0x6d,0x65,0x49,0x22,0x0a,0x43,0x68,0x65,0x73,0x74,0x06,0x3a,0x06,0x45,0x54,0x3a,0x0b,0x40,0x70,0x69,0x74,0x63,0x68,0x69,0x69,0x3a,0x0c,0x40,0x76,0x6f,0x6c,0x75,0x6d,0x65,0x69,0x55))
  205(0,bytes(0x04,0x08,0x6f,0x3a,0x13,0x52,0x50,0x47,0x3a,0x3a,0x4d,0x6f,0x76,0x65,0x52,0x6f,0x75,0x74,0x65,0x09,0x3a,0x0c,0x40,0x72,0x65,0x70,0x65,0x61,0x74,0x46,0x3a,0x0f,0x40,0x73,0x6b,0x69,0x70,0x70,0x61,0x62,0x6c,0x65,0x46,0x3a,0x0a,0x40,0x77,0x61,0x69,0x74,0x54,0x3a,0x0a,0x40,0x6c,0x69,0x73,0x74,0x5b,0x0b,0x6f,0x3a,0x15,0x52,0x50,0x47,0x3a,0x3a,0x4d,0x6f,0x76,0x65,0x43,0x6f,0x6d,0x6d,0x61,0x6e,0x64,0x07,0x3a,0x0a,0x40,0x63,0x6f,0x64,0x65,0x69,0x29,0x3a,0x10,0x40,0x70,0x61,0x72,0x61,0x6d,0x65,0x74,0x65,0x72,0x73,0x5b,0x00,0x6f,0x3b,0x0a,0x07,0x3b,0x0b,0x69,0x16,0x3b,0x0c,0x5b,0x00,0x6f,0x3b,0x0a,0x07,0x3b,0x0b,0x69,0x14,0x3b,0x0c,0x5b,0x06,0x69,0x08,0x6f,0x3b,0x0a,0x07,0x3b,0x0b,0x69,0x17,0x3b,0x0c,0x5b,0x00,0x6f,0x3b,0x0a,0x07,0x3b,0x0b,0x69,0x14,0x3b,0x0c,0x5b,0x06,0x69,0x08,0x6f,0x3b,0x0a,0x07,0x3b,0x0b,0x69,0x00,0x3b,0x0c,0x5b,0x00))
  ChangeSwitch(2931,2931,0)
  ChangeInventoryArmor(359,0,0,1,false)
  ShowMessageFace("youkosan_fc1",0,0,2,1)
  ShowMessage("\\n<Dream Fox>")
  ShowMessage("これ……色狐ちゃんの！？")
  ShowMessage("はーい、ウチ！　ウチにちょうだい！")
  ShowMessageFace("youkosan_fc1",0,0,2,2)
  ShowMessage("\\n<Dream Fox>")
  ShowMessage("ほらほら、似合う？")
  ShowMessage("色狐ちゃんみたいに可愛い！？")
  ShowMessageFace("magatu_fc1",2,0,2,3)
  ShowMessage("\\n<Magatsu>")
  ShowMessage("少し落ち着け……")
  0()
 PAGE   2
  // condition: switch 2931 is ON
  0()



EVENT   17
 PAGE   1
  250(bytes(0x04,0x08,0x6f,0x3a,0x0c,0x52,0x50,0x47,0x3a,0x3a,0x53,0x45,0x08,0x3a,0x0a,0x40,0x6e,0x61,0x6d,0x65,0x49,0x22,0x0a,0x43,0x68,0x65,0x73,0x74,0x06,0x3a,0x06,0x45,0x54,0x3a,0x0b,0x40,0x70,0x69,0x74,0x63,0x68,0x69,0x69,0x3a,0x0c,0x40,0x76,0x6f,0x6c,0x75,0x6d,0x65,0x69,0x55))
  205(0,bytes(0x04,0x08,0x6f,0x3a,0x13,0x52,0x50,0x47,0x3a,0x3a,0x4d,0x6f,0x76,0x65,0x52,0x6f,0x75,0x74,0x65,0x09,0x3a,0x0c,0x40,0x72,0x65,0x70,0x65,0x61,0x74,0x46,0x3a,0x0f,0x40,0x73,0x6b,0x69,0x70,0x70,0x61,0x62,0x6c,0x65,0x46,0x3a,0x0a,0x40,0x77,0x61,0x69,0x74,0x54,0x3a,0x0a,0x40,0x6c,0x69,0x73,0x74,0x5b,0x0b,0x6f,0x3a,0x15,0x52,0x50,0x47,0x3a,0x3a,0x4d,0x6f,0x76,0x65,0x43,0x6f,0x6d,0x6d,0x61,0x6e,0x64,0x07,0x3a,0x0a,0x40,0x63,0x6f,0x64,0x65,0x69,0x29,0x3a,0x10,0x40,0x70,0x61,0x72,0x61,0x6d,0x65,0x74,0x65,0x72,0x73,0x5b,0x00,0x6f,0x3b,0x0a,0x07,0x3b,0x0b,0x69,0x16,0x3b,0x0c,0x5b,0x00,0x6f,0x3b,0x0a,0x07,0x3b,0x0b,0x69,0x14,0x3b,0x0c,0x5b,0x06,0x69,0x08,0x6f,0x3b,0x0a,0x07,0x3b,0x0b,0x69,0x17,0x3b,0x0c,0x5b,0x00,0x6f,0x3b,0x0a,0x07,0x3b,0x0b,0x69,0x14,0x3b,0x0c,0x5b,0x06,0x69,0x08,0x6f,0x3b,0x0a,0x07,0x3b,0x0b,0x69,0x00,0x3b,0x0c,0x5b,0x00))
  ChangeSwitch(2932,2932,0)
  ChangeInventoryArmor(333,0,0,1,false)
  ShowMessageFace("ruka_fc1",0,0,2,1)
  ShowMessage("\\n<Luka>")
  ShowMessage("こ、このお洒落なチュニックは……！！")
  ShowMessageFace("lars_fc01",0,0,2,2)
  ShowMessage("\\n<Lars>")
  ShowMessage("……………………")
  ShowMessageFace("rovissa_fc1",0,0,2,3)
  ShowMessage("\\n<Rovissa>")
  ShowMessage("これが似合うのは、間違いなくラルスよね。")
  0()
 PAGE   2
  // condition: switch 2932 is ON
  0()



EVENT   9
 PAGE   1
  RunCommonEvent(499)
  0()



EVENT   14
 PAGE   1
  // condition: variable 1216 >= 2
  ChangeVariable(1229,1229,0,0,3)
  If(0,2930,0)
   ChangeVariable(1229,1229,2,0,1)
   0()
  EndIf()
  If(0,2931,0)
   ChangeVariable(1229,1229,2,0,1)
   0()
  EndIf()
  If(0,2932,0)
   ChangeVariable(1229,1229,2,0,1)
   0()
  EndIf()
  If(1,1229,0,0,0)
   ShowMessageFace("youkosan_fc1",0,0,2,1)
   ShowMessage("\\n<妖狐>")
   ShowMessage("このフロアの宝箱は、もう残ってないみたいだね。")
   ShowMessage("おめでと～♪")
   0()
  Else()
   ShowMessageFace("youkosan_fc1",0,0,2,2)
   ShowMessage("\\n<妖狐>")
   ShowMessage("このフロアの宝箱は、あと\\V[1229]個だね。")
   ShowMessage("がんばって探してみてよ！！")
   0()
  EndIf()
  0()



EVENT   19
 PAGE   1
  ShowMessageFace("youkosan_fc1",0,0,2,1)
  ShowMessage("\\n<妖狐>")
  ShowMessage("ここ、第10層まであるんだって……")
  ShowMessage("長丁場だから、回復はしっかりね。")
  0()
 PAGE   2
  // condition: variable 1216 >= 1
  0()
