﻿


EVENT   1
 PAGE   1
  250(bytes(0x04,0x08,0x6f,0x3a,0x0c,0x52,0x50,0x47,0x3a,0x3a,0x53,0x45,0x08,0x3a,0x0a,0x40,0x6e,0x61,0x6d,0x65,0x49,0x22,0x09,0x4d,0x6f,0x76,0x65,0x06,0x3a,0x06,0x45,0x54,0x3a,0x0b,0x40,0x70,0x69,0x74,0x63,0x68,0x69,0x69,0x3a,0x0c,0x40,0x76,0x6f,0x6c,0x75,0x6d,0x65,0x69,0x55))
  TeleportPlayer(0,910,29,15,0,0)
  0()



EVENT   3
 PAGE   1
  ShowMessageFace("mimic_fc1",1,0,2,1)
  ShowMessage("\\n<ミミック娘>")
  ShowMessage("夢の中で呼ばれて、来てみたけど……")
  ShowMessage("結局、ここでも引きこもってるのよね。")
  ShowMessageFace("mimic_fc1",1,0,2,2)
  ShowMessage("\\n<ミミック娘>")
  ShowMessage("箱の中に、いろいろアイテムが入ってるんだけど……")
  ShowMessage("欲しいなら、売ってあげてもいいわよ。")
  Shop(0,2,0,0,false)
  605(0,11,0,0)
  605(0,13,0,0)
  605(0,14,0,0)
  605(0,15,0,0)
  605(0,16,0,0)
  605(0,17,0,0)
  605(0,18,0,0)
  605(0,19,0,0)
  605(0,20,0,0)
  605(0,21,0,0)
  0()



EVENT   4
 PAGE   1
  0()



EVENT   5
 PAGE   1
  0()



EVENT   6
 PAGE   1
  0()



EVENT   2
 PAGE   1
  ShowMessageFace("s_mermaid_fc1",1,0,2,1)
  ShowMessage("\\n<商人マーメイド>")
  ShowMessage("いい部屋みっけたで！")
  ShowMessage("ここで商売させてもらうわ！")
  Shop(1,74,0,0,false)
  605(1,276,0,0)
  605(1,316,0,0)
  605(1,427,0,0)
  605(1,534,0,0)
  605(1,609,0,0)
  605(1,644,0,0)
  605(1,743,0,0)
  605(2,12,0,0)
  605(2,25,0,0)
  605(2,90,0,0)
  605(2,137,0,0)
  605(2,219,0,0)
  605(2,251,0,0)
  605(2,268,0,0)
  605(2,274,0,0)
  605(2,314,0,0)
  0()
