﻿State 001
 Name "\\*\\C[18]Incapacitated\\C[0]"
 Message1 " has been incapacitated!"
 Message2 " has been defeated!"
 Message4 " has returned to the fight!"
 Notes "ステート１番はＨＰが０になったときに自動的に付加されます。"
State 002
 Name "\\*\\C[24]Defending\\C[0]"
State 003
 Name "\\*\\C[17]Binding Opponent\\C[0]"
State 004
 Name "\\*\\C[13]Bound\\C[0]"
State 005
 Name "\\*\\C[17]Caught Opponent\\C[0]"
State 006
 Name "\\*\\C[13]Caught\\C[0]"
State 007
 Name "\\*\\C[13]Poison\\C[0]"
 Message1 " has been poisoned!"
 Message2 " has been poisoned!"
 Message3 " is affected by poison..."
 Message4 "'s poison is cured!"
State 008
 Name "\\*\\C[13]Blind\\C[0]"
 Message1 "'s vision is plunged into darkness!"
 Message2 "'s vision is plunged into darkness!"
 Message3 "'s vision is affected by darkness..."
 Message4 "'s vision returns to normal!"
State 009
 Name "\\*\\C[13]Silence\\C[0]"
 Message1 "'s magic skills are sealed!"
 Message2 "'s magic skills have been sealed!"
 Message4 "'s seal is broken!"
State 010
 Name "\\*\\C[13]Confusion\\C[0]"
 Message1 " has been confused!"
 Message2 " has been confused!"
 Message3 " is confused..."
 Message4 " returns to normal!"
 Notes "<ステート解除:id=3,4,5,6>"
State 011
 Name "\\*\\C[13]Sleep\\C[0]"
 Message1 " fell asleep!"
 Message2 " fell asleep!"
 Message3 " is sleeping..."
 Message4 " woke up!"
 Notes "<回避率 -200%>\r\n<魔法回避率 -200%>\r\n<ステート解除:id=3,4,5,6>"
State 012
 Name "\\*\\C[13]Paralysis\\C[0]"
 Message1 " is paralyzed!"
 Message2 " has been paralyzed!"
 Message3 "'s body is numb and can't move!"
 Message4 "'s paralysis wore off!"
 Notes "<回避率 -200%>\r\n<魔法回避率 -200%>\r\n<ステート解除:id=3,4,5,6>"
State 013
 Name "\\*\\C[13]Burn\\C[0]"
 Message1 " has been set on fire!"
 Message2 " has been set on fire!"
 Message3 "'s body is burning..."
 Message4 " doused the flames!"
State 014
 Name "\\*\\C[13]Freeze\\C[0]"
 Message1 " has been frozen!"
 Message2 " has been frozen!"
 Message3 " is frozen..."
 Message4 " has thawed out!"
 Notes "<回避率 -200%>\r\n<魔法回避率 -200%>\r\n<ステート解除:id=3,4,5,6>"
State 015
 Name "\\*\\C[13]Shock\\C[0]"
 Message1 " has been shocked and can't move!"
 Message2 " has been shocked and can't move!"
 Message3 " is shocked and can't move."
 Message4 "'s shock wore off!"
 Notes "<回避率 -200%>\r\n<魔法回避率 -200%>\r\n<ステート解除:id=3,4,5,6>"
State 016
 Name "\\*\\C[13]Slow\\C[0]"
 Message1 " has been slowed down!"
 Message2 " has been slowed down!"
 Message3 " is moving more slowly..."
 Message4 "'s speed has returned to normal!"
State 017
 Name "\\*\\C[13]Stop\\C[0]"
 Message1 " has been stopped in time!"
 Message2 " has been stopped in time!"
 Message3 " is stopped..."
 Message4 " has returned to normal time!"
 Notes "<回避率 -200%>\r\n<魔法回避率 -200%>\r\n<ステート解除:id=3,4,5,6>"
State 018
 Name "\\*\\C[13]Mini\\C[0]"
 Message1 " has been shrunk!"
 Message2 " has been shrunk!"
 Message3 " is tiny..."
 Message4 " has returned to normal size!"
State 019
 Name "\\*\\C[13]Zombie\\C[0]"
 Message1 " has been zombified!"
 Message2 " has been zombified!"
 Message4 " has returned to normal!"
 Notes "<回避率 -200%>\r\n<魔法回避率 -200%>\r\n<回復反転 100%>\r\n<属性吸収 36-100>\r\n<即死反転>"
State 020
 Name "\\*\\C[13]Petrify\\C[0]"
 Message1 " has been turned to stone!"
 Message2 " has been turned to stone!"
 Message3 " is petrified..."
 Message4 " has returned to normal!"
 Notes "<回避率 -200%>\r\n<魔法回避率 -200%>\r\n<獲得経験値倍率 0%>\r\n<獲得職業経験値倍率 0%>\r\n<ステート解除:id=3,4,5,6>\r\n<全滅判定有>"
State 021
 Name "\\*\\C[13]Digest\\C[0]"
 Message1 " has been covered in digestive fluids!"
 Message2 " has been covered in digestive fluids!"
 Message3 " is being digested..."
 Message4 " has cleaned off the digestive fluids!"
State 022
 Name "\\*\\C[13]Stun\\C[0]"
 Message1 " is knocked off balance!"
 Message2 " is knocked off balance!"
 Message3 " is off balance..."
 Message4 " has recovered balance!"
 Notes "<回避率 -200%>\r\n<魔法回避率 -200%>"
State 023
 Name "\\*\\C[25]Slimed\\C[0]"
 Message1 " has been covered in slime!"
 Message2 " has been covered in slime!"
 Message3 " is covered in slime..."
 Message4 "'s slime came off!"
State 024
 Name "\\*\\C[25]Horny\\C[0]"
 Message1 " has become horny!"
 Message2 " has become horny!"
 Message3 " is thinking sexy thoughts..."
 Message4 "'s sexual desire returns to normal!"
 Notes "<属性強化 2-15>"
State 025
 Name "\\*\\C[25]Trance\\C[0]"
 Message1 " is lost in a trance!"
 Message2 " is lost in a trance!"
 Message3 " is in a trance..."
 Message4 " comes back to reality!"
 Notes "<回避率 -200%>\r\n<魔法回避率 -200%>\r\n<ステート解除:id=3,4,5,6>"
State 026
 Name "\\*\\C[25]Seduction\\C[0]"
 Message1 " has been seduced!"
 Message2 " has been seduced!"
 Message3 " is seduced..."
 Message4 " returns to normal!"
 Notes "<ステート解除:id=3,4,5,6>"
State 027
 Name "\\*\\C[25]Incontinence\\C[0]"
 Message1 " has become incontinent!"
 Message2 " has become incontinent!"
 Message3 " is humiliated by incontinence..."
 Message4 " has returned to normal!"
 Notes "<回避率 -200%>\r\n<魔法回避率 -200%>\r\n<ステート解除:id=3,4,5,6>"
State 028
 Name "\\*\\C[13]Bind\\C[0]"
 Message1 " has been bound!"
 Message2 " has been bound!"
 Message3 " is bound..."
 Message4 " broke free from the binding!"
 Notes "<回避率 -200%>\r\n<魔法回避率 -200%>"
State 029
 Name "\\*\\C[24]Quick\\C[0]"
 Message1 "'s movements have sped up!"
 Message2 "'s movements have sped up!"
 Message3 " is moving faster..."
 Message4 "'s movement has returned to normal."
State 030
 Name "\\*\\C[17]Berserk\\C[0]"
 Message1 " has gone berserk!"
 Message2 " has gone berserk!"
 Message3 " is berserk..."
 Message4 " has calmed down!"
State 031
 Name "\\*\\C[17]Rampage\\C[0]"
 Message1 " has gone on a rampage!!"
 Message2 " has gone on a rampage!!"
 Message3 " is on a rampage!!"
 Message4 "'s rampage has ended."
State 032
 Name "\\*\\C[24]Transform\\C[0]"
 Message4 "'s transformation has ended."
State 033
 Name "\\*\\C[24]10% HP/turn recovery\\C[0]"
 Message1 "'s metabolism has been invigorated!"
 Message2 "'s metabolism has been invigorated!"
 Message4 "'s metabolism has returned to normal."
State 034
 Name "\\*\\C[24]20% HP/turn recovery\\C[0]"
 Message1 "'s metabolism has been invigorated!"
 Message2 "'s metabolism has been invigorated!"
 Message4 "'s metabolism has returned to normal."
State 035
 Name "\\*\\C[24]30% HP/turn recovery\\C[0]"
 Message1 "'s metabolism has been invigorated!"
 Message2 "'s metabolism has been invigorated!"
 Message4 "'s metabolism has returned to normal."
State 036
 Name "\\*\\C[24]2% MP/turn recovery\\C[0]"
 Message1 "'s metabolism has been invigorated!"
 Message2 "'s metabolism has been invigorated!"
 Message4 "'s metabolism has returned to normal."
State 037
 Name "\\*\\C[24]4% MP/turn recovery\\C[0]"
 Message1 "'s metabolism has been invigorated!"
 Message2 "'s metabolism has been invigorated!"
 Message4 "'s metabolism has returned to normal."
State 038
 Name "\\*\\C[24]8% MP/turn recovery\\C[0]"
 Message1 "'s metabolism has been invigorated!"
 Message2 "'s metabolism has been invigorated!"
 Message4 "'s metabolism has returned to normal."
State 039
 Name "\\*\\C[24]10% SP/turn recovery\\C[0]"
 Message1 "'s metabolism has been invigorated!"
 Message2 "'s metabolism has been invigorated!"
 Message4 "'s metabolism has returned to normal."
State 040
 Name "\\*\\C[24]20% SP/turn recovery\\C[0]"
 Message1 "'s metabolism has been invigorated!"
 Message2 "'s metabolism has been invigorated!"
 Message4 "'s metabolism has returned to normal."
State 041
 Name "\\*\\C[24]30% SP/turn recovery\\C[0]"
 Message1 "'s metabolism has been invigorated!"
 Message2 "'s metabolism has been invigorated!"
 Message4 "'s metabolism has returned to normal."
State 045
 Name "\\*\\C[24]Evasion +30%\\C[0]"
 Message1 "'s evasion has increased!"
 Message2 "'s evasion has increased!"
 Message4 "'s evasion has returned to normal."
State 046
 Name "\\*\\C[24]Evasion +50%\\C[0]"
 Message1 "'s evasion has increased!"
 Message2 "'s evasion has increased!"
 Message4 "'s evasion has returned to normal."
State 047
 Name "\\*\\C[24]Evasion +100%\\C[0]"
 Message1 "'s evasion has increased!"
 Message2 "'s evasion has increased!"
 Message4 "'s evasion has returned to normal."
State 048
 Name "\\*\\C[2]Evasion -100%\\C[0]"
State 049
 Name "\\*\\C[24]Magic Evasion +30%\\C[0]"
 Message1 "'s magic evasion has increased!"
 Message2 "'s magic evasion has increased!"
 Message4 "'s magic evasion has returned to normal."
State 050
 Name "\\*\\C[24]Magic Evasion +50%\\C[0]"
 Message1 "'s magic evasion has increased!"
 Message2 "'s magic evasion has increased!"
 Message4 "'s magic evasion has returned to normal."
State 051
 Name "\\*\\C[24]Magic Evasion +100%\\C[0]"
 Message1 "'s magic evasion has increased!"
 Message2 "'s magic evasion has increased!"
 Message4 "'s magic evasion has returned to normal."
State 052
 Name "\\*\\C[2]Magic Evasion -100%\\C[0]"
State 053
 Name "\\*\\C[24]Critical Hit Rate +50%\\C[0]"
 Message1 "'s critical hit rate has increased!"
 Message2 "'s critical hit rate has increased!"
 Message4 "'s critical hit rate has returned to normal."
State 054
 Name "\\*\\C[24]Critical Hit Rate +100%\\C[0]"
 Message1 "'s critical hit rate has increased!"
 Message2 "'s critical hit rate has increased!"
 Message4 "'s critical hit rate has returned to normal."
State 055
 Name "\\*\\C[24]Hit Rate +50%\\C[0]"
 Message1 "'s hit rate has increased!"
 Message2 "'s hit rate has increased!"
 Message4 "'s hit rate has returned to normal."
State 056
 Name "\\*\\C[24]Hit Rate +200%\\C[0]"
 Message1 "'s hit rate has increased!"
 Message2 "'s hit rate has increased!"
 Message4 "'s hit rate has returned to normal."
 Notes "<命中率 200%>"
State 057
 Name "\\*\\C[24]Double Charge\\C[0]"
 Message1 "'s charge rate has increased!"
 Message2 "'s charge rate has increased!"
 Message4 "'s charge rate has returned to normal."
State 058
 Name "\\*\\C[24]Triple Charge\\C[0]"
 Message1 "'s charge rate has increased!"
 Message2 "'s charge rate has increased!"
 Message4 "'s charge rate has returned to normal."
State 059
 Name "\\*\\C[24]Penta Charge\\C[0]"
 Message1 "'s charge rate has increased!"
 Message2 "'s charge rate has increased!"
 Message4 "'s charge rate has returned to normal."
State 060
 Name "\\*\\C[24]Fire Imbue\\C[0]"
 Message4 "'s weapon has lost the power of fire!"
 Notes "<属性強化 3-50>"
State 061
 Name "\\*\\C[24]Ice Imbue\\C[0]"
 Message4 "'s weapon has lost the power of ice!"
 Notes "<属性強化 4-50>"
State 062
 Name "\\*\\C[24]Lightning Imbue\\C[0]"
 Message4 "'s weapon has lost the power of lightning!"
 Notes "<属性強化 5-50>"
State 063
 Name "\\*\\C[24]Wind Imbue\\C[0]"
 Message4 "'s weapon has lost the power of wind!"
 Notes "<属性強化 6-50>"
State 064
 Name "\\*\\C[24]Earth Imbue\\C[0]"
 Message4 "'s weapon has lost the power of earth!"
 Notes "<属性強化 7-50>"
State 065
 Name "\\*\\C[24]Water Imbue\\C[0]"
 Message4 "'s weapon has lost the power of water!"
 Notes "<属性強化 8-50>"
State 066
 Name "\\*\\C[24]Holy Imbue\\C[0]"
 Message4 "'s weapon has lost the power of holy!"
 Notes "<属性強化 9-50>"
State 067
 Name "\\*\\C[24]Dark Imbue\\C[0]"
 Message4 "'s weapon has lost the power of darkness!"
 Notes "<属性強化 10-50>"
State 068
 Name "\\*\\C[24]All Elements Boost\\C[0]"
 Message1 "'s elemental attacks have been strengthened!"
 Message2 "'s elemental attacks have been strengthened!"
 Message4 "'s elemental attacks have returned to normal."
 Notes "<属性強化 3-50,4-50,5-50,6-50,7-50,8-50,9-50,10-50>"
State 069
 Name "\\*\\C[24]Diluted Elixir\\C[0]"
 Message1 "'s metabolism has been invigorated!"
 Message2 "'s metabolism has been invigorated!"
 Message4 "'s metabolism has returned to normal."
State 070
 Name "\\*\\C[24]Diluted Last Elixir\\C[0]"
 Message1 "'s metabolism has been invigorated!"
 Message2 "'s metabolism has been invigorated!"
 Message4 "'s metabolism has returned to normal."
State 071
 Name "\\*\\C[17]Drunken Boxing\\C[0]"
 Message1 " is practicing drunken boxing!"
 Message2 " is practicing drunken boxing!"
 Message4 " has sobered up."
 Notes "<連続発動タイプ 21-2,37-2,38-2,53-2>\r\n<会心ダメージ増加:50>"
State 072
 Name "\\*\\C[24]Critical Rate+Damage +75%\\C[0]"
 Message1 "'s critical rate and damage has increased!"
 Message2 "'s critical rate and damage has increased!"
 Message4 "'s critical rate and damage returned to normal."
 Notes "<会心ダメージ増加:50>"
State 073
 Name "\\*\\C[24]Evasion +90%\\C[0]"
 Message1 "'s evasion has increased!"
 Message2 "'s evasion has increased!"
 Message4 "'s evasion has returned to normal."
State 076
 Name "\\*\\C[2]Fire Weakness\\C[0]"
 Message1 " has become weak to fire!"
 Message2 " has become weak to fire!"
 Message4 "'s fire resistance has returned to normal."
State 077
 Name "\\*\\C[2]Ice Weakness\\C[0]"
 Message1 " has become weak to ice!"
 Message2 " has become weak to ice!"
 Message4 "'s ice resistance has returned to normal."
State 078
 Name "\\*\\C[2]Lightning Weakness\\C[0]"
 Message1 " has become weak to lightning!"
 Message2 " has become weak to lightning!"
 Message4 "'s lightning resistance has returned to normal."
State 079
 Name "\\*\\C[2]Wind Weakness\\C[0]"
 Message1 " has become weak to wind!"
 Message2 " has become weak to wind!"
 Message4 "'s wind resistance has returned to normal."
State 080
 Name "\\*\\C[2]Earth Weakness\\C[0]"
 Message1 " has become weak to earth!"
 Message2 " has become weak to earth!"
 Message4 "'s earth resistance has returned to normal."
State 081
 Name "\\*\\C[2]Water Weakness\\C[0]"
 Message1 " has become weak to water!"
 Message2 " has become weak to water!"
 Message4 "'s water resistance has returned to normal."
State 082
 Name "\\*\\C[2]Holy Weakness\\C[0]"
 Message1 " has become weak to holy!"
 Message2 " has become weak to holy!"
 Message4 "'s holy resistance has returned to normal."
State 083
 Name "\\*\\C[2]Dark Weakness\\C[0]"
 Message1 " has become weak to dark!"
 Message2 " has become weak to dark!"
 Message4 "'s dark resistance has returned to normal."
State 084
 Name "\\*\\C[2]Sonic Weakness\\C[0]"
 Message1 " has become weak to sonic!"
 Message2 " has become weak to sonic!"
 Message4 "'s sonic resistance has returned to normal."
State 085
 Name "\\*\\C[2]Bio Weakness\\C[0]"
 Message1 " has become weak to bio!"
 Message2 " has become weak to bio!"
 Message4 "'s bio resistance has returned to normal."
State 086
 Name "\\*\\C[2]Physical Weakness\\C[0]"
 Message1 " has become weak to physical attacks!"
 Message2 " has become weak to physical attacks!"
 Message4 "'s physical resistance has returned to normal."
State 087
 Name "\\*\\C[2]Pleasure Weakness\\C[0]"
 Message1 " has become weak to pleasure!"
 Message2 " has become weak to pleasure!"
 Message4 "'s pleasure resistance has returned to normal."
State 088
 Name "\\*\\C[24]Clear Mind\\C[0]"
 Message1 " has become immune to most elements!"
 Message2 " has become immune to most elements!"
 Message4 "'s elemental resistances have returned to normal."
State 089
 Name "\\*\\C[24]Tri-Element Fist\\C[0]"
 Message1 "'s fists have been imbued with the power of the three monsters!"
 Message2 "'s fists have been imbued with the power of the three monsters!"
 Message4 "'s monster power has run out."
 Notes "<属性強化 3-50,4-50,5-50>"
State 090
 Name "\\*\\C[24]Four Spirits Fist\\C[0]"
 Message1 "'s fists have been imbued with the power of the four spirits!"
 Message2 "'s fists have been imbued with the power of the four spirits!"
 Message4 "'s spirit power has run out."
 Notes "<属性強化 3-50,6-50,7-50,8-50>"
State 091
 Name "\\*\\C[24]Dual Energy Fist\\C[0]"
 Message1 "'s fists have been imbued with holy and dark energies!"
 Message2 "'s fists have been imbued with holy and dark energies!"
 Message4 "'s holy and dark energy has run out."
 Notes "<属性強化 9-50,10-50>"
State 092
 Name "\\*\\C[24]Environmental Defense\\C[0]"
 Message1 " has become immune to fire, ice, and lightning!"
 Message2 " has become immune to fire, ice, and lightning!"
 Message4 "'s elemental resistances have returned to normal."
State 094
 Name "\\*\\C[24]Null Holy\\C[0]"
State 095
 Name "\\*\\C[24]Null Dark\\C[0]"
State 096
 Name "\\*\\C[24]Null Sonic\\C[0]"
State 097
 Name "\\*\\C[24]Null Bio\\C[0]"
State 098
 Name "\\*\\C[24]Null Physical\\C[0]"
 Message1 " has become immune to physical attacks!"
 Message2 " has become immune to physical attacks!"
 Message4 "'s physical resistance has returned to normal."
State 099
 Name "\\*\\C[24]Null Pleasure\\C[0]"
 Message1 " has become immune to pleasure attacks!"
 Message2 " has become immune to pleasure attacks!"
 Message4 "'s pleasure resistance has returned to normal."
State 100
 Name "\\*\\C[24]Null Magic\\C[0]"
 Message1 " has become immune to magical attacks!"
 Message2 " has become immune to magical attacks!"
 Message4 "'s magic resistance has returned to normal."
State 101
 Name "\\*\\C[24]Absorb Fire\\C[0]"
 Notes "<属性吸収 3>"
State 102
 Name "\\*\\C[24]Absorb Ice\\C[0]"
 Notes "<属性吸収 4>"
State 103
 Name "\\*\\C[24]Absorb Lightning\\C[0]"
 Notes "<属性吸収 5>"
State 104
 Name "\\*\\C[24]Song of the Lifestream\\C[0]"
 Message1 " has obtained the protection of the planet!"
 Message2 " has obtained the protection of the planet!"
 Message4 "'s elemental resistance has returned to normal."
 Notes "<属性吸収 6,7,8>"
State 107
 Name "\\*\\C[24]Absorb Holy\\C[0]"
 Notes "<属性吸収 9>"
State 108
 Name "\\*\\C[24]Absorb Dark\\C[0]"
 Notes "<属性吸収 10>"
State 109
 Name "\\*\\C[24]Absorb Sonic\\C[0]"
 Notes "<属性吸収 35>"
State 110
 Name "\\*\\C[24]Absorb Bio\\C[0]"
 Notes "<属性吸収 36>"
State 111
 Name "\\*\\C[24]Absorb Pleasure\\C[0]"
 Message1 " can now absorb pleasure attacks!"
 Message2 " can now absorb pleasure attacks!"
 Message4 "'s pleasure resistance has returned to normal."
 Notes "<属性吸収 2>"
State 112
 Name "\\*\\C[24]Physical Damage Half\\C[0]"
State 113
 Name "\\*\\C[24]Pleasure Damage Half\\C[0]"
 Message1 " has become resistant to pleasure attacks!"
 Message2 " has become resistant to pleasure attacks!"
 Message4 "'s pleasure resistance has returned to normal."
State 114
 Name "\\*\\C[24]Magic Damage Half\\C[0]"
 Message1 " now has a magical barrier!"
 Message2 " now has a magical barrier!"
 Message4 "'s magical barrier has ended."
State 115
 Name "\\*\\C[24]Magic Reflect\\C[0]"
 Message1 " gains a magic reflective wall!"
 Message2 " gains a magic reflective wall!"
 Message4 "'s magic reflective wall has ended."
State 116
 Name "\\*\\C[24]Ascension Strike 75%\\C[0]"
 Message4 "'s weapon has lost the power of ascension!"
State 117
 Name "\\*\\C[24]Death Strike 75%\\C[0]"
 Message4 "'s weapon has lost the power of death!"
State 118
 Name "\\*\\C[24]Poison Strike 75%\\C[0]"
 Message4 "'s weapon has lost the power of poison!"
State 119
 Name "\\*\\C[24]Blind Strike 75%\\C[0]"
 Message4 "'s weapon has lost the power of blind!"
State 120
 Name "\\*\\C[24]Silence Strike 75%\\C[0]"
 Message4 "'s weapon has lost the power of silence!"
State 121
 Name "\\*\\C[24]Confuse Strike 100%\\C[0]"
 Message4 "'s weapon has lost the power of confusion!"
State 122
 Name "\\*\\C[24]Sleep Strike 100%\\C[0]"
 Message4 "'s weapon has lost the power of sleep!"
State 123
 Name "\\*\\C[24]Paralyze Strike 100%\\C[0]"
 Message4 "'s weapon has lost the power of paralysis!"
State 124
 Name "\\*\\C[24]Digestion Strike 75%\\C[0]"
State 125
 Name "\\*\\C[24]Normal Attack HP Drain 100%\\C[0]"
 Message4 "'s weapon has lost the power of physical absorption!"
 Notes "<通常攻撃 7>"
State 126
 Name "\\*\\C[24]Normal Attack MP Drain 100%\\C[0]"
 Message4 "'s weapon has lost the power of magic absorption!"
 Notes "<通常攻撃 8>"
State 127
 Name "\\*\\C[24]Normal Attack Enhance\\C[0]"
 Message1 "'s normal attacks have been enhanced!"
 Message2 "'s normal attacks have been enhanced!"
 Message4 "'s normal attacks have returned to normal."
 Notes "<通常攻撃強化 0-400,1-400,2-400,3-400,4-400,5-400,6-400,7-400,8-400,9-400,10-400,11-400,12-400,13-400,14-400,15-400,16-400,17-400,18-400,19-400,20-400,21-400,22-400,23-400,24-400,25-400,26-400,27-400,28-400,29-400,30-400,31-400>"
State 128
 Name "\\*\\C[24]Poison Immunity\\C[0]"
 Message1 " has become immune to poison!"
 Message2 " has become immune to poison!"
 Message4 "'s poison resistance has returned to normal."
State 129
 Name "\\*\\C[24]Blind Immunity\\C[0]"
 Message1 " has become immune to blind!"
 Message2 " has become immune to blind!"
 Message4 "'s blind resistance has returned to normal."
State 130
 Name "\\*\\C[24]Silence Immunity\\C[0]"
 Message1 " has become immune to silence!"
 Message2 " has become immune to silence!"
 Message4 "'s silence resistance has returned to normal."
State 131
 Name "\\*\\C[24]Confuse/Sleep Immunity\\C[0]"
 Message1 " has become immune to confuse and sleep!"
 Message2 " has become immune to confuse and sleep!"
 Message4 "'s confuse and sleep resistances have returned to normal."
State 132
 Name "\\*\\C[24]Paralyze Immunity\\C[0]"
 Message1 " has become immune to paralysis!"
 Message2 " has become immune to paralysis!"
 Message4 "'s paralyze resistance has returned to normal."
State 133
 Name "\\*\\C[24]Mini Immunity\\C[0]"
 Message1 " has become immune to mini!"
 Message2 " has become immune to mini!"
 Message4 "'s mini resistance has returned to normal."
State 134
 Name "\\*\\C[24]Zombie Immunity\\C[0]"
 Message1 " has become immune to zombification!"
 Message2 " has become immune to zombification!"
 Message4 "'s zombie resistance has returned to normal."
State 135
 Name "\\*\\C[24]Stone Immunity\\C[0]"
 Message1 " has become immune to petrification!"
 Message2 " has become immune to petrification!"
 Message4 "'s petrification resistance has returned to normal."
State 136
 Name "\\*\\C[24]Aphrodisia Immunity\\C[0]"
 Message1 " has become immune to aphrodisiacs!"
 Message2 " has become immune to aphrodisiacs!"
 Message4 "'s aphrodisiac resistance has returned to normal."
State 137
 Name "\\*\\C[24]Status Immunity\\C[0]"
 Message1 " has become immune to abnormal status effects!"
 Message2 " has become immune to abnormal status effects!"
 Message4 "'s status effect resistance has returned to normal."
State 138
 Name "\\*\\C[24]Double Attack\\C[0]"
 Message1 "'s weapon gains divine power!"
 Message2 "'s weapon gains divine power!"
 Message4 "'s attacks return to normal."
State 139
 Name "\\*\\C[24]Triple Attack\\C[0]"
 Message1 "'s weapon gains divine power!"
 Message2 "'s weapon gains divine power!"
 Message4 "'s attacks return to normal."
State 140
 Name "\\*\\C[24]Quad Attack\\C[0]"
 Message1 "'s weapon gains divine power!"
 Message2 "'s weapon gains divine power!"
 Message4 "'s attacks return to normal."
State 141
 Name "\\*\\C[24]Penta Attack\\C[0]"
 Message1 "'s weapon gains divine power!"
 Message2 "'s weapon gains divine power!"
 Message4 "'s attacks return to normal."
State 142
 Name "\\*\\C[24]Hex Attack\\C[0]"
 Message1 "'s weapon gains divine power!"
 Message2 "'s weapon gains divine power!"
 Message4 "'s attacks return to normal."
State 143
 Name "\\*\\C[24]Octo Attack\\C[0]"
 Message1 "'s weapon gains divine power!"
 Message2 "'s weapon gains divine power!"
 Message4 "'s attacks return to normal."
State 144
 Name "\\*\\C[24]Double Action\\C[0]"
State 145
 Name "\\*\\C[24]Triple Action\\C[0]"
State 146
 Name "\\*\\C[24]Chaotic Attack\\C[0]"
 Message1 "'s weapon gains divine power!"
 Message2 "'s weapon gains divine power!"
 Message4 "'s attacks return to normal."
 Notes "<通常攻撃 3>"
State 147
 Name "\\*\\C[24]Master Chaotic Attack\\C[0]"
 Message1 "'s weapon gains divine power!"
 Message2 "'s weapon gains divine power!"
 Message4 "'s attacks return to normal."
 Notes "<通常攻撃 4>"
State 148
 Name "\\*\\C[24]Brief Double Action\\C[0]"
State 149
 Name "Nullify Pleasure Ailments"
 Message1 " is immune against pleasure ailments!"
 Message2 " is immune against pleasure ailments!"
 Message4 "'s pleasure immunity has returned to normal."
State 151
 Name "\\*\\C[24]Auto Resurrection\\C[0]"
 Message1 " is endowed with divine rebirth!"
 Message2 " is endowed with divine rebirth!"
 Notes "<死亡時スキル 3264>\r\n<即死時スキル 3264>"
State 152
 Name "\\*\\C[14]XP ×2\\C[0]"
 Notes "<獲得経験値倍率 200%>"
State 153
 Name "\\*\\C[14]XP ×3\\C[0]"
 Notes "<獲得経験値倍率 300%>"
State 154
 Name "\\*\\C[14]Job XP ×2\\C[0]"
 Notes "<獲得職業経験値倍率 200%>"
State 155
 Name "\\*\\C[14]Job XP ×3\\C[0]"
 Notes "<獲得職業経験値倍率 300%>"
State 156
 Name "\\*\\C[14]Gold Drop Rate ×2\\C[0]"
 Notes "<獲得金額倍率 200%>"
State 157
 Name "\\*\\C[14]Gold Drop Rate ×3\\C[0]"
 Notes "<獲得金額倍率 300%>"
State 158
 Name "\\*\\C[14]Item Drop Rate ×2\\C[0]"
 Notes "<獲得アイテム倍率 200%>"
State 159
 Name "\\*\\C[14]Item Drop Rate ×3\\C[0]"
 Notes "<獲得アイテム倍率 300%>"
State 160
 Name "\\*\\C[14]Party Join Rate ×2\\C[0]"
 Notes "<仲間加入倍率 200%>"
State 161
 Name "\\*\\C[14]Party Join Rate ×3\\C[0]"
 Notes "<仲間加入倍率 300%>"
State 162
 Name "\\*\\C[24]MP Consumption 1/2\\C[0]"
State 163
 Name "\\*\\C[24]MP Consumption 1/4\\C[0]"
State 164
 Name "\\*\\C[24]MP Consumption 0\\C[0]"
State 165
 Name "\\*\\C[24]SP Consumption 1/2\\C[0]"
 Notes "<TP消費率 50%>"
State 166
 Name "\\*\\C[24]SP Consumption 1/4\\C[0]"
 Notes "<TP消費率 25%>"
State 167
 Name "\\*\\C[24]SP Consumption 0\\C[0]"
 Notes "<TP消費率 0%>"
State 168
 Name "\\*\\C[24]Magic Curtain\\C[0]"
 Message1 " now has a magical curtain!"
 Message2 " now has a magical curtain!"
 Message4 "'s magical curtain has ended."
 Notes "<ダメージMP吸収 10%>"
State 169
 Name "\\*\\C[24]Magic Wall\\C[0]"
 Message1 " now has a magical wall!"
 Message2 " now has a magical wall!"
 Message4 "'s magical wall has ended."
 Notes "<ダメージMP変換 100%>"
State 170
 Name "\\*\\C[14]Gold Curtain\\C[0]"
 Message1 " now has a strange protective wall!"
 Message2 " now has a strange protective wall!"
 Message4 "'s strange protective wall has ended."
 Notes "<ダメージゴールド回収 100%>"
State 171
 Name "\\*\\C[24]Money Wall\\C[0]"
 Message1 " now has a strange protective wall!"
 Message2 " now has a strange protective wall!"
 Message4 "'s strange protective wall has ended."
 Notes "<ダメージゴールド変換 100%>"
State 172
 Name "\\*\\C[24]Magic Concentration\\C[0]"
 Message1 "'s magic and willpower are increased for next turn!"
 Message2 "'s magic and willpower are increased for next turn!"
 Notes "<命中率 200%>"
State 173
 Name "\\*\\C[24]Mental Concentration\\C[0]"
 Message1 "'s dexterity and agility are increased for next turn!"
 Message2 "'s dexterity and agility are increased for next turn!"
 Notes "<命中率 200%>"
State 174
 Name "\\*\\C[17]Battle Maid\\C[0]"
 Message1 "'s weapon skills are unlocked!"
 Message2 "'s weapon arts skills are unlocked!"
 Message4 "'s skills have returned to normal."
State 175
 Name "\\*\\C[17]Magical Maid\\C[0]"
 Message1 "'s magical skills are unlocked!"
 Message2 "'s magical skills are unlocked!"
 Message4 "'s skills have returned to normal."
State 176
 Name "\\*\\C[17]Monster Skill Usage\\C[0]"
 Message1 "'s monster skills are unlocked!"
 Message2 "'s monster skills are unlocked!"
 Message4 "'s skills have returned to normal."
State 177
 Name "\\*\\C[17]All Skill Usage\\C[0]"
 Message1 " has all skill types unlocked!"
 Message2 " has all skill types unlocked!"
 Message4 "'s skills have returned to normal."
State 178
 Name "\\*\\C[17]Perfect Maid\\C[0]"
 Message1 " has all skill types unlocked!"
 Message2 " has all skill types unlocked!"
 Message4 "'s skills have returned to normal."
State 179
 Name "捨身撃"
State 180
 Name "\\*\\C[17]Noblesse Oblige\\C[0]"
 Message1 "'s weapon shines with noble intentions!"
 Message2 "'s weapon shines with noble intentions!"
 Message4 "'s weapon returns to normal."
 Notes "<連続発動タイプ 8-2>"
State 181
 Name "To rise from nothing"
 Message1 "'s weapon gains the power of the fierce god!"
 Message2 "'s weapon gains the power of the fierce god!"
 Message4 "'s weapon returns to normal."
 Notes "<連続発動タイプ 9-2>"
State 182
 Name "\\*\\C[17]First Spear\\C[0]"
 Message1 "'s weapon gains the power of the horse god!"
 Message2 "'s weapon gains the power of the horse god!"
 Message4 "'s weapon returns to normal."
State 183
 Name "\\*\\C[17]Supreme Cavalry\\C[0]"
 Message1 "'s weapon gains the power of the horse god!"
 Message2 "'s weapon gains the power of the horse god!"
 Message4 "'s weapon returns to normal."
 Notes "<連続発動タイプ 10-2>"
State 184
 Name "\\*\\C[17]Ixion\\C[0]"
 Message1 "'s weapon gains the power of the horse god!"
 Message2 "'s weapon gains the power of the horse god!"
 Message4 "'s weapon returns to normal."
State 185
 Name "\\*\\C[24]Sylph\\C[0]"
 Message4 " loses Sylph's protection."
 Notes "<属性強化 6-50>\r\n<属性吸収 6>"
State 186
 Name "\\*\\C[24]Gnome\\C[0]"
 Message4 " loses Gnome's protection."
 Notes "<属性強化 7-50>\r\n<属性吸収 7>"
State 187
 Name "\\*\\C[24]Undine\\C[0]"
 Message4 " loses Undine's protection."
 Notes "<属性強化 8-50>\r\n<属性吸収 8>"
State 188
 Name "\\*\\C[24]Salamander\\C[0]"
 Message4 " loses Salamander's protection."
 Notes "<属性強化 3-50>\r\n<属性吸収 3>"
State 189
 Name "\\*\\C[2]Zylphe\\C[0]"
 Message4 " loses the effect from Zylphe."
State 190
 Name "\\*\\C[2]Gnomaren\\C[0]"
 Message4 " loses the effect from Gnomaren."
State 191
 Name "\\*\\C[2]Grandine\\C[0]"
 Message4 " loses the effect from Grandine."
State 192
 Name "\\*\\C[2]Gigamander\\C[0]"
 Message4 " loses the effect from Gigamander."
State 193
 Name "\\*\\C[24]Spirit Stance\\C[0]"
 Message1 " gains the blessing of Heaven and Earth!"
 Message2 " gains the blessing of Heaven and Earth!"
 Message4 "'s protection has ended."
State 194
 Name "\\*\\C[24]Divine Stance\\C[0]"
 Message1 " gains the blessing of Heaven and Earth!"
 Message2 " gains the blessing of Heaven and Earth!"
 Message4 "'s protection has ended."
State 195
 Name "\\*\\C[24]Bird Stance\\C[0]"
 Message1 " gains the blessing of Heaven and Earth!"
 Message2 " gains the blessing of Heaven and Earth!"
 Message4 "'s protection has ended."
State 196
 Name "\\*\\C[24]Dragon Stance\\C[0]"
 Message1 " gains the blessing of Heaven and Earth!"
 Message2 " gains the blessing of Heaven and Earth!"
 Message4 "'s protection has ended."
State 197
 Name "\\*\\C[14]Life Insurance\\C[0]"
 Message1 " takes out a life insurance policy!"
 Message2 " takes out a life insurance policy!"
 Notes "<最終反撃 14>"
State 198
 Name "\\*\\C[24]Continuous Turns\\C[0]"
 Message1 " gets lots of turns in a row!"
 Message2 " gets lots of turns in a row!"
 Message4 "'s turns have ended."
State 199
 Name "\\*\\C[24]Counter Rate +50%\\C[0]"
 Message1 "'s counter rate has increased!"
 Message2 "'s counter rate has increased!"
 Message4 "'s counter rate has returned to normal."
State 200
 Name "\\*\\C[24]Counter Rate +100%\\C[0]"
 Message1 "'s counter rate has greatly increased!"
 Message2 "'s counter rate has greatly increased!"
 Message4 "'s counter rate has returned to normal."
State 201
 Name "\\*\\C[24]Dance of the Snake God\\C[0]"
 Message1 " gains the protection of the snake god!"
 Message2 " gains the protection of the snake god!"
 Message4 " has lost the protection of the snake god."
 Notes "<魔法反撃 100%>\r\n<必中反撃 100%>\r\n<反撃強化 100%>"
State 202
 Name "\\*\\C[24]Max HP +50%\\C[0]"
 Message1 "'s Max HP has temporarily increased!"
 Message2 "'s Max HP has temporarily increased!"
 Message4 "'s doping effect has worn off!"
State 203
 Name "Blitzkrieg"
 Message1 " gains the protection of the machine god!"
 Message2 " gains the protection of the machine god!"
 Message4 " has lost the protection of the machine god."
State 204
 Name "Holy Energy Erosion"
 Message1 " is harmed by unconstrained holy energy!"
 Message2 " is harmed by unconstrained holy energy!"
State 205
 Name "\\*\\C[17]Dullahan Twins\\C[0]"
 Message1 "'s head and body are now acting separately!"
 Message2 "'s head and body are now acting separately!"
 Message4 "'s head and body have returned to normal."
State 206
 Name "\\*\\C[17]Dullahan Rondo\\C[0]"
 Message1 "'s head and body are now acting separately!"
 Message2 "'s head and body are now acting separately!"
 Message4 "'s head and body have returned to normal."
State 208
 Name "\\*\\C[17]Division\\C[0]"
 Message1 " divides! The separate parts are now acting on their own!"
 Message2 " divides! The separate parts are now acting on their own!"
 Message4 "'s divisions come back together."
State 209
 Name "\\*\\C[17]Divine Destiny\\C[0]"
 Message1 " divides! The separate parts are now acting on their own!"
 Message2 " divides! The separate parts are now acting on their own!"
 Message4 "'s divisions come back together."
State 210
 Name "\\*\\C[17]Ultimate Colony\\C[0]"
 Message1 " divides! The separate parts are now acting on their own!"
 Message2 " divides! The separate parts are now acting on their own!"
 Message4 "'s divisions come back together."
State 211
 Name "\\*\\C[17]Lunatic High\\C[0]"
 Message1 " goes wild!"
 Message2 " goes wild!"
 Message4 "'s recklessness wears off."
State 212
 Name "\\*\\C[17]Genocide High\\C[0]"
 Message1 " goes wild!"
 Message2 " goes wild!"
 Message4 "'s recklessness wears off."
State 213
 Name "\\*\\C[17]Lunatic\\C[0]"
 Message1 " goes wild!"
 Message2 " goes wild!"
 Message4 "'s recklessness wears off."
 Notes "<TP消費率 0%>"
State 214
 Name "\\*\\C[13]Sleepy Kitty\\C[0]"
 Message3 " is fast asleep..."
 Message4 " woke up!"
State 216
 Name "\\*\\C[24]Soft Body\\C[0]"
 Message4 "'s body has returned to normal."
State 217
 Name "\\*\\C[24]Group Behavior\\C[0]"
 Message1 "'s allies provide covering fire!"
 Message2 "'s allies provide covering fire!"
 Message4 "'s allies back off."
 Notes "<連続発動タイプ 57-2>"
State 218
 Name "\\*\\C[24]Group Leader\\C[0]"
 Message1 "'s allies provide covering fire!"
 Message2 "'s allies provide covering fire!"
 Message4 "'s allies back off."
 Notes "<連続発動タイプ 57-3>"
State 219
 Name "\\*\\C[17]Spirit Form\\C[0]"
 Message1 " has transformed into spirit form!"
 Message2 " has transformed into spirit form!"
 Message4 " has returned to a normal form."
State 220
 Name "\\*\\C[24]Stealth\\C[0]"
State 221
 Name "\\*\\C[17]Limiter Release\\C[0]"
 Message1 " goes wild!"
 Message2 " goes wild!"
 Message4 "'s recklessness wears off."
 Notes "<連続発動タイプ 6-2,7-2,8-2,9-2,10-2,11-2,12-2,13-2,14-2,15-2,16-2,17-2,18-2,19-2,20-2,21-2,50-2,51-2,52-2,53-2,54-2,55-2,56-2,57-2,58-2,59-2,60-2,61-2,62-2>"
State 222
 Name "\\*\\C[17]Chaotic Magic\\C[0]"
 Message1 " goes wild!"
 Message2 " goes wild!"
 Message4 "'s recklessness wears off."
State 223
 Name "\\*\\C[24]Deep Breath\\C[0]"
 Message1 "'s metabolism is stimulated!"
 Message2 "'s metabolism is stimulated!"
 Message4 "'s metabolism has returned to normal."
State 224
 Name "\\*\\C[24]Tactical Breathing\\C[0]"
 Message1 "'s metabolism is stimulated!"
 Message2 "'s metabolism is stimulated!"
 Message4 "'s metabolism has returned to normal."
State 225
 Name "\\*\\C[24]Charge\\C[0]"
 Message1 "'s attack power is increased for the next turn!"
 Message2 "'s attack power is increased for the next turn!"
State 226
 Name "\\*\\C[24]Focused Spirit\\C[0]"
 Message1 "'s attack power is increased for the next turn!"
 Message2 "'s attack power is increased for the next turn!"
State 227
 Name "\\*\\C[24]Full Charge\\C[0]"
 Message1 "'s attack power is increased for the next turn!"
 Message2 "'s attack power is increased for the next turn!"
State 228
 Name "\\*\\C[24]Permanent Transformation\\C[0]"
 Message3 " has transformed..."
 Message4 "'s transformation has reverted!"
State 229
 Name "\\*\\C[17]Stage Time\\C[0]"
 Message4 "'s stage time is over!"
State 230
 Name "\\*\\C[18]Death\\C[0]"
 Message1 " draws their last breath!"
 Message2 " draws their last breath!"
 Notes "<即死>"
State 231
 Name "\\*\\C[18]Ascension\\C[0]"
 Message1 " ascends to Heaven!"
 Message2 " ascends to Heaven!"
 Notes "<即死>"
State 232
 Name "\\*\\C[18]Climax\\C[0]"
 Message1 " reached climax!"
 Message2 " reached climax!"
 Notes "<即死>\r\n<快楽死亡>"
State 233
 Name "\\*\\C[24]Instant KO Protection\\C[0]"
 Message1 " is protected against instant death!"
 Message2 " is protected against instant death!"
 Message4 "'s instant death protection has worn off."
State 234
 Name "\\*\\C[24]Chaos Event: Charge\\C[0]"
 Message1 "'s attack power is increased for the next turn!"
 Message2 "'s attack power is increased for the next turn!"
State 235
 Name "\\*\\C[24]Massive Mucus Secretion\\C[0]"
 Message4 "'s body returns to normal!"
 Notes "<反撃スキル 26>"
State 236
 Name "\\*\\C[24]Digestive Liquid Erosion\\C[0]"
 Notes "<ターン終了時発動 37,100%>"
State 237
 Name "\\*\\C[24]Venus Nepenthes\\C[0]"
 Notes "<ターン終了時発動 38,100%>"
State 238
 Name "\\*\\C[24]Request Reinforcements\\C[0]"
 Notes "<ターン終了時発動 39,100%>"
State 239
 Name "\\*\\C[24]Support Bombardment\\C[0]"
 Message1 " initiates an artillery bombardment!"
 Notes "<ターン終了時発動 40,100%>"
State 240
 Name "\\*\\C[24]Kaiser Fleet\\C[0]"
 Message1 "'s artillery bombardment continues!"
 Notes "<ターン終了時発動 41,100%>"
State 241
 Name "\\*\\C[24]Armada Bombardment\\C[0]"
 Message1 "'s artillery bombardment continues!"
 Notes "<ターン終了時発動 42,100%>"
State 242
 Name "\\*\\C[24]Mermaid Cannon\\C[0]"
 Message1 "'s artillery bombardment continues!"
 Notes "<ターン終了時発動 43,100%>"
State 243
 Name "\\*\\C[24]Group Strike\\C[0]"
 Notes "<ターン終了時発動 44,100%>"
State 244
 Name "\\*\\C[24]Clan Assault\\C[0]"
 Notes "<ターン終了時発動 45,100%>"
State 245
 Name "\\*\\C[24]Light of Victory Katana: Imperial Wrath\\C[0]"
 Notes "<無効化反撃 100%>\r\n<無効化魔法反撃 100%>\r\n<反撃スキル 46>"
State 246
 Name "\\*\\C[24]Supreme Dragon Guard\\C[0]"
 Notes "<無効化反撃 100%>\r\n<無効化魔法反撃 100%>\r\n<反撃スキル 47>"
State 247
 Name "\\*\\C[24]Taoism: 4 Symbol Pentagram\\C[0]"
 Notes "<無効化魔法反撃 100%>\r\n<反撃スキル 48>"
State 249
 Name "\\*\\C[24]Knockout Palm\\C[0]"
 Notes "<無効化反撃 100%>\r\n<無効化魔法反撃 100%>\r\n<反撃スキル 50>"
State 250
 Name "\\*\\C[17]Hard Job Mode\\C[0]"
 Notes "<連続発動タイプ 50-2,51-2,52-2,53-2,54-2,55-2,56-2,57-2,58-2,59-2,60-2,61-2,62-2,63-2>"
State 251
 Name "\\*\\C[24]Evasion +75%\\C[0]"
State 252
 Name "\\*\\C[24]Daystar\\C[0]"
 Notes "<無効化反撃 100%>\r\n<無効化魔法反撃 100%>\r\n<無効化必中反撃 100%>\r\n<反撃スキル 49>"
State 253
 Name "\\*\\C[24]Daystar (Enemy)\\C[0]"
 Notes "<無効化反撃 100%>\r\n<無効化魔法反撃 100%>\r\n<無効化必中反撃 100%>\r\n<反撃スキル 4599>"
State 254
 Name "\\*\\C[17]Waiting\\C[0]"
State 255
 Name "\\*\\C[24]Morning Star\\C[0]"
 Notes "<無効化反撃 100%>\r\n<反撃スキル 57>"
State 256
 Name "\\*\\C[24]Weapon Skills ×2\\C[0]"
 Message1 " gains the power of consecutive weapon skills!"
 Message2 " gains the power of consecutive weapon skills!"
 Message4 " has returned to normal."
 Notes "<連続発動タイプ 6-2,7-2,8-2,9-2,10-2,11-2,12-2,13-2,14-2,15-2,16-2,17-2,18-2,19-2,20-2,21-2>"
State 257
 Name "\\*\\C[24]Magic Skills ×2\\C[0]"
 Message1 " gains the power of dualcasting!"
 Message2 " gains the power of dualcasting!"
 Message4 " has returned to normal."
 Notes "<連続発動タイプ 22-2,23-2,24-2,25-2,26-2,27-2,29-2,40-2,41-2,42-2>"
State 258
 Name "\\*\\C[24]Multi Recovery\\C[0]"
 Message1 "'s metabolism has been invigorated!"
 Message2 "'s metabolism has been invigorated!"
 Message4 "'s metabolism has returned to normal."
State 259
 Name "\\*\\C[24]Guaranteed Critical Hit\\C[0]"
 Message1 " surges with power!"
 Message2 " surges with power!"
 Message4 " returns to normal."
 Notes "<命中率 200%>"
State 260
 Name "\\*\\C[24]Six Element Absorb\\C[0]"
 Message1 " gains the power of element absorption!"
 Message2 " gains the power of element absorption!"
 Message4 " has lost the power of element absorption."
 Notes "<属性吸収 3,4,5,6,7,8>"
State 261
 Name "\\*\\C[24]Absorb Physical\\C[0]"
 Message1 " gains the power of physical absorption!"
 Message2 " gains the power of physical absorption!"
 Message4 "  has lost the power of physical absorption."
 Notes "<属性吸収 1>"
State 262
 Name "\\*\\C[24]Physical-Pleasure Reflect\\C[0]"
 Message1 " gains the power of physical and pleasure reflection!"
 Message2 " gains the power of physical and pleasure reflection!"
 Message4 " has lost the power of physical and pleasure reflection."
 Notes "<属性反射:1,2>"
State 263
 Name "\\*\\C[24]Chaos Damage Half\\C[0]"
 Message1 "'s resistance to chaos elements has increased!"
 Message2 "'s resistance to chaos elements has increased!"
 Message4 "'s chaos resistance has returned to normal."
State 264
 Name "\\*\\C[24]Alchemy - Excalibur\\C[0]"
 Message1 " wields (a created) Excalibur!"
 Message2 " wields (a created) Excalibur!"
 Notes "<属性強化 9-50>"
State 265
 Name "\\*\\C[24]Supreme Dragon Guard (Enemy)\\C[0]"
 Notes "<無効化反撃 100%>\r\n<無効化魔法反撃 100%>\r\n<反撃スキル 5740>"
State 266
 Name "\\*\\C[24]Guard Bit\\C[0]"
 Message1 " now ignores all damage below 100!"
 Message4 "'s damage resistance has worn off."
 Notes "<無効化障壁 100>"
State 267
 Name "\\*\\C[24]Protect Bit\\C[0]"
 Message1 " now ignores all damage below 300!"
 Message4 "'s damage resistance has worn off."
 Notes "<無効化障壁 300>"
State 268
 Name "\\*\\C[24]Field Bit\\C[0]"
 Message1 " now ignores all damage below 1000!"
 Message4 "'s damage resistance has worn off."
 Notes "<無効化障壁 1000>"
State 269
 Name "\\*\\C[24]Ultima Bit\\C[0]"
 Message1 " now ignores all damage below 3000!"
 Message4 "'s damage resistance has worn off."
 Notes "<無効化障壁 1000>"
State 270
 Name "必中回避率50%アップ"
 Notes "<必中回避率 50%>"
State 271
 Name "\\*\\C[13]Stun 2\\C[0]"
 Message1 " has fallen to the ground!"
 Message2 " has fallen to the ground!"
 Message3 " rolls around and struggles..."
 Message4 " managed to stand up!"
 Notes "<回避率 -200%>\r\n<魔法回避率 -200%>"
State 272
 Name "\\*\\C[13]Stun 3\\C[0]"
 Message1 " is frozen in place, cowering!"
 Message2 " is frozen in place, cowering!"
 Message3 " is still cowering..."
 Message4 " returns to normal."
 Notes "<回避率 -200%>\r\n<魔法回避率 -200%>"
State 273
 Name "\\*\\C[13]Stun 4\\C[0]"
 Message1 " is lured into a dance!"
 Message2 " is lured into a dance!"
 Message3 " is still dancing..."
 Message4 " returns to normal."
 Notes "<回避率 -200%>\r\n<魔法回避率 -200%>"
State 274
 Name "\\*\\C[13]Stun 5\\C[0]"
 Message1 " takes a SPARKLE☆ pose!"
 Message2 " takes a SPARKLE☆ pose!"
 Message3 " maintains a SPARKLE☆ pose..."
 Message4 " returns to normal."
 Notes "<回避率 -200%>\r\n<魔法回避率 -200%>"
State 275
 Name "\\*\\C[13]Stun 6\\C[0]"
 Message1 " laughs uncontrollably!"
 Message2 " laughs uncontrollably!"
 Message3 " is still laughing..."
 Message4 " returns to normal."
 Notes "<回避率 -200%>\r\n<魔法回避率 -200%>"
State 276
 Name "\\*\\C[13]Stun 7\\C[0]"
 Message1 " is completely captivated!"
 Message2 " is completely captivated!"
 Message3 " is still captivated..."
 Message4 " returns to normal."
 Notes "<回避率 -200%>\r\n<魔法回避率 -200%>"
State 277
 Name "\\*\\C[24]Negate+Counter Skill with Royal Bombardment\\C[0]"
 Notes "<無効化反撃 25%>\r\n<反撃スキル 3338>"
State 278
 Name "\\*\\C[24]Negate+Counter Skill with Pope's Prayer\\C[0]"
 Notes "<無効化反撃 25%>\r\n<反撃スキル 3337>"
State 279
 Name "\\*\\C[24]Negate+Counter Skill with Magic King\\C[0]"
 Notes "<無効化反撃 25%>\r\n<反撃スキル 3336>"
State 280
 Name "\\*\\C[24]Negate+Counter Skill with King's Wrath\\C[0]"
 Notes "<無効化反撃 25%>\r\n<反撃スキル 3335>"
State 281
 Name "\\*\\C[24]Illusion Heaven Dance\\C[0]"
 Message4 " returns to normal."
 Notes "<回避率 50%>\r\n<魔法回避率 200%>\r\n<必中回避率 33%>\r\n<命中率 200%>"
State 282
 Name "\\*\\C[24]Fallen Angel Dance\\C[0]"
 Message4 " returns to normal."
 Notes "<回避率 200%>\r\n<魔法回避率 50%>\r\n<必中回避率 33%>\r\n<命中率 200%>"
State 283
 Name "\\*\\C[24]Murderer's Permission\\C[0]"
 Message1 "'s katana flashes with the power to kill!"
 Message2 "'s katana flashes with the power to kill!"
 Message4 "'s katana returns to normal."
State 284
 Name "\\*\\C[24]Lucky Star\\C[0]"
 Message1 " looks up to see a lucky star shining overhead!"
 Message2 " looks up to see a lucky star shining overhead!"
 Message4 " looks up to see the lucky star vanish."
State 285
 Name "\\*\\C[14]Lucky Hunter\\C[0]"
 Message1 "'s Experience points and Gold for this battle are doubled!"
 Message2 "'s Experience points and Gold for this battle are doubled!"
 Notes "<獲得経験値倍率 200%>\r\n<獲得職業経験値倍率 200%>\r\n<獲得金額倍率 200%>"
State 286
 Name "\\*\\C[2]Dance of the Dragon Palace\\C[0]"
 Message1 "'s attributes have all been weakened!"
 Message2 "'s attributes have all been weakened!"
 Message4 "'s attribute resists have returned to normal."
State 287
 Name "\\*\\C[24]Dance of the Snake Miko\\C[0]"
 Message1 "'s metabolism is stimulated!"
 Message2 "'s metabolism is stimulated!"
 Message4 "'s metabolism has returned to normal."
State 288
 Name "\\*\\C[24]Harpy Dance\\C[0]"
 Message1 " floats through the air dancing!"
 Message2 " floats through the air dancing!"
 Message4 " returns to the ground."
State 289
 Name "\\*\\C[24]Perfect Sky Dance\\C[0]"
 Message1 " dances with flawless movements!"
 Message2 " dances with flawless movements!"
 Message4 "'s movements return to normal."
State 290
 Name "\\*\\C[24]Kitsune Dance\\C[0]"
 Message1 "'s MP and SP consumption is reduced!"
 Message2 "'s MP and SP consumption is reduced!"
 Message4 "'s MP and SP consumption has returned to normal."
 Notes "<TP消費率 25%>"
State 291
 Name "\\*\\C[17]Maid Boost\\C[0]"
 Message1 " gets a boost!"
 Message2 " gets a boost!"
 Message4 "'s boost has ended."
State 292
 Name "\\*\\C[24]Magic Evasion +75%\\C[0]"
State 293
 Name "\\*\\C[24]Tentacle Up\\C[0]"
 Message4 "'s tentacles return to normal."
 Notes "<連続発動タイプ 55-2>"
State 294
 Name "\\*\\C[24]High Tentacle Up\\C[0]"
 Message4 "'s tentacles return to normal."
 Notes "<連続発動タイプ 55-3>"
State 295
 Name "\\*\\C[24]EX Tentacle Up\\C[0]"
 Message4 "'s tentacles return to normal."
 Notes "<連続発動タイプ 55-4>"
State 296
 Name "\\*\\C[24]Zero MP/SP Cost\\C[0]"
 Message1 "'s skills no longer consume MP or SP!"
 Message2 "'s skills no longer consume MP or SP!"
 Message4 "'s MP and SP consumption returned to normal."
 Notes "<TP消費率 0%>"
State 297
 Name "\\*\\C[24]Focus Mind\\C[0]"
 Message1 "'s attack power and critical hit rate increase!"
 Message2 "'s attack power and critical hit rate increase!"
 Message4 "'s attack power and critical hit rate return to normal."
State 298
 Name "\\*\\C[24]Inner Focus Mind\\C[0]"
 Message1 "'s attack power and critical hit rate increase!"
 Message2 "'s attack power and critical hit rate increase!"
 Message4 "'s attack power and critical hit rate return to normal."
State 299
 Name "\\*\\C[24]Dragon Steel Body\\C[0]"
 Message1 "'s body becomes as strong as a dragon's!"
 Message2 "'s body becomes as strong as a dragon's!"
 Message4 "'s body returns to normal."
State 300
 Name "\\*\\C[24]Playful Wind\\C[0]"
 Message4 " has lost the blessing of the wind."
State 301
 Name "\\*\\C[24]Devastating Gale\\C[0]"
 Message4 " has lost the blessing of the wind."
 Notes "<命中率 200%>"
State 302
 Name "\\*\\C[24]Breath of the Earth\\C[0]"
 Message4 " has lost the blessing of the earth."
State 303
 Name "\\*\\C[24]Wild Lands\\C[0]"
 Message4 " has lost the blessing of the earth."
State 304
 Name "\\*\\C[24]Serene Mind\\C[0]"
 Message4 "'s preparedness returns to normal."
 Notes "<命中率 200%>"
State 306
 Name "\\*\\C[24]Defense Up\\C[0]"
 Message1 "'s defensive power has increased!"
 Message2 "'s defensive power has increased!"
 Message4 "'s defensive power has returned to normal."
State 307
 Name "\\*\\C[24]Willpower Up\\C[0]"
 Message1 "'s magic defense has increased!"
 Message2 "'s magic defense has increased!"
 Message4 "'s magic defense has returned to normal!"
State 308
 Name "\\*\\C[2]Defense Down\\C[0]"
 Message1 "'s defensive power has decreased!"
 Message2 "'s defensive power has decreased!"
 Message4 "'s defensive power has returned to normal."
State 309
 Name "\\*\\C[2]Willpower Down\\C[0]"
 Message1 "'s magic defense has decreased!"
 Message2 "'s magic defense has decreased!"
 Message4 "'s magic defense has returned to normal!"
State 311
 Name "\\*\\C[24]Imbue Fire Fist\\C[0]"
 Message1 "'s fists are imbued with the power of fire!"
 Message4 "'s fists have returned to normal."
 Notes "<属性強化 3-50>"
State 312
 Name "\\*\\C[24]Imbue Ice Fist\\C[0]"
 Message1 "'s fists are imbued with the power of ice!"
 Message4 "'s fists have returned to normal."
 Notes "<属性強化 4-50>"
State 313
 Name "\\*\\C[24]Imbue Thunder Fist\\C[0]"
 Message1 "'s fists are imbued with the power of thunder!"
 Message4 "'s fists have returned to normal."
 Notes "<属性強化 5-50>"
State 314
 Name "\\*\\C[24]Imbue Wind Fist\\C[0]"
 Message1 "'s fists are imbued with the power of wind!"
 Message4 "'s fists have returned to normal."
 Notes "<属性強化 6-50>"
State 315
 Name "\\*\\C[24]Imbue Earth Fist\\C[0]"
 Message1 "'s fists are imbued with the power of earth!"
 Message4 "'s fists have returned to normal."
 Notes "<属性強化 7-50>"
State 316
 Name "\\*\\C[24]Imbue Water Fist\\C[0]"
 Message1 "'s fists are imbued with the power of water!"
 Message4 "'s fists have returned to normal."
 Notes "<属性強化 8-50>"
State 318
 Name "Very Easy Mode: Allies"
State 319
 Name "Very Easy Mode: Enemies"
State 320
 Name "\\*\\C[24]Defense Up\\C[0]"
 Message1 "'s defensive power has increased!"
 Message2 "'s defensive power has increased!"
 Message4 "'s defensive power has returned to normal."
State 321
 Name "\\*\\C[24]Willpower Up\\C[0]"
 Message1 "'s magic defense has increased!"
 Message2 "'s magic defense has increased!"
 Message4 "'s magic defense has returned to normal!"
State 322
 Name "\\*\\C[24]Katana Skill ×2\\C[0]"
 Message1 "'s blade is imbued by the sword god!"
 Message2 "'s blade is imbued by the sword god!"
 Message4 "'s blade returns to normal."
 Notes "<連続発動タイプ 9-2>"
State 323
 Name "\\*\\C[24]Sword Skill ×2\\C[0]"
 Message1 "'s blade is imbued by the sword god!"
 Message2 "'s blade is imbued by the sword god!"
 Message4 "'s blade returns to normal."
 Notes "<連続発動タイプ 7-2>"
State 324
 Name "\\*\\C[24]Spear Skill ×2\\C[0]"
 Message1 "'s blade is imbued by the sword god!"
 Message2 "'s blade is imbued by the sword god!"
 Message4 "'s blade returns to normal."
 Notes "<連続発動タイプ 10-2>"
State 325
 Name "\\*\\C[24]Zero Shift\\C[0]"
 Notes "<回避率 -500%>\r\n<魔法回避率 -500%>\r\n<会心率 -500%>\r\n<魔法反射率 -500%>\r\n<物理反射率 -500%>"
State 326
 Name "\\*\\C[2]Chaos Event: Weapon Skills Sealed\\C[0]"
State 327
 Name "\\*\\C[2]Chaos Event: Magic Sealed\\C[0]"
State 328
 Name "\\*\\C[2]Chaos Event: Job Skills Sealed\\C[0]"
State 329
 Name "\\*\\C[24]Chaos Event: MP Consumption Halved\\C[0]"
State 330
 Name "\\*\\C[24]Chaos Event: SP Consumption Halved\\C[0]"
 Notes "<TP消費率 50%>"
State 332
 Name "\\*\\C[24]Level Drain+\\C[0]"
State 333
 Name "\\*\\C[2]Level Drain-\\C[0]"
 Message1 "'s level has temporarily decreased!"
State 335
 Name "\\*\\C[24]Human Slayer\\C[0]"
 Message4 "'s Species Slayer effect has worn off!"
 Notes "<特殊カテゴリー与ダメージアップ 11-50>"
State 336
 Name "\\*\\C[24]Yoma Slayer\\C[0]"
 Message4 "'s Species Slayer effect has worn off!"
 Notes "<特殊カテゴリー与ダメージアップ 12-50>"
State 337
 Name "\\*\\C[24]Demi-Human Slayer\\C[0]"
 Message4 "'s Species Slayer effect has worn off!"
 Notes "<特殊カテゴリー与ダメージアップ 13-50>"
State 338
 Name "\\*\\C[24]Succubus Slayer\\C[0]"
 Message4 "'s Species Slayer effect has worn off!"
 Notes "<特殊カテゴリー与ダメージアップ 14-50>"
State 339
 Name "\\*\\C[24]Vampire Slayer\\C[0]"
 Message4 "'s Species Slayer effect has worn off!"
 Notes "<特殊カテゴリー与ダメージアップ 15-50>"
State 340
 Name "\\*\\C[24]Mermaid Slayer\\C[0]"
 Message4 "'s Species Slayer effect has worn off!"
 Notes "<特殊カテゴリー与ダメージアップ 16-50>"
State 341
 Name "\\*\\C[24]Elf Slayer\\C[0]"
 Message4 "'s Species Slayer effect has worn off!"
 Notes "<特殊カテゴリー与ダメージアップ 17-50>"
State 342
 Name "\\*\\C[24]Fairy Slayer\\C[0]"
 Message4 "'s Species Slayer effect has worn off!"
 Notes "<特殊カテゴリー与ダメージアップ 18-50>"
State 343
 Name "\\*\\C[24]Slime Slayer\\C[0]"
 Message4 "'s Species Slayer effect has worn off!"
 Notes "<特殊カテゴリー与ダメージアップ 19-50>"
State 344
 Name "\\*\\C[24]Beast Slayer\\C[0]"
 Message4 "'s Species Slayer effect has worn off!"
 Notes "<特殊カテゴリー与ダメージアップ 20-50>"
State 345
 Name "\\*\\C[24]Kitsune Slayer\\C[0]"
 Message4 "'s Species Slayer effect has worn off!"
 Notes "<特殊カテゴリー与ダメージアップ 21-50>"
State 346
 Name "\\*\\C[24]Lamia Slayer\\C[0]"
 Message4 "'s Species Slayer effect has worn off!"
 Notes "<特殊カテゴリー与ダメージアップ 22-50>"
State 347
 Name "\\*\\C[24]Scylla Slayer\\C[0]"
 Message4 "'s Species Slayer effect has worn off!"
 Notes "<特殊カテゴリー与ダメージアップ 23-50>"
State 348
 Name "\\*\\C[24]Harpy Slayer\\C[0]"
 Message4 "'s Species Slayer effect has worn off!"
 Notes "<特殊カテゴリー与ダメージアップ 24-50>"
State 349
 Name "\\*\\C[24]Dragon Slayer\\C[0]"
 Message4 "'s Species Slayer effect has worn off!"
 Notes "<特殊カテゴリー与ダメージアップ 25-50>"
State 350
 Name "\\*\\C[24]Land-Dweller Slayer\\C[0]"
 Message4 "'s Species Slayer effect has worn off!"
 Notes "<特殊カテゴリー与ダメージアップ 26-50>"
State 351
 Name "\\*\\C[24]Sea-Dweller Slayer\\C[0]"
 Message4 "'s Species Slayer effect has worn off!"
 Notes "<特殊カテゴリー与ダメージアップ 27-50>"
State 352
 Name "\\*\\C[24]Insect Slayer\\C[0]"
 Message4 "'s Species Slayer effect has worn off!"
 Notes "<特殊カテゴリー与ダメージアップ 28-50>"
State 353
 Name "\\*\\C[24]Plant Slayer\\C[0]"
 Message4 "'s Species Slayer effect has worn off!"
 Notes "<特殊カテゴリー与ダメージアップ 29-50>"
State 354
 Name "\\*\\C[24]Zombie Slayer\\C[0]"
 Message4 "'s Species Slayer effect has worn off!"
 Notes "<特殊カテゴリー与ダメージアップ 30-50>"
State 355
 Name "\\*\\C[24]Ghost Slayer\\C[0]"
 Message4 "'s Species Slayer effect has worn off!"
 Notes "<特殊カテゴリー与ダメージアップ 31-50>"
State 356
 Name "\\*\\C[24]Doll Slayer\\C[0]"
 Message4 "'s Species Slayer effect has worn off!"
 Notes "<特殊カテゴリー与ダメージアップ 32-50>"
State 357
 Name "\\*\\C[24]Chimera Slayer\\C[0]"
 Message4 "'s Species Slayer effect has worn off!"
 Notes "<特殊カテゴリー与ダメージアップ 33-50>"
State 358
 Name "\\*\\C[24]Angel Slayer\\C[0]"
 Message4 "'s Species Slayer effect has worn off!"
 Notes "<特殊カテゴリー与ダメージアップ 34-50>"
State 359
 Name "\\*\\C[24]Giant Slayer\\C[0]"
 Message4 "'s Species Slayer effect has worn off!"
 Notes "<特殊カテゴリー与ダメージアップ 37-50>"
State 361
 Name "\\*\\C[24]Ultimate Charge\\C[0]"
 Message1 "'s attack power is increased for the next turn!"
 Message2 "'s attack power is increased for the next turn!"
 Notes "<命中率 200%>"
State 362
 Name "\\*\\C[24]Magical Rampage\\C[0]"
 Message1 "'s magic and willpower are increased for next turn!"
 Message2 "'s magic and willpower are increased for next turn!"
 Notes "<命中率 200%>"
State 363
 Name "\\*\\C[24]Technical Burst\\C[0]"
 Message1 "'s dexterity is increased for next turn!"
 Message2 "'s dexterity is increased for next turn!"
 Notes "<命中率 200%>"
State 364
 Name "\\*\\C[24]Acceleration\\C[0]"
 Message1 "'s agility is increased for next turn!"
 Message2 "'s agility is increased for next turn!"
 Notes "<命中率 200%>"
State 366
 Name "\\*\\C[24]Cosmo Heal\\C[0]"
 Notes "<ターン終了時発動 58,100%>"
State 367
 Name "\\*\\C[24]Perfect Evasion 75%\\C[0]"
 Notes "<必中回避率 75%>"
State 368
 Name "\\*\\C[14]All XP+Gold ×5\\C[0]"
 Message1 "'s Experience points and Gold for this battle are quantified!"
 Message2 "'s Experience points and Gold for this battle are quantified!"
 Notes "<獲得経験値倍率 500%>\r\n<獲得職業経験値倍率 500%>\r\n<獲得金額倍率 500%>"
State 369
 Name "\\*\\C[24]Max HP +100%\\C[0]"
 Message1 "'s Max HP has temporarily increased!"
 Message2 "'s Max HP has temporarily increased!"
 Message4 "'s doping effect has worn off!"
State 370
 Name "\\*\\C[24]Physical Damage Quarter\\C[0]"
 Message1 "'s physical resistance has greatly increased!"
 Message2 "'s physical resistance has greatly increased!"
 Message4 "'s magic resistance has returned to normal."
State 371
 Name "\\*\\C[24]Magic Damage Quarter\\C[0]"
 Message1 "'s magic resistance has greatly increased!"
 Message2 "'s magic resistance has greatly increased!"
 Message4 "'s magic resistance has returned to normal."
State 372
 Name "\\*\\C[24]All Damage Half\\C[0]"
 Message1 "'s resistance to all attacks has increased!"
 Message2 "'s resistance to all attacks has increased!"
 Message4 "'s resistance to all attacks has returned to normal."
 Notes "<必中ダメージ率 50%>"
State 373
 Name "\\*\\C[24]All Damage Quarter\\C[0]"
 Message1 "'s resistance to all attacks has greatly increased!"
 Message2 "'s resistance to all attacks has greatly increased!"
 Message4 "'s resistance to all attacks has returned to normal."
 Notes "<必中ダメージ率 25%>"
State 374
 Name "\\*\\C[24]Null All Damage\\C[0]"
 Message1 " has become immune to all damage!"
 Message2 " has become immune to all damage!"
 Message4 "'s resistance to all attacks has returned to normal."
 Notes "<必中ダメージ率 0%>"
State 375
 Name "\\*\\C[24]Quad Spirit Summon\\C[0]"
 Message1 "'s abilities have increased tremendously!"
 Message2 "'s abilities have increased tremendously!"
 Message4 "'s abilities have returned to normal."
State 376
 Name "\\*\\C[24]Goddess Ilias\\C[0]"
 Message4 "'s protection from the Goddess has vanished!"
State 378
 Name "\\*\\C[24]Sexcraft Skill ×2\\C[0]"
 Notes "<スキルタイプ強化 49-100>"
State 379
 Name "\\*\\C[24]Demon Arts Skill ×2\\C[0]"
 Notes "<スキルタイプ強化 50-100>"
State 380
 Name "\\*\\C[24]Ocean Skill ×2\\C[0]"
 Notes "<スキルタイプ強化 51-100>"
State 381
 Name "\\*\\C[24]Slime Skill ×2\\C[0]"
 Notes "<スキルタイプ強化 52-100>"
State 382
 Name "\\*\\C[24]Beast Skill ×2\\C[0]"
 Notes "<スキルタイプ強化 53-100>"
State 383
 Name "\\*\\C[24]Snake Skill ×2\\C[0]"
 Notes "<スキルタイプ強化 54-100>"
State 384
 Name "\\*\\C[24]Tentacle Skill ×2\\C[0]"
 Notes "<スキルタイプ強化 55-100>"
State 385
 Name "\\*\\C[24]Wing Skill ×2\\C[0]"
 Notes "<スキルタイプ強化 56-100>"
State 386
 Name "\\*\\C[24]Insect Skill ×2\\C[0]"
 Notes "<スキルタイプ強化 57-100>"
State 387
 Name "\\*\\C[24]Plant Skill ×2\\C[0]"
 Notes "<スキルタイプ強化 58-100>"
State 388
 Name "\\*\\C[24]Corpse Skill ×2\\C[0]"
 Notes "<スキルタイプ強化 59-100>"
State 389
 Name "\\*\\C[24]Artificial Skill ×2\\C[0]"
 Notes "<スキルタイプ強化 60-100>"
State 390
 Name "\\*\\C[24]Nature Skill ×2\\C[0]"
 Notes "<スキルタイプ強化 61-100>"
State 391
 Name "\\*\\C[24]Breath Skill ×2\\C[0]"
 Notes "<スキルタイプ強化 62-100>"
State 393
 Name "\\*\\C[2]Attack Down\\C[0]"
 Message1 "'s attack power has decreased!"
 Message2 "'s attack power has decreased!"
 Message4 "'s attack power has returned to normal."
State 394
 Name "\\*\\C[2]Magic Down\\C[0]"
 Message1 "'s magic power has decreased!"
 Message2 "'s magic power has decreased!"
 Message4 "'s magic power has returned to normal."
State 395
 Name "\\*\\C[2]Dexterity Down\\C[0]"
 Message1 "'s dexterity has decreased!"
 Message2 "'s dexterity has decreased!"
 Message4 "'s dexterity has returned to normal."
State 396
 Name "\\*\\C[2]Agility Down\\C[0]"
 Message1 "'s agility has decreased!"
 Message2 "'s agility has decreased!"
 Message4 "'s agility has returned to normal."
State 397
 Name "\\*\\C[2]All Stats Down\\C[0]"
 Message1 "'s abilities have decreased!"
 Message2 "'s abilities have decreased!"
 Message4 "'s abilities have returned to normal."
State 398
 Name "\\*\\C[2]Greater Agility Down\\C[0]"
 Message1 "'s agility has greatly decreased!"
 Message2 "'s agility has greatly decreased!"
 Message4 "'s agility has returned to normal."
State 399
 Name "\\*\\C[24]Attack Up\\C[0]"
 Message1 "'s attack power has increased!"
 Message2 "'s attack power has increased!"
 Message4 "'s attack power has returned to normal."
State 400
 Name "\\*\\C[24]Magic Up\\C[0]"
 Message1 "'s magic power has increased!"
 Message2 "'s magic power has increased!"
 Message4 "'s magic power has returned to normal."
State 401
 Name "\\*\\C[24]Dexterity Up\\C[0]"
 Message1 "'s dexterity has increased!"
 Message2 "'s dexterity has increased!"
 Message4 "'s dexterity has returned to normal."
State 402
 Name "\\*\\C[24]Agility Up\\C[0]"
 Message1 "'s agility has increased!"
 Message2 "'s agility has increased!"
 Message4 "'s agility has returned to normal."
State 403
 Name "\\*\\C[24]All Stats Up\\C[0]"
 Message1 "'s abilities have increased!"
 Message2 "'s abilities have increased!"
 Message4 "'s abilities have returned to normal."
State 404
 Name "\\*\\C[24]All Stats Up ×3\\C[0]"
 Message1 "'s abilities have increased!"
 Message2 "'s abilities have increased!"
 Message4 "'s abilities have returned to normal."
State 405
 Name "全能力アップ3倍永続"
State 406
 Name "Chaos Status Abnormality 50"
State 407
 Name "Chaos Status Abnormality 25"
State 408
 Name "Chaos Status Abnormality 1"
State 409
 Name "Chaos Instant Death 50"
State 410
 Name "Chaos Instant Death 25"
State 411
 Name "Chaos Instant Death 1"
State 413
 Name "\\*\\C[24]Defensive Attack\\C[0]"
 Message1 " shifts to a defensive stance..."
State 414
 Name "Chaos Status Abnormality 1"
State 415
 Name "Evade Attacks"
State 416
 Name "\\*\\C[24]Auto Magic Concentration\\C[0]"
 Message1 "'s magic power is increased for next turn!"
 Message2 "'s magic power is increased for next turn!"
 Notes "<命中率 200%>"
State 417
 Name "\\*\\C[24]Fire Damage Quarter\\C[0]"
State 418
 Name "\\*\\C[24]Ice Damage Quarter\\C[0]"
State 419
 Name "\\*\\C[24]Lightning Damage Quarter\\C[0]"
State 420
 Name "\\*\\C[24]Wind Damage Quarter\\C[0]"
State 421
 Name "\\*\\C[24]Earth Damage Quarter\\C[0]"
State 422
 Name "\\*\\C[24]Water Damage Quarter\\C[0]"
State 423
 Name "\\*\\C[24]Bio Damage Quarter\\C[0]"
State 424
 Name "\\*\\C[24]Pleasure Damage Half\\C[0]"
State 425
 Name "\\*\\C[24]Terra Damage Half\\C[0]"
State 426
 Name "\\*\\C[24]Physical Switch\\C[0]"
 Message1 " shifts to physical mode!"
State 427
 Name "\\*\\C[24]Magic Switch\\C[0]"
 Message1 " shifts to magic mode!"
State 428
 Name "\\*\\C[24]Nimble Switch\\C[0]"
 Message1 " shifts to quick mode!"
State 429
 Name "\\*\\C[24]Supporting Fire Counter 50%\\C[0]"
 Notes "<反撃スキル 40>"
State 430
 Name "Vampire Robe"
 Notes "<物理ダメージ率 0%>\r\n<魔法ダメージ率 0%>\r\n<必中ダメージ率 0%>"
State 431
 Name "Protection of the Stars"
 Notes "<属性反射:6,7,8>\r\n<属性強化 6-300,7-300,8-300>"
State 432
 Name "Moon Song Talisman"
 Notes "<ターン終了時発動 1739,100%>"
State 434
 Name "\\*\\C[24]Holy Amplification\\C[0]"
 Notes "<属性強化 9-30>"
State 435
 Name "\\*\\C[24]Dark Amplification\\C[0]"
 Notes "<属性強化 10-30>"
State 436
 Name "全属性ガードキル"
 Message1 "の全属性耐性が無効化した！"
 Message2 "の全属性耐性が無効化した！"
 Message4 "の全属性耐性が元に戻った！"
 Notes "<属性耐性固定 3-0,4-0,5-0,6-0,7-0,8-0,9-0,10-0,43-0,44-0,45-0,46-0,47-0,48-0,49-0,50-0>"
State 437
 Name "ワールドエンジン"
 Message1 "の全属性攻撃が超強化された！"
 Message2 "の全属性攻撃が超強化された！"
 Message4 "の属性威力が元に戻った！"
 Notes "<属性強化 3-100,4-100,5-100,6-100,7-100,8-100,9-100,10-100,43-100,44-100,45-100,46-100,47-100,48-100,49-100,50-100>"
State 438
 Name "高揚"
 Message1 "の器用さと淫技の威力が上がった！"
 Message2 "の器用さと淫技の威力が上がった！"
 Message4 "の高揚感は収まった！"
 Notes "<スキルタイプ強化 49-50>"
State 439
 Name "フラッシュカウンター"
 Notes "<無効化反撃 100%>\r\n<無効化魔法反撃 100%>\r\n<反撃スキル 5832>"
State 440
 Name "バーサーク"
 Message1 "はバーサーク状態になった！"
 Message2 "はバーサーク状態になった！"
 Message4 "のバーサークは解除された！"
 Notes "<連続発動タイプ 7-2>"
State 441
 Name "ツーハンド"
 Message1 "の剣技が連続発動する！"
 Message2 "の剣技が連続発動する！"
 Message4 "のツーハンドは解除された！"
 Notes "<連続発動タイプ 7-2>"
State 442
 Name "処刑執行"
 Message1 "はフォーム覚醒した！"
 Message2 "はフォーム覚醒した！"
 Message4 "のフォームは解除された！"
 Notes "<連続発動タイプ 10-2>\r\n<速攻発動スキルタイプ:10>\r\n<拡張回避率 40%>"
State 443
 Name "鬼牙解放"
 Message1 "はフォーム覚醒した！"
 Message2 "はフォーム覚醒した！"
 Message4 "のフォームは解除された！"
 Notes "<スキルタイプ強化 21-50>\r\n<反撃強化 500%>"
State 444
 Name "神殺ノ枝"
 Message1 "はフォーム覚醒した！"
 Message2 "はフォーム覚醒した！"
 Message4 "のフォームは解除された！"
 Notes "<スキルタイプ強化 7-50,23-50,27-50>\r\n<拡張会心率 65%>"
State 445
 Name "クールカーム"
 Message1 "に精神系状態異常は効かなくなった！"
 Message2 "に精神系状態異常は効かなくなった！"
 Message4 "の精神系状態異常耐性が元に戻った！"
State 446
 Name "ボルテクステップ"
 Message1 "の特定スキルが速攻発動する！"
 Message2 "の特定スキルが速攻発動する！"
 Message4 "のボルテクステップは解除された！"
 Notes "<速攻発動スキルタイプ:7>\r\n<速攻発動スキルタイプ:19>\r\n<速攻発動スキルタイプ:23>"
State 447
 Name "フローズン"
 Message1 "はフローズン状態になった！"
 Message2 "はフローズン状態になった！"
 Message4 "のフローズンは解除された！"
State 448
 Name "消費MPSP半分"
 Message1 "の消費MPおよびSPが低下した！"
 Message2 "の消費MPおよびSPが低下した！"
 Message4 "の消費MPおよびSPが元に戻った！"
 Notes "<TP消費率 50%>"
State 449
 Name "ライジング"
 Message1 "はライジング状態になった！"
 Message2 "はライジング状態になった！"
 Message4 "のライジングは解除された！"
State 450
 Name "ヘル・ブレイク"
 Message1 "はヘル・ブレイク状態になった！"
 Message2 "はヘル・ブレイク状態になった！"
 Message4 "のヘル・ブレイクは解除された！"
State 451
 Name "クロスカウンター"
 Notes "<反撃スキル 5834>"
State 452
 Name "アルラウネフォーム"
 Message1 "はアルラウネフォームに変化した！"
 Message2 "はアルラウネフォームに変化した！"
 Message4 "はノーマルフォームに戻った！"
State 453
 Name "ビーストフォーム"
 Message1 "はビーストフォームに変化した！"
 Message2 "はビーストフォームに変化した！"
 Message4 "はノーマルフォームに戻った！"
State 454
 Name "ジェルフォーム"
 Message1 "はジェルフォームに変化した！"
 Message2 "はジェルフォームに変化した！"
 Message4 "はノーマルフォームに戻った！"
State 455
 Name "やまびこの術"
 Message1 "の術がやまびことなって返ってきた！"
 Message2 "の術がやまびことなって返ってきた！"
 Message4 "の術がやまびことなって返ってきた！"
 Notes "<連続発動タイプ 31-2>"
State 456
 Name "ヴァギナクイッケン"
 Message2 "の動作が超スピードとなった！"
 Message4 "の動作が通常に戻った！"
 Notes "<連続発動タイプ 49-2>"
State 457
 Name "グリマギルデ"
 Message1 "の全能力が上がった！"
 Message2 "の全能力が上がった！"
 Message4 "の全能力が元に戻った！"
State 458
 Name "アドレナリンラッシュ"
 Message1 "の通常攻撃が強化された！"
 Message2 "の通常攻撃が強化された！"
 Message4 "の通常攻撃が元に戻った！"
 Notes "<通常攻撃強化 0-400,1-400,2-400,3-400,4-400,5-400,6-400,7-400,8-400,9-400,10-400,11-400,12-400,13-400,14-400,15-400,16-400,17-400,18-400,19-400,20-400,21-400,22-400,23-400,24-400,25-400,26-400,27-400,28-400,29-400,30-400,31-400>"
State 459
 Name "逆切れ"
 Notes "<魔法反撃率 100%>\r\n<必中反撃率 100%>\r\n<反撃スキル 5888>"
State 460
 Name "逆切れ（敵）"
 Notes "<魔法反撃率 100%>\r\n<必中反撃率 100%>\r\n<反撃スキル 5908>"
State 461
 Name "サキュバスプリズン"
 Message1 "の淫術結界が周囲の空間を覆い込む！"
 Notes "<ターン終了時発動 5903,100%>"
State 462
 Name "装備武器スキル封印"
State 463
 Name "全属性快楽"
 Notes "<全攻撃属性付加 2>"
State 464
 Name "全能力アップ3倍"
 Message1 "の全能力が上がった！"
 Message2 "の全能力が上がった！"
 Message4 "のブースト効果が切れた！"
State 465
 Name "激励"
 Message1 "の攻撃力と器用さが上がった！"
 Message2 "の攻撃力と器用さが上がった！"
 Message4 "は元に戻った！"
State 466
 Name "おひつじさま"
State 467
 Name "サイコドレイン"
 Message4 "の刃から体力吸収の力が消えた！"
 Notes "<通常攻撃 7>\r\n<属性強化 2-50>"
State 468
 Name "状態異常耐性強化"
 Message1 "に状態異常は効きにくくなった！"
 Message2 "に状態異常は効きにくくなった！"
 Message4 "の状態異常耐性が元に戻った！"
State 469
 Name "風火輪ブースト"
 Message1 "の速度がさらにアップした！"
 Message4 "の風火輪ブーストが停止した！"
 Notes "<連続発動タイプ 29-2,64-2>"